%TF.GenerationSoftware,KiCad,Pcbnew,5.1.5*%
%TF.CreationDate,2020-01-18T22:47:01+01:00*%
%TF.ProjectId,ZORRO-LAN-IDE-CP-V2EFront,5a4f5252-4f2d-44c4-914e-2d4944452d43,rev?*%
%TF.SameCoordinates,Original*%
%TF.FileFunction,Copper,L1,Top*%
%TF.FilePolarity,Positive*%
%FSLAX46Y46*%
G04 Gerber Fmt 4.6, Leading zero omitted, Abs format (unit mm)*
G04 Created by KiCad (PCBNEW 5.1.5) date 2020-01-18 22:47:01*
%MOMM*%
%LPD*%
G04 APERTURE LIST*
%ADD10C,1.500000*%
%ADD11C,2.200000*%
%ADD12C,1.214400*%
%ADD13C,0.254000*%
%ADD14C,0.127000*%
G04 APERTURE END LIST*
D10*
X145713100Y-99326600D03*
X145713100Y-101866600D03*
X145713100Y-107708600D03*
X145713100Y-110248600D03*
X153079100Y-109232600D03*
X150539100Y-107962600D03*
X153079100Y-106692600D03*
X150539100Y-105422600D03*
X153079100Y-104152600D03*
X150539100Y-102882600D03*
X153079100Y-101612600D03*
X150539100Y-100342600D03*
D11*
X156381100Y-97040600D03*
X156381100Y-112534600D03*
D12*
X137331100Y-97167600D03*
X139871100Y-97167600D03*
X137331100Y-99707600D03*
X139871100Y-99707600D03*
X137331100Y-102247600D03*
X139871100Y-102247600D03*
X137331100Y-104787600D03*
X139871100Y-104787600D03*
X137331100Y-107327600D03*
X139871100Y-107327600D03*
X137331100Y-109867600D03*
X139871100Y-109867600D03*
X137331100Y-112407600D03*
X139871100Y-112407600D03*
D13*
X139871100Y-107327600D02*
X140506100Y-107327600D01*
X140506100Y-107327600D02*
X141268100Y-106565600D01*
X148253100Y-106565600D02*
X141268100Y-106565600D01*
X153079100Y-106692600D02*
X149650100Y-106692600D01*
X149650100Y-106692600D02*
X149269100Y-106311600D01*
X149269100Y-106311600D02*
X148507100Y-106311600D01*
X148507100Y-106311600D02*
X148253100Y-106565600D01*
X137331100Y-107327600D02*
X137966100Y-107327600D01*
X137966100Y-107327600D02*
X139236100Y-106057600D01*
X139236100Y-106057600D02*
X148126100Y-106057600D01*
X148126100Y-106057600D02*
X150031100Y-104152600D01*
X150031100Y-104152600D02*
X153079100Y-104152600D01*
X148634100Y-102882600D02*
X150539100Y-102882600D01*
X139871100Y-102247600D02*
X140633100Y-101485600D01*
X140633100Y-101485600D02*
X140887100Y-101485600D01*
X140887100Y-101485600D02*
X144011300Y-104609800D01*
X148634100Y-102882600D02*
X146906900Y-104609800D01*
X146906900Y-104609800D02*
X144011300Y-104609800D01*
X139871100Y-99707600D02*
X141776100Y-99707600D01*
X141776100Y-99707600D02*
X144316100Y-97167600D01*
X144316100Y-97167600D02*
X150666100Y-97167600D01*
X150666100Y-97167600D02*
X152571100Y-99072600D01*
X152571100Y-99072600D02*
X152571100Y-101104600D01*
X152571100Y-101104600D02*
X153079100Y-101612600D01*
X137331100Y-102247600D02*
X137966100Y-102247600D01*
X137966100Y-102247600D02*
X139236100Y-100977600D01*
X139236100Y-100977600D02*
X141141100Y-100977600D01*
X141141100Y-100977600D02*
X144316100Y-104152600D01*
X144316100Y-104152600D02*
X146729100Y-104152600D01*
X146729100Y-104152600D02*
X150539100Y-100342600D01*
D14*
G36*
X162734400Y-134686899D02*
G01*
X134267801Y-134686899D01*
X134267801Y-131452986D01*
X156575600Y-131452986D01*
X156575600Y-131810214D01*
X156645292Y-132160579D01*
X156781997Y-132490614D01*
X156980462Y-132787639D01*
X157233061Y-133040238D01*
X157530086Y-133238703D01*
X157860121Y-133375408D01*
X158210486Y-133445100D01*
X158567714Y-133445100D01*
X158918079Y-133375408D01*
X159248114Y-133238703D01*
X159545139Y-133040238D01*
X159797738Y-132787639D01*
X159996203Y-132490614D01*
X160132908Y-132160579D01*
X160202600Y-131810214D01*
X160202600Y-131452986D01*
X160132908Y-131102621D01*
X159996203Y-130772586D01*
X159797738Y-130475561D01*
X159545139Y-130222962D01*
X159248114Y-130024497D01*
X158918079Y-129887792D01*
X158567714Y-129818100D01*
X158210486Y-129818100D01*
X157860121Y-129887792D01*
X157530086Y-130024497D01*
X157233061Y-130222962D01*
X156980462Y-130475561D01*
X156781997Y-130772586D01*
X156645292Y-131102621D01*
X156575600Y-131452986D01*
X134267801Y-131452986D01*
X134267801Y-127642986D01*
X156575600Y-127642986D01*
X156575600Y-128000214D01*
X156645292Y-128350579D01*
X156781997Y-128680614D01*
X156980462Y-128977639D01*
X157233061Y-129230238D01*
X157530086Y-129428703D01*
X157860121Y-129565408D01*
X158210486Y-129635100D01*
X158567714Y-129635100D01*
X158918079Y-129565408D01*
X159248114Y-129428703D01*
X159545139Y-129230238D01*
X159797738Y-128977639D01*
X159996203Y-128680614D01*
X160132908Y-128350579D01*
X160202600Y-128000214D01*
X160202600Y-127642986D01*
X160132908Y-127292621D01*
X159996203Y-126962586D01*
X159797738Y-126665561D01*
X159545139Y-126412962D01*
X159248114Y-126214497D01*
X158918079Y-126077792D01*
X158567714Y-126008100D01*
X158210486Y-126008100D01*
X157860121Y-126077792D01*
X157530086Y-126214497D01*
X157233061Y-126412962D01*
X156980462Y-126665561D01*
X156781997Y-126962586D01*
X156645292Y-127292621D01*
X156575600Y-127642986D01*
X134267801Y-127642986D01*
X134267801Y-123832986D01*
X156575600Y-123832986D01*
X156575600Y-124190214D01*
X156645292Y-124540579D01*
X156781997Y-124870614D01*
X156980462Y-125167639D01*
X157233061Y-125420238D01*
X157530086Y-125618703D01*
X157860121Y-125755408D01*
X158210486Y-125825100D01*
X158567714Y-125825100D01*
X158918079Y-125755408D01*
X159248114Y-125618703D01*
X159545139Y-125420238D01*
X159797738Y-125167639D01*
X159996203Y-124870614D01*
X160132908Y-124540579D01*
X160202600Y-124190214D01*
X160202600Y-123832986D01*
X160132908Y-123482621D01*
X159996203Y-123152586D01*
X159797738Y-122855561D01*
X159545139Y-122602962D01*
X159248114Y-122404497D01*
X158918079Y-122267792D01*
X158567714Y-122198100D01*
X158210486Y-122198100D01*
X157860121Y-122267792D01*
X157530086Y-122404497D01*
X157233061Y-122602962D01*
X156980462Y-122855561D01*
X156781997Y-123152586D01*
X156645292Y-123482621D01*
X156575600Y-123832986D01*
X134267801Y-123832986D01*
X134267801Y-120022986D01*
X156575600Y-120022986D01*
X156575600Y-120380214D01*
X156645292Y-120730579D01*
X156781997Y-121060614D01*
X156980462Y-121357639D01*
X157233061Y-121610238D01*
X157530086Y-121808703D01*
X157860121Y-121945408D01*
X158210486Y-122015100D01*
X158567714Y-122015100D01*
X158918079Y-121945408D01*
X159248114Y-121808703D01*
X159545139Y-121610238D01*
X159797738Y-121357639D01*
X159996203Y-121060614D01*
X160132908Y-120730579D01*
X160202600Y-120380214D01*
X160202600Y-120022986D01*
X160132908Y-119672621D01*
X159996203Y-119342586D01*
X159797738Y-119045561D01*
X159545139Y-118792962D01*
X159248114Y-118594497D01*
X158918079Y-118457792D01*
X158567714Y-118388100D01*
X158210486Y-118388100D01*
X157860121Y-118457792D01*
X157530086Y-118594497D01*
X157233061Y-118792962D01*
X156980462Y-119045561D01*
X156781997Y-119342586D01*
X156645292Y-119672621D01*
X156575600Y-120022986D01*
X134267801Y-120022986D01*
X134267801Y-116212986D01*
X156575600Y-116212986D01*
X156575600Y-116570214D01*
X156645292Y-116920579D01*
X156781997Y-117250614D01*
X156980462Y-117547639D01*
X157233061Y-117800238D01*
X157530086Y-117998703D01*
X157860121Y-118135408D01*
X158210486Y-118205100D01*
X158567714Y-118205100D01*
X158918079Y-118135408D01*
X159248114Y-117998703D01*
X159545139Y-117800238D01*
X159797738Y-117547639D01*
X159996203Y-117250614D01*
X160132908Y-116920579D01*
X160202600Y-116570214D01*
X160202600Y-116212986D01*
X160132908Y-115862621D01*
X159996203Y-115532586D01*
X159797738Y-115235561D01*
X159545139Y-114982962D01*
X159248114Y-114784497D01*
X158918079Y-114647792D01*
X158567714Y-114578100D01*
X158210486Y-114578100D01*
X157860121Y-114647792D01*
X157530086Y-114784497D01*
X157233061Y-114982962D01*
X156980462Y-115235561D01*
X156781997Y-115532586D01*
X156645292Y-115862621D01*
X156575600Y-116212986D01*
X134267801Y-116212986D01*
X134267801Y-113572909D01*
X155467949Y-113572909D01*
X155587512Y-113777446D01*
X155845228Y-113908385D01*
X156123536Y-113986532D01*
X156411743Y-114008882D01*
X156698773Y-113974576D01*
X156973594Y-113884931D01*
X157174688Y-113777446D01*
X157294251Y-113572909D01*
X156381100Y-112659758D01*
X155467949Y-113572909D01*
X134267801Y-113572909D01*
X134267801Y-112326768D01*
X136510400Y-112326768D01*
X136510400Y-112488432D01*
X136541939Y-112646989D01*
X136603805Y-112796347D01*
X136693621Y-112930766D01*
X136807934Y-113045079D01*
X136942353Y-113134895D01*
X137091711Y-113196761D01*
X137250268Y-113228300D01*
X137411932Y-113228300D01*
X137570489Y-113196761D01*
X137719847Y-113134895D01*
X137854266Y-113045079D01*
X137968579Y-112930766D01*
X138058395Y-112796347D01*
X138120261Y-112646989D01*
X138151800Y-112488432D01*
X138151800Y-112326768D01*
X139050400Y-112326768D01*
X139050400Y-112488432D01*
X139081939Y-112646989D01*
X139143805Y-112796347D01*
X139233621Y-112930766D01*
X139347934Y-113045079D01*
X139482353Y-113134895D01*
X139631711Y-113196761D01*
X139790268Y-113228300D01*
X139951932Y-113228300D01*
X140110489Y-113196761D01*
X140259847Y-113134895D01*
X140394266Y-113045079D01*
X140508579Y-112930766D01*
X140598395Y-112796347D01*
X140660261Y-112646989D01*
X140676521Y-112565243D01*
X154906818Y-112565243D01*
X154941124Y-112852273D01*
X155030769Y-113127094D01*
X155138254Y-113328188D01*
X155342791Y-113447751D01*
X156255942Y-112534600D01*
X156506258Y-112534600D01*
X157419409Y-113447751D01*
X157623946Y-113328188D01*
X157754885Y-113070472D01*
X157833032Y-112792164D01*
X157855382Y-112503957D01*
X157821076Y-112216927D01*
X157731431Y-111942106D01*
X157623946Y-111741012D01*
X157419409Y-111621449D01*
X156506258Y-112534600D01*
X156255942Y-112534600D01*
X155342791Y-111621449D01*
X155138254Y-111741012D01*
X155007315Y-111998728D01*
X154929168Y-112277036D01*
X154906818Y-112565243D01*
X140676521Y-112565243D01*
X140691800Y-112488432D01*
X140691800Y-112326768D01*
X140660261Y-112168211D01*
X140598395Y-112018853D01*
X140508579Y-111884434D01*
X140394266Y-111770121D01*
X140259847Y-111680305D01*
X140110489Y-111618439D01*
X139951932Y-111586900D01*
X139790268Y-111586900D01*
X139631711Y-111618439D01*
X139482353Y-111680305D01*
X139347934Y-111770121D01*
X139233621Y-111884434D01*
X139143805Y-112018853D01*
X139081939Y-112168211D01*
X139050400Y-112326768D01*
X138151800Y-112326768D01*
X138120261Y-112168211D01*
X138058395Y-112018853D01*
X137968579Y-111884434D01*
X137854266Y-111770121D01*
X137719847Y-111680305D01*
X137570489Y-111618439D01*
X137411932Y-111586900D01*
X137250268Y-111586900D01*
X137091711Y-111618439D01*
X136942353Y-111680305D01*
X136807934Y-111770121D01*
X136693621Y-111884434D01*
X136603805Y-112018853D01*
X136541939Y-112168211D01*
X136510400Y-112326768D01*
X134267801Y-112326768D01*
X134267801Y-111496291D01*
X155467949Y-111496291D01*
X156381100Y-112409442D01*
X157294251Y-111496291D01*
X157174688Y-111291754D01*
X156916972Y-111160815D01*
X156638664Y-111082668D01*
X156350457Y-111060318D01*
X156063427Y-111094624D01*
X155788606Y-111184269D01*
X155587512Y-111291754D01*
X155467949Y-111496291D01*
X134267801Y-111496291D01*
X134267801Y-110554638D01*
X136769220Y-110554638D01*
X136829367Y-110708742D01*
X137003106Y-110790463D01*
X137189450Y-110836719D01*
X137381237Y-110845732D01*
X137571098Y-110817156D01*
X137751736Y-110752089D01*
X137832833Y-110708742D01*
X137892980Y-110554638D01*
X137331100Y-109992758D01*
X136769220Y-110554638D01*
X134267801Y-110554638D01*
X134267801Y-109917737D01*
X136352968Y-109917737D01*
X136381544Y-110107598D01*
X136446611Y-110288236D01*
X136489958Y-110369333D01*
X136644062Y-110429480D01*
X137205942Y-109867600D01*
X137456258Y-109867600D01*
X138018138Y-110429480D01*
X138172242Y-110369333D01*
X138253963Y-110195594D01*
X138300219Y-110009250D01*
X138309232Y-109817463D01*
X138304613Y-109786768D01*
X139050400Y-109786768D01*
X139050400Y-109948432D01*
X139081939Y-110106989D01*
X139143805Y-110256347D01*
X139233621Y-110390766D01*
X139347934Y-110505079D01*
X139482353Y-110594895D01*
X139631711Y-110656761D01*
X139790268Y-110688300D01*
X139951932Y-110688300D01*
X140110489Y-110656761D01*
X140259847Y-110594895D01*
X140394266Y-110505079D01*
X140508579Y-110390766D01*
X140598395Y-110256347D01*
X140640911Y-110153704D01*
X144749600Y-110153704D01*
X144749600Y-110343496D01*
X144786627Y-110529643D01*
X144859257Y-110704988D01*
X144964701Y-110862795D01*
X145098905Y-110996999D01*
X145256712Y-111102443D01*
X145432057Y-111175073D01*
X145618204Y-111212100D01*
X145807996Y-111212100D01*
X145994143Y-111175073D01*
X146169488Y-111102443D01*
X146327295Y-110996999D01*
X146461499Y-110862795D01*
X146566943Y-110704988D01*
X146639573Y-110529643D01*
X146676600Y-110343496D01*
X146676600Y-110153704D01*
X146650311Y-110021538D01*
X152415320Y-110021538D01*
X152492723Y-110190244D01*
X152690816Y-110286240D01*
X152903832Y-110341745D01*
X153123583Y-110354626D01*
X153341625Y-110324389D01*
X153350050Y-110321464D01*
X157590000Y-110321464D01*
X157590000Y-110683736D01*
X157660675Y-111039046D01*
X157799310Y-111373741D01*
X158000577Y-111674958D01*
X158256742Y-111931123D01*
X158557959Y-112132390D01*
X158892654Y-112271025D01*
X159247964Y-112341700D01*
X159610236Y-112341700D01*
X159965546Y-112271025D01*
X160300241Y-112132390D01*
X160601458Y-111931123D01*
X160857623Y-111674958D01*
X161058890Y-111373741D01*
X161197525Y-111039046D01*
X161268200Y-110683736D01*
X161268200Y-110321464D01*
X161197525Y-109966154D01*
X161058890Y-109631459D01*
X160857623Y-109330242D01*
X160601458Y-109074077D01*
X160300241Y-108872810D01*
X159965546Y-108734175D01*
X159610236Y-108663500D01*
X159247964Y-108663500D01*
X158892654Y-108734175D01*
X158557959Y-108872810D01*
X158256742Y-109074077D01*
X158000577Y-109330242D01*
X157799310Y-109631459D01*
X157660675Y-109966154D01*
X157590000Y-110321464D01*
X153350050Y-110321464D01*
X153549578Y-110252195D01*
X153665477Y-110190244D01*
X153742880Y-110021538D01*
X153079100Y-109357758D01*
X152415320Y-110021538D01*
X146650311Y-110021538D01*
X146639573Y-109967557D01*
X146566943Y-109792212D01*
X146461499Y-109634405D01*
X146327295Y-109500201D01*
X146169488Y-109394757D01*
X145994143Y-109322127D01*
X145807996Y-109285100D01*
X145618204Y-109285100D01*
X145432057Y-109322127D01*
X145256712Y-109394757D01*
X145098905Y-109500201D01*
X144964701Y-109634405D01*
X144859257Y-109792212D01*
X144786627Y-109967557D01*
X144749600Y-110153704D01*
X140640911Y-110153704D01*
X140660261Y-110106989D01*
X140691800Y-109948432D01*
X140691800Y-109786768D01*
X140660261Y-109628211D01*
X140598395Y-109478853D01*
X140508579Y-109344434D01*
X140441228Y-109277083D01*
X151957074Y-109277083D01*
X151987311Y-109495125D01*
X152059505Y-109703078D01*
X152121456Y-109818977D01*
X152290162Y-109896380D01*
X152953942Y-109232600D01*
X153204258Y-109232600D01*
X153868038Y-109896380D01*
X154036744Y-109818977D01*
X154132740Y-109620884D01*
X154188245Y-109407868D01*
X154201126Y-109188117D01*
X154170889Y-108970075D01*
X154098695Y-108762122D01*
X154036744Y-108646223D01*
X153868038Y-108568820D01*
X153204258Y-109232600D01*
X152953942Y-109232600D01*
X152290162Y-108568820D01*
X152121456Y-108646223D01*
X152025460Y-108844316D01*
X151969955Y-109057332D01*
X151957074Y-109277083D01*
X140441228Y-109277083D01*
X140394266Y-109230121D01*
X140259847Y-109140305D01*
X140110489Y-109078439D01*
X139951932Y-109046900D01*
X139790268Y-109046900D01*
X139631711Y-109078439D01*
X139482353Y-109140305D01*
X139347934Y-109230121D01*
X139233621Y-109344434D01*
X139143805Y-109478853D01*
X139081939Y-109628211D01*
X139050400Y-109786768D01*
X138304613Y-109786768D01*
X138280656Y-109627602D01*
X138215589Y-109446964D01*
X138172242Y-109365867D01*
X138018138Y-109305720D01*
X137456258Y-109867600D01*
X137205942Y-109867600D01*
X136644062Y-109305720D01*
X136489958Y-109365867D01*
X136408237Y-109539606D01*
X136361981Y-109725950D01*
X136352968Y-109917737D01*
X134267801Y-109917737D01*
X134267801Y-109180562D01*
X136769220Y-109180562D01*
X137331100Y-109742442D01*
X137892980Y-109180562D01*
X137832833Y-109026458D01*
X137659094Y-108944737D01*
X137472750Y-108898481D01*
X137280963Y-108889468D01*
X137091102Y-108918044D01*
X136910464Y-108983111D01*
X136829367Y-109026458D01*
X136769220Y-109180562D01*
X134267801Y-109180562D01*
X134267801Y-108751538D01*
X149875320Y-108751538D01*
X149952723Y-108920244D01*
X150150816Y-109016240D01*
X150363832Y-109071745D01*
X150583583Y-109084626D01*
X150801625Y-109054389D01*
X151009578Y-108982195D01*
X151125477Y-108920244D01*
X151202880Y-108751538D01*
X150539100Y-108087758D01*
X149875320Y-108751538D01*
X134267801Y-108751538D01*
X134267801Y-105474638D01*
X136769220Y-105474638D01*
X136829367Y-105628742D01*
X137003106Y-105710463D01*
X137189450Y-105756719D01*
X137381237Y-105765732D01*
X137571098Y-105737156D01*
X137751736Y-105672089D01*
X137832833Y-105628742D01*
X137892980Y-105474638D01*
X137331100Y-104912758D01*
X136769220Y-105474638D01*
X134267801Y-105474638D01*
X134267801Y-104837737D01*
X136352968Y-104837737D01*
X136381544Y-105027598D01*
X136446611Y-105208236D01*
X136489958Y-105289333D01*
X136644062Y-105349480D01*
X137205942Y-104787600D01*
X137456258Y-104787600D01*
X138018138Y-105349480D01*
X138172242Y-105289333D01*
X138253963Y-105115594D01*
X138300219Y-104929250D01*
X138304519Y-104837737D01*
X138892968Y-104837737D01*
X138921544Y-105027598D01*
X138986611Y-105208236D01*
X139029958Y-105289333D01*
X139184062Y-105349480D01*
X139745942Y-104787600D01*
X139996258Y-104787600D01*
X140558138Y-105349480D01*
X140712242Y-105289333D01*
X140793963Y-105115594D01*
X140840219Y-104929250D01*
X140849232Y-104737463D01*
X140820656Y-104547602D01*
X140755589Y-104366964D01*
X140712242Y-104285867D01*
X140558138Y-104225720D01*
X139996258Y-104787600D01*
X139745942Y-104787600D01*
X139184062Y-104225720D01*
X139029958Y-104285867D01*
X138948237Y-104459606D01*
X138901981Y-104645950D01*
X138892968Y-104837737D01*
X138304519Y-104837737D01*
X138309232Y-104737463D01*
X138280656Y-104547602D01*
X138215589Y-104366964D01*
X138172242Y-104285867D01*
X138018138Y-104225720D01*
X137456258Y-104787600D01*
X137205942Y-104787600D01*
X136644062Y-104225720D01*
X136489958Y-104285867D01*
X136408237Y-104459606D01*
X136361981Y-104645950D01*
X136352968Y-104837737D01*
X134267801Y-104837737D01*
X134267801Y-104100562D01*
X136769220Y-104100562D01*
X137331100Y-104662442D01*
X137892980Y-104100562D01*
X139309220Y-104100562D01*
X139871100Y-104662442D01*
X140432980Y-104100562D01*
X140372833Y-103946458D01*
X140199094Y-103864737D01*
X140012750Y-103818481D01*
X139820963Y-103809468D01*
X139631102Y-103838044D01*
X139450464Y-103903111D01*
X139369367Y-103946458D01*
X139309220Y-104100562D01*
X137892980Y-104100562D01*
X137832833Y-103946458D01*
X137659094Y-103864737D01*
X137472750Y-103818481D01*
X137280963Y-103809468D01*
X137091102Y-103838044D01*
X136910464Y-103903111D01*
X136829367Y-103946458D01*
X136769220Y-104100562D01*
X134267801Y-104100562D01*
X134267801Y-102166768D01*
X136510400Y-102166768D01*
X136510400Y-102328432D01*
X136541939Y-102486989D01*
X136603805Y-102636347D01*
X136693621Y-102770766D01*
X136807934Y-102885079D01*
X136942353Y-102974895D01*
X137091711Y-103036761D01*
X137250268Y-103068300D01*
X137411932Y-103068300D01*
X137570489Y-103036761D01*
X137719847Y-102974895D01*
X137854266Y-102885079D01*
X137968579Y-102770766D01*
X138058395Y-102636347D01*
X138087257Y-102566669D01*
X138097034Y-102563703D01*
X138156187Y-102532085D01*
X138208034Y-102489534D01*
X138218699Y-102476539D01*
X139377140Y-101318100D01*
X140319061Y-101318100D01*
X140158737Y-101478424D01*
X140110489Y-101458439D01*
X139951932Y-101426900D01*
X139790268Y-101426900D01*
X139631711Y-101458439D01*
X139482353Y-101520305D01*
X139347934Y-101610121D01*
X139233621Y-101724434D01*
X139143805Y-101858853D01*
X139081939Y-102008211D01*
X139050400Y-102166768D01*
X139050400Y-102328432D01*
X139081939Y-102486989D01*
X139143805Y-102636347D01*
X139233621Y-102770766D01*
X139347934Y-102885079D01*
X139482353Y-102974895D01*
X139631711Y-103036761D01*
X139790268Y-103068300D01*
X139951932Y-103068300D01*
X140110489Y-103036761D01*
X140259847Y-102974895D01*
X140394266Y-102885079D01*
X140508579Y-102770766D01*
X140598395Y-102636347D01*
X140660261Y-102486989D01*
X140691800Y-102328432D01*
X140691800Y-102166768D01*
X140660261Y-102008211D01*
X140640276Y-101959963D01*
X140760100Y-101840138D01*
X143758705Y-104838744D01*
X143769366Y-104851734D01*
X143821213Y-104894285D01*
X143880366Y-104925903D01*
X143944550Y-104945373D01*
X143994577Y-104950300D01*
X143994584Y-104950300D01*
X144011299Y-104951946D01*
X144028014Y-104950300D01*
X146890185Y-104950300D01*
X146906900Y-104951946D01*
X146923615Y-104950300D01*
X146923623Y-104950300D01*
X146973650Y-104945373D01*
X147037834Y-104925903D01*
X147096987Y-104894285D01*
X147148834Y-104851734D01*
X147159499Y-104838739D01*
X148775140Y-103223100D01*
X149637255Y-103223100D01*
X149685257Y-103338988D01*
X149790701Y-103496795D01*
X149924905Y-103630999D01*
X150082712Y-103736443D01*
X150258057Y-103809073D01*
X150273275Y-103812100D01*
X150047815Y-103812100D01*
X150031100Y-103810454D01*
X150014385Y-103812100D01*
X150014377Y-103812100D01*
X149964350Y-103817027D01*
X149900165Y-103836497D01*
X149847333Y-103864737D01*
X149841013Y-103868115D01*
X149789166Y-103910666D01*
X149778506Y-103923655D01*
X147985062Y-105717100D01*
X140166777Y-105717100D01*
X140291736Y-105672089D01*
X140372833Y-105628742D01*
X140432980Y-105474638D01*
X139871100Y-104912758D01*
X139309220Y-105474638D01*
X139369367Y-105628742D01*
X139543106Y-105710463D01*
X139569843Y-105717100D01*
X139252812Y-105717100D01*
X139236099Y-105715454D01*
X139219386Y-105717100D01*
X139219377Y-105717100D01*
X139169350Y-105722027D01*
X139105166Y-105741497D01*
X139076688Y-105756719D01*
X139046013Y-105773115D01*
X139007154Y-105805006D01*
X139007150Y-105805010D01*
X138994166Y-105815666D01*
X138983510Y-105828650D01*
X137984260Y-106827902D01*
X137968579Y-106804434D01*
X137854266Y-106690121D01*
X137719847Y-106600305D01*
X137570489Y-106538439D01*
X137411932Y-106506900D01*
X137250268Y-106506900D01*
X137091711Y-106538439D01*
X136942353Y-106600305D01*
X136807934Y-106690121D01*
X136693621Y-106804434D01*
X136603805Y-106938853D01*
X136541939Y-107088211D01*
X136510400Y-107246768D01*
X136510400Y-107408432D01*
X136541939Y-107566989D01*
X136603805Y-107716347D01*
X136693621Y-107850766D01*
X136807934Y-107965079D01*
X136942353Y-108054895D01*
X137091711Y-108116761D01*
X137250268Y-108148300D01*
X137411932Y-108148300D01*
X137570489Y-108116761D01*
X137719847Y-108054895D01*
X137854266Y-107965079D01*
X137968579Y-107850766D01*
X138058395Y-107716347D01*
X138087257Y-107646669D01*
X138097034Y-107643703D01*
X138156187Y-107612085D01*
X138208034Y-107569534D01*
X138218699Y-107556539D01*
X139377140Y-106398100D01*
X140954061Y-106398100D01*
X140524260Y-106827902D01*
X140508579Y-106804434D01*
X140394266Y-106690121D01*
X140259847Y-106600305D01*
X140110489Y-106538439D01*
X139951932Y-106506900D01*
X139790268Y-106506900D01*
X139631711Y-106538439D01*
X139482353Y-106600305D01*
X139347934Y-106690121D01*
X139233621Y-106804434D01*
X139143805Y-106938853D01*
X139081939Y-107088211D01*
X139050400Y-107246768D01*
X139050400Y-107408432D01*
X139081939Y-107566989D01*
X139143805Y-107716347D01*
X139233621Y-107850766D01*
X139347934Y-107965079D01*
X139482353Y-108054895D01*
X139631711Y-108116761D01*
X139790268Y-108148300D01*
X139951932Y-108148300D01*
X140110489Y-108116761D01*
X140259847Y-108054895D01*
X140394266Y-107965079D01*
X140508579Y-107850766D01*
X140598395Y-107716347D01*
X140627257Y-107646669D01*
X140637034Y-107643703D01*
X140696187Y-107612085D01*
X140748034Y-107569534D01*
X140758699Y-107556539D01*
X141409139Y-106906100D01*
X145179872Y-106906100D01*
X145098905Y-106960201D01*
X144964701Y-107094405D01*
X144859257Y-107252212D01*
X144786627Y-107427557D01*
X144749600Y-107613704D01*
X144749600Y-107803496D01*
X144786627Y-107989643D01*
X144859257Y-108164988D01*
X144964701Y-108322795D01*
X145098905Y-108456999D01*
X145256712Y-108562443D01*
X145432057Y-108635073D01*
X145618204Y-108672100D01*
X145807996Y-108672100D01*
X145994143Y-108635073D01*
X146169488Y-108562443D01*
X146327295Y-108456999D01*
X146461499Y-108322795D01*
X146566943Y-108164988D01*
X146632349Y-108007083D01*
X149417074Y-108007083D01*
X149447311Y-108225125D01*
X149519505Y-108433078D01*
X149581456Y-108548977D01*
X149750162Y-108626380D01*
X150413942Y-107962600D01*
X150664258Y-107962600D01*
X151328038Y-108626380D01*
X151496744Y-108548977D01*
X151547779Y-108443662D01*
X152415320Y-108443662D01*
X153079100Y-109107442D01*
X153742880Y-108443662D01*
X153665477Y-108274956D01*
X153467384Y-108178960D01*
X153254368Y-108123455D01*
X153034617Y-108110574D01*
X152816575Y-108140811D01*
X152608622Y-108213005D01*
X152492723Y-108274956D01*
X152415320Y-108443662D01*
X151547779Y-108443662D01*
X151592740Y-108350884D01*
X151648245Y-108137868D01*
X151661126Y-107918117D01*
X151630889Y-107700075D01*
X151558695Y-107492122D01*
X151496744Y-107376223D01*
X151328038Y-107298820D01*
X150664258Y-107962600D01*
X150413942Y-107962600D01*
X149750162Y-107298820D01*
X149581456Y-107376223D01*
X149485460Y-107574316D01*
X149429955Y-107787332D01*
X149417074Y-108007083D01*
X146632349Y-108007083D01*
X146639573Y-107989643D01*
X146676600Y-107803496D01*
X146676600Y-107613704D01*
X146639573Y-107427557D01*
X146566943Y-107252212D01*
X146461499Y-107094405D01*
X146327295Y-106960201D01*
X146246328Y-106906100D01*
X148236385Y-106906100D01*
X148253100Y-106907746D01*
X148269815Y-106906100D01*
X148269823Y-106906100D01*
X148319850Y-106901173D01*
X148384034Y-106881703D01*
X148443187Y-106850085D01*
X148495034Y-106807534D01*
X148505698Y-106794540D01*
X148648139Y-106652100D01*
X149128061Y-106652100D01*
X149397509Y-106921549D01*
X149408166Y-106934534D01*
X149421150Y-106945190D01*
X149421154Y-106945194D01*
X149439440Y-106960201D01*
X149460013Y-106977085D01*
X149519166Y-107008703D01*
X149583350Y-107028173D01*
X149633377Y-107033100D01*
X149633386Y-107033100D01*
X149650099Y-107034746D01*
X149666812Y-107033100D01*
X149939810Y-107033100D01*
X149875320Y-107173662D01*
X150539100Y-107837442D01*
X151202880Y-107173662D01*
X151138390Y-107033100D01*
X152177255Y-107033100D01*
X152225257Y-107148988D01*
X152330701Y-107306795D01*
X152464905Y-107440999D01*
X152622712Y-107546443D01*
X152798057Y-107619073D01*
X152984204Y-107656100D01*
X153173996Y-107656100D01*
X153360143Y-107619073D01*
X153535488Y-107546443D01*
X153693295Y-107440999D01*
X153827499Y-107306795D01*
X153932943Y-107148988D01*
X154005573Y-106973643D01*
X154042600Y-106787496D01*
X154042600Y-106597704D01*
X154005573Y-106411557D01*
X153932943Y-106236212D01*
X153827499Y-106078405D01*
X153693295Y-105944201D01*
X153535488Y-105838757D01*
X153360143Y-105766127D01*
X153173996Y-105729100D01*
X152984204Y-105729100D01*
X152798057Y-105766127D01*
X152622712Y-105838757D01*
X152464905Y-105944201D01*
X152330701Y-106078405D01*
X152225257Y-106236212D01*
X152177255Y-106352100D01*
X150804925Y-106352100D01*
X150820143Y-106349073D01*
X150995488Y-106276443D01*
X151153295Y-106170999D01*
X151287499Y-106036795D01*
X151392943Y-105878988D01*
X151465573Y-105703643D01*
X151502600Y-105517496D01*
X151502600Y-105327704D01*
X151465573Y-105141557D01*
X151392943Y-104966212D01*
X151287499Y-104808405D01*
X151153295Y-104674201D01*
X150995488Y-104568757D01*
X150820143Y-104496127D01*
X150804925Y-104493100D01*
X152177255Y-104493100D01*
X152225257Y-104608988D01*
X152330701Y-104766795D01*
X152464905Y-104900999D01*
X152622712Y-105006443D01*
X152798057Y-105079073D01*
X152984204Y-105116100D01*
X153173996Y-105116100D01*
X153360143Y-105079073D01*
X153535488Y-105006443D01*
X153693295Y-104900999D01*
X153827499Y-104766795D01*
X153932943Y-104608988D01*
X154005573Y-104433643D01*
X154042600Y-104247496D01*
X154042600Y-104057704D01*
X154005573Y-103871557D01*
X153932943Y-103696212D01*
X153827499Y-103538405D01*
X153693295Y-103404201D01*
X153535488Y-103298757D01*
X153360143Y-103226127D01*
X153173996Y-103189100D01*
X152984204Y-103189100D01*
X152798057Y-103226127D01*
X152622712Y-103298757D01*
X152464905Y-103404201D01*
X152330701Y-103538405D01*
X152225257Y-103696212D01*
X152177255Y-103812100D01*
X150804925Y-103812100D01*
X150820143Y-103809073D01*
X150995488Y-103736443D01*
X151153295Y-103630999D01*
X151287499Y-103496795D01*
X151392943Y-103338988D01*
X151465573Y-103163643D01*
X151502600Y-102977496D01*
X151502600Y-102787704D01*
X151465573Y-102601557D01*
X151392943Y-102426212D01*
X151287499Y-102268405D01*
X151153295Y-102134201D01*
X150995488Y-102028757D01*
X150820143Y-101956127D01*
X150633996Y-101919100D01*
X150444204Y-101919100D01*
X150258057Y-101956127D01*
X150082712Y-102028757D01*
X149924905Y-102134201D01*
X149790701Y-102268405D01*
X149685257Y-102426212D01*
X149637255Y-102542100D01*
X148821139Y-102542100D01*
X150142169Y-101221071D01*
X150258057Y-101269073D01*
X150444204Y-101306100D01*
X150633996Y-101306100D01*
X150820143Y-101269073D01*
X150995488Y-101196443D01*
X151153295Y-101090999D01*
X151287499Y-100956795D01*
X151392943Y-100798988D01*
X151465573Y-100623643D01*
X151502600Y-100437496D01*
X151502600Y-100247704D01*
X151465573Y-100061557D01*
X151392943Y-99886212D01*
X151287499Y-99728405D01*
X151153295Y-99594201D01*
X150995488Y-99488757D01*
X150820143Y-99416127D01*
X150633996Y-99379100D01*
X150444204Y-99379100D01*
X150258057Y-99416127D01*
X150082712Y-99488757D01*
X149924905Y-99594201D01*
X149790701Y-99728405D01*
X149685257Y-99886212D01*
X149612627Y-100061557D01*
X149575600Y-100247704D01*
X149575600Y-100437496D01*
X149612627Y-100623643D01*
X149660629Y-100739531D01*
X146588062Y-103812100D01*
X144457139Y-103812100D01*
X142416743Y-101771704D01*
X144749600Y-101771704D01*
X144749600Y-101961496D01*
X144786627Y-102147643D01*
X144859257Y-102322988D01*
X144964701Y-102480795D01*
X145098905Y-102614999D01*
X145256712Y-102720443D01*
X145432057Y-102793073D01*
X145618204Y-102830100D01*
X145807996Y-102830100D01*
X145994143Y-102793073D01*
X146169488Y-102720443D01*
X146327295Y-102614999D01*
X146461499Y-102480795D01*
X146566943Y-102322988D01*
X146639573Y-102147643D01*
X146676600Y-101961496D01*
X146676600Y-101771704D01*
X146639573Y-101585557D01*
X146566943Y-101410212D01*
X146461499Y-101252405D01*
X146327295Y-101118201D01*
X146169488Y-101012757D01*
X145994143Y-100940127D01*
X145807996Y-100903100D01*
X145618204Y-100903100D01*
X145432057Y-100940127D01*
X145256712Y-101012757D01*
X145098905Y-101118201D01*
X144964701Y-101252405D01*
X144859257Y-101410212D01*
X144786627Y-101585557D01*
X144749600Y-101771704D01*
X142416743Y-101771704D01*
X141393699Y-100748661D01*
X141383034Y-100735666D01*
X141331187Y-100693115D01*
X141272034Y-100661497D01*
X141207850Y-100642027D01*
X141157823Y-100637100D01*
X141157815Y-100637100D01*
X141141100Y-100635454D01*
X141124385Y-100637100D01*
X139252812Y-100637100D01*
X139236099Y-100635454D01*
X139219386Y-100637100D01*
X139219377Y-100637100D01*
X139169350Y-100642027D01*
X139105166Y-100661497D01*
X139076688Y-100676719D01*
X139046013Y-100693115D01*
X139007154Y-100725006D01*
X139007150Y-100725010D01*
X138994166Y-100735666D01*
X138983510Y-100748650D01*
X137984260Y-101747902D01*
X137968579Y-101724434D01*
X137854266Y-101610121D01*
X137719847Y-101520305D01*
X137570489Y-101458439D01*
X137411932Y-101426900D01*
X137250268Y-101426900D01*
X137091711Y-101458439D01*
X136942353Y-101520305D01*
X136807934Y-101610121D01*
X136693621Y-101724434D01*
X136603805Y-101858853D01*
X136541939Y-102008211D01*
X136510400Y-102166768D01*
X134267801Y-102166768D01*
X134267801Y-100394638D01*
X136769220Y-100394638D01*
X136829367Y-100548742D01*
X137003106Y-100630463D01*
X137189450Y-100676719D01*
X137381237Y-100685732D01*
X137571098Y-100657156D01*
X137751736Y-100592089D01*
X137832833Y-100548742D01*
X137892980Y-100394638D01*
X137331100Y-99832758D01*
X136769220Y-100394638D01*
X134267801Y-100394638D01*
X134267801Y-99757737D01*
X136352968Y-99757737D01*
X136381544Y-99947598D01*
X136446611Y-100128236D01*
X136489958Y-100209333D01*
X136644062Y-100269480D01*
X137205942Y-99707600D01*
X137456258Y-99707600D01*
X138018138Y-100269480D01*
X138172242Y-100209333D01*
X138253963Y-100035594D01*
X138300219Y-99849250D01*
X138309232Y-99657463D01*
X138304613Y-99626768D01*
X139050400Y-99626768D01*
X139050400Y-99788432D01*
X139081939Y-99946989D01*
X139143805Y-100096347D01*
X139233621Y-100230766D01*
X139347934Y-100345079D01*
X139482353Y-100434895D01*
X139631711Y-100496761D01*
X139790268Y-100528300D01*
X139951932Y-100528300D01*
X140110489Y-100496761D01*
X140259847Y-100434895D01*
X140394266Y-100345079D01*
X140508579Y-100230766D01*
X140598395Y-100096347D01*
X140618380Y-100048100D01*
X141759385Y-100048100D01*
X141776100Y-100049746D01*
X141792815Y-100048100D01*
X141792823Y-100048100D01*
X141842850Y-100043173D01*
X141907034Y-100023703D01*
X141966187Y-99992085D01*
X142018034Y-99949534D01*
X142028699Y-99936539D01*
X142733534Y-99231704D01*
X144749600Y-99231704D01*
X144749600Y-99421496D01*
X144786627Y-99607643D01*
X144859257Y-99782988D01*
X144964701Y-99940795D01*
X145098905Y-100074999D01*
X145256712Y-100180443D01*
X145432057Y-100253073D01*
X145618204Y-100290100D01*
X145807996Y-100290100D01*
X145994143Y-100253073D01*
X146169488Y-100180443D01*
X146327295Y-100074999D01*
X146461499Y-99940795D01*
X146566943Y-99782988D01*
X146639573Y-99607643D01*
X146676600Y-99421496D01*
X146676600Y-99231704D01*
X146639573Y-99045557D01*
X146566943Y-98870212D01*
X146461499Y-98712405D01*
X146327295Y-98578201D01*
X146169488Y-98472757D01*
X145994143Y-98400127D01*
X145807996Y-98363100D01*
X145618204Y-98363100D01*
X145432057Y-98400127D01*
X145256712Y-98472757D01*
X145098905Y-98578201D01*
X144964701Y-98712405D01*
X144859257Y-98870212D01*
X144786627Y-99045557D01*
X144749600Y-99231704D01*
X142733534Y-99231704D01*
X144457140Y-97508100D01*
X150525062Y-97508100D01*
X152230600Y-99213639D01*
X152230601Y-101087875D01*
X152228954Y-101104600D01*
X152232909Y-101144760D01*
X152225257Y-101156212D01*
X152152627Y-101331557D01*
X152115600Y-101517704D01*
X152115600Y-101707496D01*
X152152627Y-101893643D01*
X152225257Y-102068988D01*
X152330701Y-102226795D01*
X152464905Y-102360999D01*
X152622712Y-102466443D01*
X152798057Y-102539073D01*
X152984204Y-102576100D01*
X153173996Y-102576100D01*
X153360143Y-102539073D01*
X153535488Y-102466443D01*
X153693295Y-102360999D01*
X153827499Y-102226795D01*
X153932943Y-102068988D01*
X154005573Y-101893643D01*
X154042600Y-101707496D01*
X154042600Y-101517704D01*
X154005573Y-101331557D01*
X153932943Y-101156212D01*
X153827499Y-100998405D01*
X153693295Y-100864201D01*
X153535488Y-100758757D01*
X153360143Y-100686127D01*
X153173996Y-100649100D01*
X152984204Y-100649100D01*
X152911600Y-100663542D01*
X152911600Y-99089315D01*
X152913246Y-99072600D01*
X152911600Y-99055885D01*
X152911600Y-99055877D01*
X152906673Y-99005850D01*
X152898924Y-98980305D01*
X152887203Y-98941665D01*
X152860370Y-98891464D01*
X157590000Y-98891464D01*
X157590000Y-99253736D01*
X157660675Y-99609046D01*
X157799310Y-99943741D01*
X158000577Y-100244958D01*
X158256742Y-100501123D01*
X158557959Y-100702390D01*
X158892654Y-100841025D01*
X159247964Y-100911700D01*
X159610236Y-100911700D01*
X159965546Y-100841025D01*
X160300241Y-100702390D01*
X160601458Y-100501123D01*
X160857623Y-100244958D01*
X161058890Y-99943741D01*
X161197525Y-99609046D01*
X161268200Y-99253736D01*
X161268200Y-98891464D01*
X161197525Y-98536154D01*
X161058890Y-98201459D01*
X160857623Y-97900242D01*
X160601458Y-97644077D01*
X160300241Y-97442810D01*
X159965546Y-97304175D01*
X159610236Y-97233500D01*
X159247964Y-97233500D01*
X158892654Y-97304175D01*
X158557959Y-97442810D01*
X158256742Y-97644077D01*
X158000577Y-97900242D01*
X157799310Y-98201459D01*
X157660675Y-98536154D01*
X157590000Y-98891464D01*
X152860370Y-98891464D01*
X152855585Y-98882513D01*
X152823694Y-98843655D01*
X152823690Y-98843651D01*
X152813033Y-98830666D01*
X152800049Y-98820010D01*
X152058948Y-98078909D01*
X155467949Y-98078909D01*
X155587512Y-98283446D01*
X155845228Y-98414385D01*
X156123536Y-98492532D01*
X156411743Y-98514882D01*
X156698773Y-98480576D01*
X156973594Y-98390931D01*
X157174688Y-98283446D01*
X157294251Y-98078909D01*
X156381100Y-97165758D01*
X155467949Y-98078909D01*
X152058948Y-98078909D01*
X151051282Y-97071243D01*
X154906818Y-97071243D01*
X154941124Y-97358273D01*
X155030769Y-97633094D01*
X155138254Y-97834188D01*
X155342791Y-97953751D01*
X156255942Y-97040600D01*
X156506258Y-97040600D01*
X157419409Y-97953751D01*
X157623946Y-97834188D01*
X157754885Y-97576472D01*
X157833032Y-97298164D01*
X157855382Y-97009957D01*
X157821076Y-96722927D01*
X157731431Y-96448106D01*
X157623946Y-96247012D01*
X157419409Y-96127449D01*
X156506258Y-97040600D01*
X156255942Y-97040600D01*
X155342791Y-96127449D01*
X155138254Y-96247012D01*
X155007315Y-96504728D01*
X154929168Y-96783036D01*
X154906818Y-97071243D01*
X151051282Y-97071243D01*
X150918699Y-96938661D01*
X150908034Y-96925666D01*
X150856187Y-96883115D01*
X150797034Y-96851497D01*
X150732850Y-96832027D01*
X150682823Y-96827100D01*
X150682815Y-96827100D01*
X150666100Y-96825454D01*
X150649385Y-96827100D01*
X144332812Y-96827100D01*
X144316099Y-96825454D01*
X144299386Y-96827100D01*
X144299377Y-96827100D01*
X144249350Y-96832027D01*
X144185166Y-96851497D01*
X144126013Y-96883115D01*
X144087154Y-96915006D01*
X144087150Y-96915010D01*
X144074166Y-96925666D01*
X144063510Y-96938650D01*
X141635062Y-99367100D01*
X140618380Y-99367100D01*
X140598395Y-99318853D01*
X140508579Y-99184434D01*
X140394266Y-99070121D01*
X140259847Y-98980305D01*
X140110489Y-98918439D01*
X139951932Y-98886900D01*
X139790268Y-98886900D01*
X139631711Y-98918439D01*
X139482353Y-98980305D01*
X139347934Y-99070121D01*
X139233621Y-99184434D01*
X139143805Y-99318853D01*
X139081939Y-99468211D01*
X139050400Y-99626768D01*
X138304613Y-99626768D01*
X138280656Y-99467602D01*
X138215589Y-99286964D01*
X138172242Y-99205867D01*
X138018138Y-99145720D01*
X137456258Y-99707600D01*
X137205942Y-99707600D01*
X136644062Y-99145720D01*
X136489958Y-99205867D01*
X136408237Y-99379606D01*
X136361981Y-99565950D01*
X136352968Y-99757737D01*
X134267801Y-99757737D01*
X134267801Y-99020562D01*
X136769220Y-99020562D01*
X137331100Y-99582442D01*
X137892980Y-99020562D01*
X137832833Y-98866458D01*
X137659094Y-98784737D01*
X137472750Y-98738481D01*
X137280963Y-98729468D01*
X137091102Y-98758044D01*
X136910464Y-98823111D01*
X136829367Y-98866458D01*
X136769220Y-99020562D01*
X134267801Y-99020562D01*
X134267801Y-97086768D01*
X136510400Y-97086768D01*
X136510400Y-97248432D01*
X136541939Y-97406989D01*
X136603805Y-97556347D01*
X136693621Y-97690766D01*
X136807934Y-97805079D01*
X136942353Y-97894895D01*
X137091711Y-97956761D01*
X137250268Y-97988300D01*
X137411932Y-97988300D01*
X137570489Y-97956761D01*
X137719847Y-97894895D01*
X137854266Y-97805079D01*
X137968579Y-97690766D01*
X138058395Y-97556347D01*
X138120261Y-97406989D01*
X138151800Y-97248432D01*
X138151800Y-97086768D01*
X139050400Y-97086768D01*
X139050400Y-97248432D01*
X139081939Y-97406989D01*
X139143805Y-97556347D01*
X139233621Y-97690766D01*
X139347934Y-97805079D01*
X139482353Y-97894895D01*
X139631711Y-97956761D01*
X139790268Y-97988300D01*
X139951932Y-97988300D01*
X140110489Y-97956761D01*
X140259847Y-97894895D01*
X140394266Y-97805079D01*
X140508579Y-97690766D01*
X140598395Y-97556347D01*
X140660261Y-97406989D01*
X140691800Y-97248432D01*
X140691800Y-97086768D01*
X140660261Y-96928211D01*
X140598395Y-96778853D01*
X140508579Y-96644434D01*
X140394266Y-96530121D01*
X140259847Y-96440305D01*
X140110489Y-96378439D01*
X139951932Y-96346900D01*
X139790268Y-96346900D01*
X139631711Y-96378439D01*
X139482353Y-96440305D01*
X139347934Y-96530121D01*
X139233621Y-96644434D01*
X139143805Y-96778853D01*
X139081939Y-96928211D01*
X139050400Y-97086768D01*
X138151800Y-97086768D01*
X138120261Y-96928211D01*
X138058395Y-96778853D01*
X137968579Y-96644434D01*
X137854266Y-96530121D01*
X137719847Y-96440305D01*
X137570489Y-96378439D01*
X137411932Y-96346900D01*
X137250268Y-96346900D01*
X137091711Y-96378439D01*
X136942353Y-96440305D01*
X136807934Y-96530121D01*
X136693621Y-96644434D01*
X136603805Y-96778853D01*
X136541939Y-96928211D01*
X136510400Y-97086768D01*
X134267801Y-97086768D01*
X134267801Y-96002291D01*
X155467949Y-96002291D01*
X156381100Y-96915442D01*
X157294251Y-96002291D01*
X157174688Y-95797754D01*
X156916972Y-95666815D01*
X156638664Y-95588668D01*
X156350457Y-95566318D01*
X156063427Y-95600624D01*
X155788606Y-95690269D01*
X155587512Y-95797754D01*
X155467949Y-96002291D01*
X134267801Y-96002291D01*
X134267801Y-92654986D01*
X156067600Y-92654986D01*
X156067600Y-93012214D01*
X156137292Y-93362579D01*
X156273997Y-93692614D01*
X156472462Y-93989639D01*
X156725061Y-94242238D01*
X157022086Y-94440703D01*
X157352121Y-94577408D01*
X157702486Y-94647100D01*
X158059714Y-94647100D01*
X158410079Y-94577408D01*
X158740114Y-94440703D01*
X159037139Y-94242238D01*
X159289738Y-93989639D01*
X159488203Y-93692614D01*
X159624908Y-93362579D01*
X159694600Y-93012214D01*
X159694600Y-92654986D01*
X159624908Y-92304621D01*
X159488203Y-91974586D01*
X159289738Y-91677561D01*
X159037139Y-91424962D01*
X158740114Y-91226497D01*
X158410079Y-91089792D01*
X158059714Y-91020100D01*
X157702486Y-91020100D01*
X157352121Y-91089792D01*
X157022086Y-91226497D01*
X156725061Y-91424962D01*
X156472462Y-91677561D01*
X156273997Y-91974586D01*
X156137292Y-92304621D01*
X156067600Y-92654986D01*
X134267801Y-92654986D01*
X134267801Y-88780986D01*
X156067600Y-88780986D01*
X156067600Y-89138214D01*
X156137292Y-89488579D01*
X156273997Y-89818614D01*
X156472462Y-90115639D01*
X156725061Y-90368238D01*
X157022086Y-90566703D01*
X157352121Y-90703408D01*
X157702486Y-90773100D01*
X158059714Y-90773100D01*
X158410079Y-90703408D01*
X158740114Y-90566703D01*
X159037139Y-90368238D01*
X159289738Y-90115639D01*
X159488203Y-89818614D01*
X159624908Y-89488579D01*
X159694600Y-89138214D01*
X159694600Y-88780986D01*
X159624908Y-88430621D01*
X159488203Y-88100586D01*
X159289738Y-87803561D01*
X159037139Y-87550962D01*
X158740114Y-87352497D01*
X158410079Y-87215792D01*
X158059714Y-87146100D01*
X157702486Y-87146100D01*
X157352121Y-87215792D01*
X157022086Y-87352497D01*
X156725061Y-87550962D01*
X156472462Y-87803561D01*
X156273997Y-88100586D01*
X156137292Y-88430621D01*
X156067600Y-88780986D01*
X134267801Y-88780986D01*
X134267801Y-84970986D01*
X156067600Y-84970986D01*
X156067600Y-85328214D01*
X156137292Y-85678579D01*
X156273997Y-86008614D01*
X156472462Y-86305639D01*
X156725061Y-86558238D01*
X157022086Y-86756703D01*
X157352121Y-86893408D01*
X157702486Y-86963100D01*
X158059714Y-86963100D01*
X158410079Y-86893408D01*
X158740114Y-86756703D01*
X159037139Y-86558238D01*
X159289738Y-86305639D01*
X159488203Y-86008614D01*
X159624908Y-85678579D01*
X159694600Y-85328214D01*
X159694600Y-84970986D01*
X159624908Y-84620621D01*
X159488203Y-84290586D01*
X159289738Y-83993561D01*
X159037139Y-83740962D01*
X158740114Y-83542497D01*
X158410079Y-83405792D01*
X158059714Y-83336100D01*
X157702486Y-83336100D01*
X157352121Y-83405792D01*
X157022086Y-83542497D01*
X156725061Y-83740962D01*
X156472462Y-83993561D01*
X156273997Y-84290586D01*
X156137292Y-84620621D01*
X156067600Y-84970986D01*
X134267801Y-84970986D01*
X134267801Y-81160986D01*
X156067600Y-81160986D01*
X156067600Y-81518214D01*
X156137292Y-81868579D01*
X156273997Y-82198614D01*
X156472462Y-82495639D01*
X156725061Y-82748238D01*
X157022086Y-82946703D01*
X157352121Y-83083408D01*
X157702486Y-83153100D01*
X158059714Y-83153100D01*
X158410079Y-83083408D01*
X158740114Y-82946703D01*
X159037139Y-82748238D01*
X159289738Y-82495639D01*
X159488203Y-82198614D01*
X159624908Y-81868579D01*
X159694600Y-81518214D01*
X159694600Y-81160986D01*
X159624908Y-80810621D01*
X159488203Y-80480586D01*
X159289738Y-80183561D01*
X159037139Y-79930962D01*
X158740114Y-79732497D01*
X158410079Y-79595792D01*
X158059714Y-79526100D01*
X157702486Y-79526100D01*
X157352121Y-79595792D01*
X157022086Y-79732497D01*
X156725061Y-79930962D01*
X156472462Y-80183561D01*
X156273997Y-80480586D01*
X156137292Y-80810621D01*
X156067600Y-81160986D01*
X134267801Y-81160986D01*
X134267801Y-77350986D01*
X156067600Y-77350986D01*
X156067600Y-77708214D01*
X156137292Y-78058579D01*
X156273997Y-78388614D01*
X156472462Y-78685639D01*
X156725061Y-78938238D01*
X157022086Y-79136703D01*
X157352121Y-79273408D01*
X157702486Y-79343100D01*
X158059714Y-79343100D01*
X158410079Y-79273408D01*
X158740114Y-79136703D01*
X159037139Y-78938238D01*
X159289738Y-78685639D01*
X159488203Y-78388614D01*
X159624908Y-78058579D01*
X159694600Y-77708214D01*
X159694600Y-77350986D01*
X159624908Y-77000621D01*
X159488203Y-76670586D01*
X159289738Y-76373561D01*
X159037139Y-76120962D01*
X158740114Y-75922497D01*
X158410079Y-75785792D01*
X158059714Y-75716100D01*
X157702486Y-75716100D01*
X157352121Y-75785792D01*
X157022086Y-75922497D01*
X156725061Y-76120962D01*
X156472462Y-76373561D01*
X156273997Y-76670586D01*
X156137292Y-77000621D01*
X156067600Y-77350986D01*
X134267801Y-77350986D01*
X134267801Y-75320301D01*
X162734399Y-75320301D01*
X162734400Y-134686899D01*
G37*
X162734400Y-134686899D02*
X134267801Y-134686899D01*
X134267801Y-131452986D01*
X156575600Y-131452986D01*
X156575600Y-131810214D01*
X156645292Y-132160579D01*
X156781997Y-132490614D01*
X156980462Y-132787639D01*
X157233061Y-133040238D01*
X157530086Y-133238703D01*
X157860121Y-133375408D01*
X158210486Y-133445100D01*
X158567714Y-133445100D01*
X158918079Y-133375408D01*
X159248114Y-133238703D01*
X159545139Y-133040238D01*
X159797738Y-132787639D01*
X159996203Y-132490614D01*
X160132908Y-132160579D01*
X160202600Y-131810214D01*
X160202600Y-131452986D01*
X160132908Y-131102621D01*
X159996203Y-130772586D01*
X159797738Y-130475561D01*
X159545139Y-130222962D01*
X159248114Y-130024497D01*
X158918079Y-129887792D01*
X158567714Y-129818100D01*
X158210486Y-129818100D01*
X157860121Y-129887792D01*
X157530086Y-130024497D01*
X157233061Y-130222962D01*
X156980462Y-130475561D01*
X156781997Y-130772586D01*
X156645292Y-131102621D01*
X156575600Y-131452986D01*
X134267801Y-131452986D01*
X134267801Y-127642986D01*
X156575600Y-127642986D01*
X156575600Y-128000214D01*
X156645292Y-128350579D01*
X156781997Y-128680614D01*
X156980462Y-128977639D01*
X157233061Y-129230238D01*
X157530086Y-129428703D01*
X157860121Y-129565408D01*
X158210486Y-129635100D01*
X158567714Y-129635100D01*
X158918079Y-129565408D01*
X159248114Y-129428703D01*
X159545139Y-129230238D01*
X159797738Y-128977639D01*
X159996203Y-128680614D01*
X160132908Y-128350579D01*
X160202600Y-128000214D01*
X160202600Y-127642986D01*
X160132908Y-127292621D01*
X159996203Y-126962586D01*
X159797738Y-126665561D01*
X159545139Y-126412962D01*
X159248114Y-126214497D01*
X158918079Y-126077792D01*
X158567714Y-126008100D01*
X158210486Y-126008100D01*
X157860121Y-126077792D01*
X157530086Y-126214497D01*
X157233061Y-126412962D01*
X156980462Y-126665561D01*
X156781997Y-126962586D01*
X156645292Y-127292621D01*
X156575600Y-127642986D01*
X134267801Y-127642986D01*
X134267801Y-123832986D01*
X156575600Y-123832986D01*
X156575600Y-124190214D01*
X156645292Y-124540579D01*
X156781997Y-124870614D01*
X156980462Y-125167639D01*
X157233061Y-125420238D01*
X157530086Y-125618703D01*
X157860121Y-125755408D01*
X158210486Y-125825100D01*
X158567714Y-125825100D01*
X158918079Y-125755408D01*
X159248114Y-125618703D01*
X159545139Y-125420238D01*
X159797738Y-125167639D01*
X159996203Y-124870614D01*
X160132908Y-124540579D01*
X160202600Y-124190214D01*
X160202600Y-123832986D01*
X160132908Y-123482621D01*
X159996203Y-123152586D01*
X159797738Y-122855561D01*
X159545139Y-122602962D01*
X159248114Y-122404497D01*
X158918079Y-122267792D01*
X158567714Y-122198100D01*
X158210486Y-122198100D01*
X157860121Y-122267792D01*
X157530086Y-122404497D01*
X157233061Y-122602962D01*
X156980462Y-122855561D01*
X156781997Y-123152586D01*
X156645292Y-123482621D01*
X156575600Y-123832986D01*
X134267801Y-123832986D01*
X134267801Y-120022986D01*
X156575600Y-120022986D01*
X156575600Y-120380214D01*
X156645292Y-120730579D01*
X156781997Y-121060614D01*
X156980462Y-121357639D01*
X157233061Y-121610238D01*
X157530086Y-121808703D01*
X157860121Y-121945408D01*
X158210486Y-122015100D01*
X158567714Y-122015100D01*
X158918079Y-121945408D01*
X159248114Y-121808703D01*
X159545139Y-121610238D01*
X159797738Y-121357639D01*
X159996203Y-121060614D01*
X160132908Y-120730579D01*
X160202600Y-120380214D01*
X160202600Y-120022986D01*
X160132908Y-119672621D01*
X159996203Y-119342586D01*
X159797738Y-119045561D01*
X159545139Y-118792962D01*
X159248114Y-118594497D01*
X158918079Y-118457792D01*
X158567714Y-118388100D01*
X158210486Y-118388100D01*
X157860121Y-118457792D01*
X157530086Y-118594497D01*
X157233061Y-118792962D01*
X156980462Y-119045561D01*
X156781997Y-119342586D01*
X156645292Y-119672621D01*
X156575600Y-120022986D01*
X134267801Y-120022986D01*
X134267801Y-116212986D01*
X156575600Y-116212986D01*
X156575600Y-116570214D01*
X156645292Y-116920579D01*
X156781997Y-117250614D01*
X156980462Y-117547639D01*
X157233061Y-117800238D01*
X157530086Y-117998703D01*
X157860121Y-118135408D01*
X158210486Y-118205100D01*
X158567714Y-118205100D01*
X158918079Y-118135408D01*
X159248114Y-117998703D01*
X159545139Y-117800238D01*
X159797738Y-117547639D01*
X159996203Y-117250614D01*
X160132908Y-116920579D01*
X160202600Y-116570214D01*
X160202600Y-116212986D01*
X160132908Y-115862621D01*
X159996203Y-115532586D01*
X159797738Y-115235561D01*
X159545139Y-114982962D01*
X159248114Y-114784497D01*
X158918079Y-114647792D01*
X158567714Y-114578100D01*
X158210486Y-114578100D01*
X157860121Y-114647792D01*
X157530086Y-114784497D01*
X157233061Y-114982962D01*
X156980462Y-115235561D01*
X156781997Y-115532586D01*
X156645292Y-115862621D01*
X156575600Y-116212986D01*
X134267801Y-116212986D01*
X134267801Y-113572909D01*
X155467949Y-113572909D01*
X155587512Y-113777446D01*
X155845228Y-113908385D01*
X156123536Y-113986532D01*
X156411743Y-114008882D01*
X156698773Y-113974576D01*
X156973594Y-113884931D01*
X157174688Y-113777446D01*
X157294251Y-113572909D01*
X156381100Y-112659758D01*
X155467949Y-113572909D01*
X134267801Y-113572909D01*
X134267801Y-112326768D01*
X136510400Y-112326768D01*
X136510400Y-112488432D01*
X136541939Y-112646989D01*
X136603805Y-112796347D01*
X136693621Y-112930766D01*
X136807934Y-113045079D01*
X136942353Y-113134895D01*
X137091711Y-113196761D01*
X137250268Y-113228300D01*
X137411932Y-113228300D01*
X137570489Y-113196761D01*
X137719847Y-113134895D01*
X137854266Y-113045079D01*
X137968579Y-112930766D01*
X138058395Y-112796347D01*
X138120261Y-112646989D01*
X138151800Y-112488432D01*
X138151800Y-112326768D01*
X139050400Y-112326768D01*
X139050400Y-112488432D01*
X139081939Y-112646989D01*
X139143805Y-112796347D01*
X139233621Y-112930766D01*
X139347934Y-113045079D01*
X139482353Y-113134895D01*
X139631711Y-113196761D01*
X139790268Y-113228300D01*
X139951932Y-113228300D01*
X140110489Y-113196761D01*
X140259847Y-113134895D01*
X140394266Y-113045079D01*
X140508579Y-112930766D01*
X140598395Y-112796347D01*
X140660261Y-112646989D01*
X140676521Y-112565243D01*
X154906818Y-112565243D01*
X154941124Y-112852273D01*
X155030769Y-113127094D01*
X155138254Y-113328188D01*
X155342791Y-113447751D01*
X156255942Y-112534600D01*
X156506258Y-112534600D01*
X157419409Y-113447751D01*
X157623946Y-113328188D01*
X157754885Y-113070472D01*
X157833032Y-112792164D01*
X157855382Y-112503957D01*
X157821076Y-112216927D01*
X157731431Y-111942106D01*
X157623946Y-111741012D01*
X157419409Y-111621449D01*
X156506258Y-112534600D01*
X156255942Y-112534600D01*
X155342791Y-111621449D01*
X155138254Y-111741012D01*
X155007315Y-111998728D01*
X154929168Y-112277036D01*
X154906818Y-112565243D01*
X140676521Y-112565243D01*
X140691800Y-112488432D01*
X140691800Y-112326768D01*
X140660261Y-112168211D01*
X140598395Y-112018853D01*
X140508579Y-111884434D01*
X140394266Y-111770121D01*
X140259847Y-111680305D01*
X140110489Y-111618439D01*
X139951932Y-111586900D01*
X139790268Y-111586900D01*
X139631711Y-111618439D01*
X139482353Y-111680305D01*
X139347934Y-111770121D01*
X139233621Y-111884434D01*
X139143805Y-112018853D01*
X139081939Y-112168211D01*
X139050400Y-112326768D01*
X138151800Y-112326768D01*
X138120261Y-112168211D01*
X138058395Y-112018853D01*
X137968579Y-111884434D01*
X137854266Y-111770121D01*
X137719847Y-111680305D01*
X137570489Y-111618439D01*
X137411932Y-111586900D01*
X137250268Y-111586900D01*
X137091711Y-111618439D01*
X136942353Y-111680305D01*
X136807934Y-111770121D01*
X136693621Y-111884434D01*
X136603805Y-112018853D01*
X136541939Y-112168211D01*
X136510400Y-112326768D01*
X134267801Y-112326768D01*
X134267801Y-111496291D01*
X155467949Y-111496291D01*
X156381100Y-112409442D01*
X157294251Y-111496291D01*
X157174688Y-111291754D01*
X156916972Y-111160815D01*
X156638664Y-111082668D01*
X156350457Y-111060318D01*
X156063427Y-111094624D01*
X155788606Y-111184269D01*
X155587512Y-111291754D01*
X155467949Y-111496291D01*
X134267801Y-111496291D01*
X134267801Y-110554638D01*
X136769220Y-110554638D01*
X136829367Y-110708742D01*
X137003106Y-110790463D01*
X137189450Y-110836719D01*
X137381237Y-110845732D01*
X137571098Y-110817156D01*
X137751736Y-110752089D01*
X137832833Y-110708742D01*
X137892980Y-110554638D01*
X137331100Y-109992758D01*
X136769220Y-110554638D01*
X134267801Y-110554638D01*
X134267801Y-109917737D01*
X136352968Y-109917737D01*
X136381544Y-110107598D01*
X136446611Y-110288236D01*
X136489958Y-110369333D01*
X136644062Y-110429480D01*
X137205942Y-109867600D01*
X137456258Y-109867600D01*
X138018138Y-110429480D01*
X138172242Y-110369333D01*
X138253963Y-110195594D01*
X138300219Y-110009250D01*
X138309232Y-109817463D01*
X138304613Y-109786768D01*
X139050400Y-109786768D01*
X139050400Y-109948432D01*
X139081939Y-110106989D01*
X139143805Y-110256347D01*
X139233621Y-110390766D01*
X139347934Y-110505079D01*
X139482353Y-110594895D01*
X139631711Y-110656761D01*
X139790268Y-110688300D01*
X139951932Y-110688300D01*
X140110489Y-110656761D01*
X140259847Y-110594895D01*
X140394266Y-110505079D01*
X140508579Y-110390766D01*
X140598395Y-110256347D01*
X140640911Y-110153704D01*
X144749600Y-110153704D01*
X144749600Y-110343496D01*
X144786627Y-110529643D01*
X144859257Y-110704988D01*
X144964701Y-110862795D01*
X145098905Y-110996999D01*
X145256712Y-111102443D01*
X145432057Y-111175073D01*
X145618204Y-111212100D01*
X145807996Y-111212100D01*
X145994143Y-111175073D01*
X146169488Y-111102443D01*
X146327295Y-110996999D01*
X146461499Y-110862795D01*
X146566943Y-110704988D01*
X146639573Y-110529643D01*
X146676600Y-110343496D01*
X146676600Y-110153704D01*
X146650311Y-110021538D01*
X152415320Y-110021538D01*
X152492723Y-110190244D01*
X152690816Y-110286240D01*
X152903832Y-110341745D01*
X153123583Y-110354626D01*
X153341625Y-110324389D01*
X153350050Y-110321464D01*
X157590000Y-110321464D01*
X157590000Y-110683736D01*
X157660675Y-111039046D01*
X157799310Y-111373741D01*
X158000577Y-111674958D01*
X158256742Y-111931123D01*
X158557959Y-112132390D01*
X158892654Y-112271025D01*
X159247964Y-112341700D01*
X159610236Y-112341700D01*
X159965546Y-112271025D01*
X160300241Y-112132390D01*
X160601458Y-111931123D01*
X160857623Y-111674958D01*
X161058890Y-111373741D01*
X161197525Y-111039046D01*
X161268200Y-110683736D01*
X161268200Y-110321464D01*
X161197525Y-109966154D01*
X161058890Y-109631459D01*
X160857623Y-109330242D01*
X160601458Y-109074077D01*
X160300241Y-108872810D01*
X159965546Y-108734175D01*
X159610236Y-108663500D01*
X159247964Y-108663500D01*
X158892654Y-108734175D01*
X158557959Y-108872810D01*
X158256742Y-109074077D01*
X158000577Y-109330242D01*
X157799310Y-109631459D01*
X157660675Y-109966154D01*
X157590000Y-110321464D01*
X153350050Y-110321464D01*
X153549578Y-110252195D01*
X153665477Y-110190244D01*
X153742880Y-110021538D01*
X153079100Y-109357758D01*
X152415320Y-110021538D01*
X146650311Y-110021538D01*
X146639573Y-109967557D01*
X146566943Y-109792212D01*
X146461499Y-109634405D01*
X146327295Y-109500201D01*
X146169488Y-109394757D01*
X145994143Y-109322127D01*
X145807996Y-109285100D01*
X145618204Y-109285100D01*
X145432057Y-109322127D01*
X145256712Y-109394757D01*
X145098905Y-109500201D01*
X144964701Y-109634405D01*
X144859257Y-109792212D01*
X144786627Y-109967557D01*
X144749600Y-110153704D01*
X140640911Y-110153704D01*
X140660261Y-110106989D01*
X140691800Y-109948432D01*
X140691800Y-109786768D01*
X140660261Y-109628211D01*
X140598395Y-109478853D01*
X140508579Y-109344434D01*
X140441228Y-109277083D01*
X151957074Y-109277083D01*
X151987311Y-109495125D01*
X152059505Y-109703078D01*
X152121456Y-109818977D01*
X152290162Y-109896380D01*
X152953942Y-109232600D01*
X153204258Y-109232600D01*
X153868038Y-109896380D01*
X154036744Y-109818977D01*
X154132740Y-109620884D01*
X154188245Y-109407868D01*
X154201126Y-109188117D01*
X154170889Y-108970075D01*
X154098695Y-108762122D01*
X154036744Y-108646223D01*
X153868038Y-108568820D01*
X153204258Y-109232600D01*
X152953942Y-109232600D01*
X152290162Y-108568820D01*
X152121456Y-108646223D01*
X152025460Y-108844316D01*
X151969955Y-109057332D01*
X151957074Y-109277083D01*
X140441228Y-109277083D01*
X140394266Y-109230121D01*
X140259847Y-109140305D01*
X140110489Y-109078439D01*
X139951932Y-109046900D01*
X139790268Y-109046900D01*
X139631711Y-109078439D01*
X139482353Y-109140305D01*
X139347934Y-109230121D01*
X139233621Y-109344434D01*
X139143805Y-109478853D01*
X139081939Y-109628211D01*
X139050400Y-109786768D01*
X138304613Y-109786768D01*
X138280656Y-109627602D01*
X138215589Y-109446964D01*
X138172242Y-109365867D01*
X138018138Y-109305720D01*
X137456258Y-109867600D01*
X137205942Y-109867600D01*
X136644062Y-109305720D01*
X136489958Y-109365867D01*
X136408237Y-109539606D01*
X136361981Y-109725950D01*
X136352968Y-109917737D01*
X134267801Y-109917737D01*
X134267801Y-109180562D01*
X136769220Y-109180562D01*
X137331100Y-109742442D01*
X137892980Y-109180562D01*
X137832833Y-109026458D01*
X137659094Y-108944737D01*
X137472750Y-108898481D01*
X137280963Y-108889468D01*
X137091102Y-108918044D01*
X136910464Y-108983111D01*
X136829367Y-109026458D01*
X136769220Y-109180562D01*
X134267801Y-109180562D01*
X134267801Y-108751538D01*
X149875320Y-108751538D01*
X149952723Y-108920244D01*
X150150816Y-109016240D01*
X150363832Y-109071745D01*
X150583583Y-109084626D01*
X150801625Y-109054389D01*
X151009578Y-108982195D01*
X151125477Y-108920244D01*
X151202880Y-108751538D01*
X150539100Y-108087758D01*
X149875320Y-108751538D01*
X134267801Y-108751538D01*
X134267801Y-105474638D01*
X136769220Y-105474638D01*
X136829367Y-105628742D01*
X137003106Y-105710463D01*
X137189450Y-105756719D01*
X137381237Y-105765732D01*
X137571098Y-105737156D01*
X137751736Y-105672089D01*
X137832833Y-105628742D01*
X137892980Y-105474638D01*
X137331100Y-104912758D01*
X136769220Y-105474638D01*
X134267801Y-105474638D01*
X134267801Y-104837737D01*
X136352968Y-104837737D01*
X136381544Y-105027598D01*
X136446611Y-105208236D01*
X136489958Y-105289333D01*
X136644062Y-105349480D01*
X137205942Y-104787600D01*
X137456258Y-104787600D01*
X138018138Y-105349480D01*
X138172242Y-105289333D01*
X138253963Y-105115594D01*
X138300219Y-104929250D01*
X138304519Y-104837737D01*
X138892968Y-104837737D01*
X138921544Y-105027598D01*
X138986611Y-105208236D01*
X139029958Y-105289333D01*
X139184062Y-105349480D01*
X139745942Y-104787600D01*
X139996258Y-104787600D01*
X140558138Y-105349480D01*
X140712242Y-105289333D01*
X140793963Y-105115594D01*
X140840219Y-104929250D01*
X140849232Y-104737463D01*
X140820656Y-104547602D01*
X140755589Y-104366964D01*
X140712242Y-104285867D01*
X140558138Y-104225720D01*
X139996258Y-104787600D01*
X139745942Y-104787600D01*
X139184062Y-104225720D01*
X139029958Y-104285867D01*
X138948237Y-104459606D01*
X138901981Y-104645950D01*
X138892968Y-104837737D01*
X138304519Y-104837737D01*
X138309232Y-104737463D01*
X138280656Y-104547602D01*
X138215589Y-104366964D01*
X138172242Y-104285867D01*
X138018138Y-104225720D01*
X137456258Y-104787600D01*
X137205942Y-104787600D01*
X136644062Y-104225720D01*
X136489958Y-104285867D01*
X136408237Y-104459606D01*
X136361981Y-104645950D01*
X136352968Y-104837737D01*
X134267801Y-104837737D01*
X134267801Y-104100562D01*
X136769220Y-104100562D01*
X137331100Y-104662442D01*
X137892980Y-104100562D01*
X139309220Y-104100562D01*
X139871100Y-104662442D01*
X140432980Y-104100562D01*
X140372833Y-103946458D01*
X140199094Y-103864737D01*
X140012750Y-103818481D01*
X139820963Y-103809468D01*
X139631102Y-103838044D01*
X139450464Y-103903111D01*
X139369367Y-103946458D01*
X139309220Y-104100562D01*
X137892980Y-104100562D01*
X137832833Y-103946458D01*
X137659094Y-103864737D01*
X137472750Y-103818481D01*
X137280963Y-103809468D01*
X137091102Y-103838044D01*
X136910464Y-103903111D01*
X136829367Y-103946458D01*
X136769220Y-104100562D01*
X134267801Y-104100562D01*
X134267801Y-102166768D01*
X136510400Y-102166768D01*
X136510400Y-102328432D01*
X136541939Y-102486989D01*
X136603805Y-102636347D01*
X136693621Y-102770766D01*
X136807934Y-102885079D01*
X136942353Y-102974895D01*
X137091711Y-103036761D01*
X137250268Y-103068300D01*
X137411932Y-103068300D01*
X137570489Y-103036761D01*
X137719847Y-102974895D01*
X137854266Y-102885079D01*
X137968579Y-102770766D01*
X138058395Y-102636347D01*
X138087257Y-102566669D01*
X138097034Y-102563703D01*
X138156187Y-102532085D01*
X138208034Y-102489534D01*
X138218699Y-102476539D01*
X139377140Y-101318100D01*
X140319061Y-101318100D01*
X140158737Y-101478424D01*
X140110489Y-101458439D01*
X139951932Y-101426900D01*
X139790268Y-101426900D01*
X139631711Y-101458439D01*
X139482353Y-101520305D01*
X139347934Y-101610121D01*
X139233621Y-101724434D01*
X139143805Y-101858853D01*
X139081939Y-102008211D01*
X139050400Y-102166768D01*
X139050400Y-102328432D01*
X139081939Y-102486989D01*
X139143805Y-102636347D01*
X139233621Y-102770766D01*
X139347934Y-102885079D01*
X139482353Y-102974895D01*
X139631711Y-103036761D01*
X139790268Y-103068300D01*
X139951932Y-103068300D01*
X140110489Y-103036761D01*
X140259847Y-102974895D01*
X140394266Y-102885079D01*
X140508579Y-102770766D01*
X140598395Y-102636347D01*
X140660261Y-102486989D01*
X140691800Y-102328432D01*
X140691800Y-102166768D01*
X140660261Y-102008211D01*
X140640276Y-101959963D01*
X140760100Y-101840138D01*
X143758705Y-104838744D01*
X143769366Y-104851734D01*
X143821213Y-104894285D01*
X143880366Y-104925903D01*
X143944550Y-104945373D01*
X143994577Y-104950300D01*
X143994584Y-104950300D01*
X144011299Y-104951946D01*
X144028014Y-104950300D01*
X146890185Y-104950300D01*
X146906900Y-104951946D01*
X146923615Y-104950300D01*
X146923623Y-104950300D01*
X146973650Y-104945373D01*
X147037834Y-104925903D01*
X147096987Y-104894285D01*
X147148834Y-104851734D01*
X147159499Y-104838739D01*
X148775140Y-103223100D01*
X149637255Y-103223100D01*
X149685257Y-103338988D01*
X149790701Y-103496795D01*
X149924905Y-103630999D01*
X150082712Y-103736443D01*
X150258057Y-103809073D01*
X150273275Y-103812100D01*
X150047815Y-103812100D01*
X150031100Y-103810454D01*
X150014385Y-103812100D01*
X150014377Y-103812100D01*
X149964350Y-103817027D01*
X149900165Y-103836497D01*
X149847333Y-103864737D01*
X149841013Y-103868115D01*
X149789166Y-103910666D01*
X149778506Y-103923655D01*
X147985062Y-105717100D01*
X140166777Y-105717100D01*
X140291736Y-105672089D01*
X140372833Y-105628742D01*
X140432980Y-105474638D01*
X139871100Y-104912758D01*
X139309220Y-105474638D01*
X139369367Y-105628742D01*
X139543106Y-105710463D01*
X139569843Y-105717100D01*
X139252812Y-105717100D01*
X139236099Y-105715454D01*
X139219386Y-105717100D01*
X139219377Y-105717100D01*
X139169350Y-105722027D01*
X139105166Y-105741497D01*
X139076688Y-105756719D01*
X139046013Y-105773115D01*
X139007154Y-105805006D01*
X139007150Y-105805010D01*
X138994166Y-105815666D01*
X138983510Y-105828650D01*
X137984260Y-106827902D01*
X137968579Y-106804434D01*
X137854266Y-106690121D01*
X137719847Y-106600305D01*
X137570489Y-106538439D01*
X137411932Y-106506900D01*
X137250268Y-106506900D01*
X137091711Y-106538439D01*
X136942353Y-106600305D01*
X136807934Y-106690121D01*
X136693621Y-106804434D01*
X136603805Y-106938853D01*
X136541939Y-107088211D01*
X136510400Y-107246768D01*
X136510400Y-107408432D01*
X136541939Y-107566989D01*
X136603805Y-107716347D01*
X136693621Y-107850766D01*
X136807934Y-107965079D01*
X136942353Y-108054895D01*
X137091711Y-108116761D01*
X137250268Y-108148300D01*
X137411932Y-108148300D01*
X137570489Y-108116761D01*
X137719847Y-108054895D01*
X137854266Y-107965079D01*
X137968579Y-107850766D01*
X138058395Y-107716347D01*
X138087257Y-107646669D01*
X138097034Y-107643703D01*
X138156187Y-107612085D01*
X138208034Y-107569534D01*
X138218699Y-107556539D01*
X139377140Y-106398100D01*
X140954061Y-106398100D01*
X140524260Y-106827902D01*
X140508579Y-106804434D01*
X140394266Y-106690121D01*
X140259847Y-106600305D01*
X140110489Y-106538439D01*
X139951932Y-106506900D01*
X139790268Y-106506900D01*
X139631711Y-106538439D01*
X139482353Y-106600305D01*
X139347934Y-106690121D01*
X139233621Y-106804434D01*
X139143805Y-106938853D01*
X139081939Y-107088211D01*
X139050400Y-107246768D01*
X139050400Y-107408432D01*
X139081939Y-107566989D01*
X139143805Y-107716347D01*
X139233621Y-107850766D01*
X139347934Y-107965079D01*
X139482353Y-108054895D01*
X139631711Y-108116761D01*
X139790268Y-108148300D01*
X139951932Y-108148300D01*
X140110489Y-108116761D01*
X140259847Y-108054895D01*
X140394266Y-107965079D01*
X140508579Y-107850766D01*
X140598395Y-107716347D01*
X140627257Y-107646669D01*
X140637034Y-107643703D01*
X140696187Y-107612085D01*
X140748034Y-107569534D01*
X140758699Y-107556539D01*
X141409139Y-106906100D01*
X145179872Y-106906100D01*
X145098905Y-106960201D01*
X144964701Y-107094405D01*
X144859257Y-107252212D01*
X144786627Y-107427557D01*
X144749600Y-107613704D01*
X144749600Y-107803496D01*
X144786627Y-107989643D01*
X144859257Y-108164988D01*
X144964701Y-108322795D01*
X145098905Y-108456999D01*
X145256712Y-108562443D01*
X145432057Y-108635073D01*
X145618204Y-108672100D01*
X145807996Y-108672100D01*
X145994143Y-108635073D01*
X146169488Y-108562443D01*
X146327295Y-108456999D01*
X146461499Y-108322795D01*
X146566943Y-108164988D01*
X146632349Y-108007083D01*
X149417074Y-108007083D01*
X149447311Y-108225125D01*
X149519505Y-108433078D01*
X149581456Y-108548977D01*
X149750162Y-108626380D01*
X150413942Y-107962600D01*
X150664258Y-107962600D01*
X151328038Y-108626380D01*
X151496744Y-108548977D01*
X151547779Y-108443662D01*
X152415320Y-108443662D01*
X153079100Y-109107442D01*
X153742880Y-108443662D01*
X153665477Y-108274956D01*
X153467384Y-108178960D01*
X153254368Y-108123455D01*
X153034617Y-108110574D01*
X152816575Y-108140811D01*
X152608622Y-108213005D01*
X152492723Y-108274956D01*
X152415320Y-108443662D01*
X151547779Y-108443662D01*
X151592740Y-108350884D01*
X151648245Y-108137868D01*
X151661126Y-107918117D01*
X151630889Y-107700075D01*
X151558695Y-107492122D01*
X151496744Y-107376223D01*
X151328038Y-107298820D01*
X150664258Y-107962600D01*
X150413942Y-107962600D01*
X149750162Y-107298820D01*
X149581456Y-107376223D01*
X149485460Y-107574316D01*
X149429955Y-107787332D01*
X149417074Y-108007083D01*
X146632349Y-108007083D01*
X146639573Y-107989643D01*
X146676600Y-107803496D01*
X146676600Y-107613704D01*
X146639573Y-107427557D01*
X146566943Y-107252212D01*
X146461499Y-107094405D01*
X146327295Y-106960201D01*
X146246328Y-106906100D01*
X148236385Y-106906100D01*
X148253100Y-106907746D01*
X148269815Y-106906100D01*
X148269823Y-106906100D01*
X148319850Y-106901173D01*
X148384034Y-106881703D01*
X148443187Y-106850085D01*
X148495034Y-106807534D01*
X148505698Y-106794540D01*
X148648139Y-106652100D01*
X149128061Y-106652100D01*
X149397509Y-106921549D01*
X149408166Y-106934534D01*
X149421150Y-106945190D01*
X149421154Y-106945194D01*
X149439440Y-106960201D01*
X149460013Y-106977085D01*
X149519166Y-107008703D01*
X149583350Y-107028173D01*
X149633377Y-107033100D01*
X149633386Y-107033100D01*
X149650099Y-107034746D01*
X149666812Y-107033100D01*
X149939810Y-107033100D01*
X149875320Y-107173662D01*
X150539100Y-107837442D01*
X151202880Y-107173662D01*
X151138390Y-107033100D01*
X152177255Y-107033100D01*
X152225257Y-107148988D01*
X152330701Y-107306795D01*
X152464905Y-107440999D01*
X152622712Y-107546443D01*
X152798057Y-107619073D01*
X152984204Y-107656100D01*
X153173996Y-107656100D01*
X153360143Y-107619073D01*
X153535488Y-107546443D01*
X153693295Y-107440999D01*
X153827499Y-107306795D01*
X153932943Y-107148988D01*
X154005573Y-106973643D01*
X154042600Y-106787496D01*
X154042600Y-106597704D01*
X154005573Y-106411557D01*
X153932943Y-106236212D01*
X153827499Y-106078405D01*
X153693295Y-105944201D01*
X153535488Y-105838757D01*
X153360143Y-105766127D01*
X153173996Y-105729100D01*
X152984204Y-105729100D01*
X152798057Y-105766127D01*
X152622712Y-105838757D01*
X152464905Y-105944201D01*
X152330701Y-106078405D01*
X152225257Y-106236212D01*
X152177255Y-106352100D01*
X150804925Y-106352100D01*
X150820143Y-106349073D01*
X150995488Y-106276443D01*
X151153295Y-106170999D01*
X151287499Y-106036795D01*
X151392943Y-105878988D01*
X151465573Y-105703643D01*
X151502600Y-105517496D01*
X151502600Y-105327704D01*
X151465573Y-105141557D01*
X151392943Y-104966212D01*
X151287499Y-104808405D01*
X151153295Y-104674201D01*
X150995488Y-104568757D01*
X150820143Y-104496127D01*
X150804925Y-104493100D01*
X152177255Y-104493100D01*
X152225257Y-104608988D01*
X152330701Y-104766795D01*
X152464905Y-104900999D01*
X152622712Y-105006443D01*
X152798057Y-105079073D01*
X152984204Y-105116100D01*
X153173996Y-105116100D01*
X153360143Y-105079073D01*
X153535488Y-105006443D01*
X153693295Y-104900999D01*
X153827499Y-104766795D01*
X153932943Y-104608988D01*
X154005573Y-104433643D01*
X154042600Y-104247496D01*
X154042600Y-104057704D01*
X154005573Y-103871557D01*
X153932943Y-103696212D01*
X153827499Y-103538405D01*
X153693295Y-103404201D01*
X153535488Y-103298757D01*
X153360143Y-103226127D01*
X153173996Y-103189100D01*
X152984204Y-103189100D01*
X152798057Y-103226127D01*
X152622712Y-103298757D01*
X152464905Y-103404201D01*
X152330701Y-103538405D01*
X152225257Y-103696212D01*
X152177255Y-103812100D01*
X150804925Y-103812100D01*
X150820143Y-103809073D01*
X150995488Y-103736443D01*
X151153295Y-103630999D01*
X151287499Y-103496795D01*
X151392943Y-103338988D01*
X151465573Y-103163643D01*
X151502600Y-102977496D01*
X151502600Y-102787704D01*
X151465573Y-102601557D01*
X151392943Y-102426212D01*
X151287499Y-102268405D01*
X151153295Y-102134201D01*
X150995488Y-102028757D01*
X150820143Y-101956127D01*
X150633996Y-101919100D01*
X150444204Y-101919100D01*
X150258057Y-101956127D01*
X150082712Y-102028757D01*
X149924905Y-102134201D01*
X149790701Y-102268405D01*
X149685257Y-102426212D01*
X149637255Y-102542100D01*
X148821139Y-102542100D01*
X150142169Y-101221071D01*
X150258057Y-101269073D01*
X150444204Y-101306100D01*
X150633996Y-101306100D01*
X150820143Y-101269073D01*
X150995488Y-101196443D01*
X151153295Y-101090999D01*
X151287499Y-100956795D01*
X151392943Y-100798988D01*
X151465573Y-100623643D01*
X151502600Y-100437496D01*
X151502600Y-100247704D01*
X151465573Y-100061557D01*
X151392943Y-99886212D01*
X151287499Y-99728405D01*
X151153295Y-99594201D01*
X150995488Y-99488757D01*
X150820143Y-99416127D01*
X150633996Y-99379100D01*
X150444204Y-99379100D01*
X150258057Y-99416127D01*
X150082712Y-99488757D01*
X149924905Y-99594201D01*
X149790701Y-99728405D01*
X149685257Y-99886212D01*
X149612627Y-100061557D01*
X149575600Y-100247704D01*
X149575600Y-100437496D01*
X149612627Y-100623643D01*
X149660629Y-100739531D01*
X146588062Y-103812100D01*
X144457139Y-103812100D01*
X142416743Y-101771704D01*
X144749600Y-101771704D01*
X144749600Y-101961496D01*
X144786627Y-102147643D01*
X144859257Y-102322988D01*
X144964701Y-102480795D01*
X145098905Y-102614999D01*
X145256712Y-102720443D01*
X145432057Y-102793073D01*
X145618204Y-102830100D01*
X145807996Y-102830100D01*
X145994143Y-102793073D01*
X146169488Y-102720443D01*
X146327295Y-102614999D01*
X146461499Y-102480795D01*
X146566943Y-102322988D01*
X146639573Y-102147643D01*
X146676600Y-101961496D01*
X146676600Y-101771704D01*
X146639573Y-101585557D01*
X146566943Y-101410212D01*
X146461499Y-101252405D01*
X146327295Y-101118201D01*
X146169488Y-101012757D01*
X145994143Y-100940127D01*
X145807996Y-100903100D01*
X145618204Y-100903100D01*
X145432057Y-100940127D01*
X145256712Y-101012757D01*
X145098905Y-101118201D01*
X144964701Y-101252405D01*
X144859257Y-101410212D01*
X144786627Y-101585557D01*
X144749600Y-101771704D01*
X142416743Y-101771704D01*
X141393699Y-100748661D01*
X141383034Y-100735666D01*
X141331187Y-100693115D01*
X141272034Y-100661497D01*
X141207850Y-100642027D01*
X141157823Y-100637100D01*
X141157815Y-100637100D01*
X141141100Y-100635454D01*
X141124385Y-100637100D01*
X139252812Y-100637100D01*
X139236099Y-100635454D01*
X139219386Y-100637100D01*
X139219377Y-100637100D01*
X139169350Y-100642027D01*
X139105166Y-100661497D01*
X139076688Y-100676719D01*
X139046013Y-100693115D01*
X139007154Y-100725006D01*
X139007150Y-100725010D01*
X138994166Y-100735666D01*
X138983510Y-100748650D01*
X137984260Y-101747902D01*
X137968579Y-101724434D01*
X137854266Y-101610121D01*
X137719847Y-101520305D01*
X137570489Y-101458439D01*
X137411932Y-101426900D01*
X137250268Y-101426900D01*
X137091711Y-101458439D01*
X136942353Y-101520305D01*
X136807934Y-101610121D01*
X136693621Y-101724434D01*
X136603805Y-101858853D01*
X136541939Y-102008211D01*
X136510400Y-102166768D01*
X134267801Y-102166768D01*
X134267801Y-100394638D01*
X136769220Y-100394638D01*
X136829367Y-100548742D01*
X137003106Y-100630463D01*
X137189450Y-100676719D01*
X137381237Y-100685732D01*
X137571098Y-100657156D01*
X137751736Y-100592089D01*
X137832833Y-100548742D01*
X137892980Y-100394638D01*
X137331100Y-99832758D01*
X136769220Y-100394638D01*
X134267801Y-100394638D01*
X134267801Y-99757737D01*
X136352968Y-99757737D01*
X136381544Y-99947598D01*
X136446611Y-100128236D01*
X136489958Y-100209333D01*
X136644062Y-100269480D01*
X137205942Y-99707600D01*
X137456258Y-99707600D01*
X138018138Y-100269480D01*
X138172242Y-100209333D01*
X138253963Y-100035594D01*
X138300219Y-99849250D01*
X138309232Y-99657463D01*
X138304613Y-99626768D01*
X139050400Y-99626768D01*
X139050400Y-99788432D01*
X139081939Y-99946989D01*
X139143805Y-100096347D01*
X139233621Y-100230766D01*
X139347934Y-100345079D01*
X139482353Y-100434895D01*
X139631711Y-100496761D01*
X139790268Y-100528300D01*
X139951932Y-100528300D01*
X140110489Y-100496761D01*
X140259847Y-100434895D01*
X140394266Y-100345079D01*
X140508579Y-100230766D01*
X140598395Y-100096347D01*
X140618380Y-100048100D01*
X141759385Y-100048100D01*
X141776100Y-100049746D01*
X141792815Y-100048100D01*
X141792823Y-100048100D01*
X141842850Y-100043173D01*
X141907034Y-100023703D01*
X141966187Y-99992085D01*
X142018034Y-99949534D01*
X142028699Y-99936539D01*
X142733534Y-99231704D01*
X144749600Y-99231704D01*
X144749600Y-99421496D01*
X144786627Y-99607643D01*
X144859257Y-99782988D01*
X144964701Y-99940795D01*
X145098905Y-100074999D01*
X145256712Y-100180443D01*
X145432057Y-100253073D01*
X145618204Y-100290100D01*
X145807996Y-100290100D01*
X145994143Y-100253073D01*
X146169488Y-100180443D01*
X146327295Y-100074999D01*
X146461499Y-99940795D01*
X146566943Y-99782988D01*
X146639573Y-99607643D01*
X146676600Y-99421496D01*
X146676600Y-99231704D01*
X146639573Y-99045557D01*
X146566943Y-98870212D01*
X146461499Y-98712405D01*
X146327295Y-98578201D01*
X146169488Y-98472757D01*
X145994143Y-98400127D01*
X145807996Y-98363100D01*
X145618204Y-98363100D01*
X145432057Y-98400127D01*
X145256712Y-98472757D01*
X145098905Y-98578201D01*
X144964701Y-98712405D01*
X144859257Y-98870212D01*
X144786627Y-99045557D01*
X144749600Y-99231704D01*
X142733534Y-99231704D01*
X144457140Y-97508100D01*
X150525062Y-97508100D01*
X152230600Y-99213639D01*
X152230601Y-101087875D01*
X152228954Y-101104600D01*
X152232909Y-101144760D01*
X152225257Y-101156212D01*
X152152627Y-101331557D01*
X152115600Y-101517704D01*
X152115600Y-101707496D01*
X152152627Y-101893643D01*
X152225257Y-102068988D01*
X152330701Y-102226795D01*
X152464905Y-102360999D01*
X152622712Y-102466443D01*
X152798057Y-102539073D01*
X152984204Y-102576100D01*
X153173996Y-102576100D01*
X153360143Y-102539073D01*
X153535488Y-102466443D01*
X153693295Y-102360999D01*
X153827499Y-102226795D01*
X153932943Y-102068988D01*
X154005573Y-101893643D01*
X154042600Y-101707496D01*
X154042600Y-101517704D01*
X154005573Y-101331557D01*
X153932943Y-101156212D01*
X153827499Y-100998405D01*
X153693295Y-100864201D01*
X153535488Y-100758757D01*
X153360143Y-100686127D01*
X153173996Y-100649100D01*
X152984204Y-100649100D01*
X152911600Y-100663542D01*
X152911600Y-99089315D01*
X152913246Y-99072600D01*
X152911600Y-99055885D01*
X152911600Y-99055877D01*
X152906673Y-99005850D01*
X152898924Y-98980305D01*
X152887203Y-98941665D01*
X152860370Y-98891464D01*
X157590000Y-98891464D01*
X157590000Y-99253736D01*
X157660675Y-99609046D01*
X157799310Y-99943741D01*
X158000577Y-100244958D01*
X158256742Y-100501123D01*
X158557959Y-100702390D01*
X158892654Y-100841025D01*
X159247964Y-100911700D01*
X159610236Y-100911700D01*
X159965546Y-100841025D01*
X160300241Y-100702390D01*
X160601458Y-100501123D01*
X160857623Y-100244958D01*
X161058890Y-99943741D01*
X161197525Y-99609046D01*
X161268200Y-99253736D01*
X161268200Y-98891464D01*
X161197525Y-98536154D01*
X161058890Y-98201459D01*
X160857623Y-97900242D01*
X160601458Y-97644077D01*
X160300241Y-97442810D01*
X159965546Y-97304175D01*
X159610236Y-97233500D01*
X159247964Y-97233500D01*
X158892654Y-97304175D01*
X158557959Y-97442810D01*
X158256742Y-97644077D01*
X158000577Y-97900242D01*
X157799310Y-98201459D01*
X157660675Y-98536154D01*
X157590000Y-98891464D01*
X152860370Y-98891464D01*
X152855585Y-98882513D01*
X152823694Y-98843655D01*
X152823690Y-98843651D01*
X152813033Y-98830666D01*
X152800049Y-98820010D01*
X152058948Y-98078909D01*
X155467949Y-98078909D01*
X155587512Y-98283446D01*
X155845228Y-98414385D01*
X156123536Y-98492532D01*
X156411743Y-98514882D01*
X156698773Y-98480576D01*
X156973594Y-98390931D01*
X157174688Y-98283446D01*
X157294251Y-98078909D01*
X156381100Y-97165758D01*
X155467949Y-98078909D01*
X152058948Y-98078909D01*
X151051282Y-97071243D01*
X154906818Y-97071243D01*
X154941124Y-97358273D01*
X155030769Y-97633094D01*
X155138254Y-97834188D01*
X155342791Y-97953751D01*
X156255942Y-97040600D01*
X156506258Y-97040600D01*
X157419409Y-97953751D01*
X157623946Y-97834188D01*
X157754885Y-97576472D01*
X157833032Y-97298164D01*
X157855382Y-97009957D01*
X157821076Y-96722927D01*
X157731431Y-96448106D01*
X157623946Y-96247012D01*
X157419409Y-96127449D01*
X156506258Y-97040600D01*
X156255942Y-97040600D01*
X155342791Y-96127449D01*
X155138254Y-96247012D01*
X155007315Y-96504728D01*
X154929168Y-96783036D01*
X154906818Y-97071243D01*
X151051282Y-97071243D01*
X150918699Y-96938661D01*
X150908034Y-96925666D01*
X150856187Y-96883115D01*
X150797034Y-96851497D01*
X150732850Y-96832027D01*
X150682823Y-96827100D01*
X150682815Y-96827100D01*
X150666100Y-96825454D01*
X150649385Y-96827100D01*
X144332812Y-96827100D01*
X144316099Y-96825454D01*
X144299386Y-96827100D01*
X144299377Y-96827100D01*
X144249350Y-96832027D01*
X144185166Y-96851497D01*
X144126013Y-96883115D01*
X144087154Y-96915006D01*
X144087150Y-96915010D01*
X144074166Y-96925666D01*
X144063510Y-96938650D01*
X141635062Y-99367100D01*
X140618380Y-99367100D01*
X140598395Y-99318853D01*
X140508579Y-99184434D01*
X140394266Y-99070121D01*
X140259847Y-98980305D01*
X140110489Y-98918439D01*
X139951932Y-98886900D01*
X139790268Y-98886900D01*
X139631711Y-98918439D01*
X139482353Y-98980305D01*
X139347934Y-99070121D01*
X139233621Y-99184434D01*
X139143805Y-99318853D01*
X139081939Y-99468211D01*
X139050400Y-99626768D01*
X138304613Y-99626768D01*
X138280656Y-99467602D01*
X138215589Y-99286964D01*
X138172242Y-99205867D01*
X138018138Y-99145720D01*
X137456258Y-99707600D01*
X137205942Y-99707600D01*
X136644062Y-99145720D01*
X136489958Y-99205867D01*
X136408237Y-99379606D01*
X136361981Y-99565950D01*
X136352968Y-99757737D01*
X134267801Y-99757737D01*
X134267801Y-99020562D01*
X136769220Y-99020562D01*
X137331100Y-99582442D01*
X137892980Y-99020562D01*
X137832833Y-98866458D01*
X137659094Y-98784737D01*
X137472750Y-98738481D01*
X137280963Y-98729468D01*
X137091102Y-98758044D01*
X136910464Y-98823111D01*
X136829367Y-98866458D01*
X136769220Y-99020562D01*
X134267801Y-99020562D01*
X134267801Y-97086768D01*
X136510400Y-97086768D01*
X136510400Y-97248432D01*
X136541939Y-97406989D01*
X136603805Y-97556347D01*
X136693621Y-97690766D01*
X136807934Y-97805079D01*
X136942353Y-97894895D01*
X137091711Y-97956761D01*
X137250268Y-97988300D01*
X137411932Y-97988300D01*
X137570489Y-97956761D01*
X137719847Y-97894895D01*
X137854266Y-97805079D01*
X137968579Y-97690766D01*
X138058395Y-97556347D01*
X138120261Y-97406989D01*
X138151800Y-97248432D01*
X138151800Y-97086768D01*
X139050400Y-97086768D01*
X139050400Y-97248432D01*
X139081939Y-97406989D01*
X139143805Y-97556347D01*
X139233621Y-97690766D01*
X139347934Y-97805079D01*
X139482353Y-97894895D01*
X139631711Y-97956761D01*
X139790268Y-97988300D01*
X139951932Y-97988300D01*
X140110489Y-97956761D01*
X140259847Y-97894895D01*
X140394266Y-97805079D01*
X140508579Y-97690766D01*
X140598395Y-97556347D01*
X140660261Y-97406989D01*
X140691800Y-97248432D01*
X140691800Y-97086768D01*
X140660261Y-96928211D01*
X140598395Y-96778853D01*
X140508579Y-96644434D01*
X140394266Y-96530121D01*
X140259847Y-96440305D01*
X140110489Y-96378439D01*
X139951932Y-96346900D01*
X139790268Y-96346900D01*
X139631711Y-96378439D01*
X139482353Y-96440305D01*
X139347934Y-96530121D01*
X139233621Y-96644434D01*
X139143805Y-96778853D01*
X139081939Y-96928211D01*
X139050400Y-97086768D01*
X138151800Y-97086768D01*
X138120261Y-96928211D01*
X138058395Y-96778853D01*
X137968579Y-96644434D01*
X137854266Y-96530121D01*
X137719847Y-96440305D01*
X137570489Y-96378439D01*
X137411932Y-96346900D01*
X137250268Y-96346900D01*
X137091711Y-96378439D01*
X136942353Y-96440305D01*
X136807934Y-96530121D01*
X136693621Y-96644434D01*
X136603805Y-96778853D01*
X136541939Y-96928211D01*
X136510400Y-97086768D01*
X134267801Y-97086768D01*
X134267801Y-96002291D01*
X155467949Y-96002291D01*
X156381100Y-96915442D01*
X157294251Y-96002291D01*
X157174688Y-95797754D01*
X156916972Y-95666815D01*
X156638664Y-95588668D01*
X156350457Y-95566318D01*
X156063427Y-95600624D01*
X155788606Y-95690269D01*
X155587512Y-95797754D01*
X155467949Y-96002291D01*
X134267801Y-96002291D01*
X134267801Y-92654986D01*
X156067600Y-92654986D01*
X156067600Y-93012214D01*
X156137292Y-93362579D01*
X156273997Y-93692614D01*
X156472462Y-93989639D01*
X156725061Y-94242238D01*
X157022086Y-94440703D01*
X157352121Y-94577408D01*
X157702486Y-94647100D01*
X158059714Y-94647100D01*
X158410079Y-94577408D01*
X158740114Y-94440703D01*
X159037139Y-94242238D01*
X159289738Y-93989639D01*
X159488203Y-93692614D01*
X159624908Y-93362579D01*
X159694600Y-93012214D01*
X159694600Y-92654986D01*
X159624908Y-92304621D01*
X159488203Y-91974586D01*
X159289738Y-91677561D01*
X159037139Y-91424962D01*
X158740114Y-91226497D01*
X158410079Y-91089792D01*
X158059714Y-91020100D01*
X157702486Y-91020100D01*
X157352121Y-91089792D01*
X157022086Y-91226497D01*
X156725061Y-91424962D01*
X156472462Y-91677561D01*
X156273997Y-91974586D01*
X156137292Y-92304621D01*
X156067600Y-92654986D01*
X134267801Y-92654986D01*
X134267801Y-88780986D01*
X156067600Y-88780986D01*
X156067600Y-89138214D01*
X156137292Y-89488579D01*
X156273997Y-89818614D01*
X156472462Y-90115639D01*
X156725061Y-90368238D01*
X157022086Y-90566703D01*
X157352121Y-90703408D01*
X157702486Y-90773100D01*
X158059714Y-90773100D01*
X158410079Y-90703408D01*
X158740114Y-90566703D01*
X159037139Y-90368238D01*
X159289738Y-90115639D01*
X159488203Y-89818614D01*
X159624908Y-89488579D01*
X159694600Y-89138214D01*
X159694600Y-88780986D01*
X159624908Y-88430621D01*
X159488203Y-88100586D01*
X159289738Y-87803561D01*
X159037139Y-87550962D01*
X158740114Y-87352497D01*
X158410079Y-87215792D01*
X158059714Y-87146100D01*
X157702486Y-87146100D01*
X157352121Y-87215792D01*
X157022086Y-87352497D01*
X156725061Y-87550962D01*
X156472462Y-87803561D01*
X156273997Y-88100586D01*
X156137292Y-88430621D01*
X156067600Y-88780986D01*
X134267801Y-88780986D01*
X134267801Y-84970986D01*
X156067600Y-84970986D01*
X156067600Y-85328214D01*
X156137292Y-85678579D01*
X156273997Y-86008614D01*
X156472462Y-86305639D01*
X156725061Y-86558238D01*
X157022086Y-86756703D01*
X157352121Y-86893408D01*
X157702486Y-86963100D01*
X158059714Y-86963100D01*
X158410079Y-86893408D01*
X158740114Y-86756703D01*
X159037139Y-86558238D01*
X159289738Y-86305639D01*
X159488203Y-86008614D01*
X159624908Y-85678579D01*
X159694600Y-85328214D01*
X159694600Y-84970986D01*
X159624908Y-84620621D01*
X159488203Y-84290586D01*
X159289738Y-83993561D01*
X159037139Y-83740962D01*
X158740114Y-83542497D01*
X158410079Y-83405792D01*
X158059714Y-83336100D01*
X157702486Y-83336100D01*
X157352121Y-83405792D01*
X157022086Y-83542497D01*
X156725061Y-83740962D01*
X156472462Y-83993561D01*
X156273997Y-84290586D01*
X156137292Y-84620621D01*
X156067600Y-84970986D01*
X134267801Y-84970986D01*
X134267801Y-81160986D01*
X156067600Y-81160986D01*
X156067600Y-81518214D01*
X156137292Y-81868579D01*
X156273997Y-82198614D01*
X156472462Y-82495639D01*
X156725061Y-82748238D01*
X157022086Y-82946703D01*
X157352121Y-83083408D01*
X157702486Y-83153100D01*
X158059714Y-83153100D01*
X158410079Y-83083408D01*
X158740114Y-82946703D01*
X159037139Y-82748238D01*
X159289738Y-82495639D01*
X159488203Y-82198614D01*
X159624908Y-81868579D01*
X159694600Y-81518214D01*
X159694600Y-81160986D01*
X159624908Y-80810621D01*
X159488203Y-80480586D01*
X159289738Y-80183561D01*
X159037139Y-79930962D01*
X158740114Y-79732497D01*
X158410079Y-79595792D01*
X158059714Y-79526100D01*
X157702486Y-79526100D01*
X157352121Y-79595792D01*
X157022086Y-79732497D01*
X156725061Y-79930962D01*
X156472462Y-80183561D01*
X156273997Y-80480586D01*
X156137292Y-80810621D01*
X156067600Y-81160986D01*
X134267801Y-81160986D01*
X134267801Y-77350986D01*
X156067600Y-77350986D01*
X156067600Y-77708214D01*
X156137292Y-78058579D01*
X156273997Y-78388614D01*
X156472462Y-78685639D01*
X156725061Y-78938238D01*
X157022086Y-79136703D01*
X157352121Y-79273408D01*
X157702486Y-79343100D01*
X158059714Y-79343100D01*
X158410079Y-79273408D01*
X158740114Y-79136703D01*
X159037139Y-78938238D01*
X159289738Y-78685639D01*
X159488203Y-78388614D01*
X159624908Y-78058579D01*
X159694600Y-77708214D01*
X159694600Y-77350986D01*
X159624908Y-77000621D01*
X159488203Y-76670586D01*
X159289738Y-76373561D01*
X159037139Y-76120962D01*
X158740114Y-75922497D01*
X158410079Y-75785792D01*
X158059714Y-75716100D01*
X157702486Y-75716100D01*
X157352121Y-75785792D01*
X157022086Y-75922497D01*
X156725061Y-76120962D01*
X156472462Y-76373561D01*
X156273997Y-76670586D01*
X156137292Y-77000621D01*
X156067600Y-77350986D01*
X134267801Y-77350986D01*
X134267801Y-75320301D01*
X162734399Y-75320301D01*
X162734400Y-134686899D01*
M02*
