(module PLCC-SR32 (layer F.Cu) (tedit 0)
  (descr "<B>PLCC32 Socket</B>")
  (fp_text reference IC8 (at -1.105185 -1.040172 -180) (layer F.SilkS)
    (effects (font (size 0.77216 0.77216) (thickness 0.077216)) (justify left bottom))
  )
  (fp_text value AM29F010S (at -6.65746 -10.606613 -180) (layer F.Fab)
    (effects (font (size 1.2065 1.2065) (thickness 0.12065)) (justify left bottom))
  )
  (fp_line (start -7.62 -10.414) (end -9.144 -8.89) (layer F.SilkS) (width 0.1524))
  (fp_line (start -9.144 -8.89) (end -9.144 9.779) (layer F.SilkS) (width 0.1524))
  (fp_line (start -5.715 -5.715) (end -4.445 -6.985) (layer F.SilkS) (width 0.1524))
  (fp_line (start -6.858 9.144) (end -4.699 6.985) (layer F.SilkS) (width 0.1524))
  (fp_line (start -6.858 9.144) (end -7.874 8.128) (layer F.SilkS) (width 0.1524))
  (fp_line (start -7.874 8.128) (end -5.715 5.969) (layer F.SilkS) (width 0.1524))
  (fp_line (start -5.715 5.969) (end -5.715 5.715) (layer F.SilkS) (width 0.1524))
  (fp_line (start -4.699 6.985) (end -4.445 6.985) (layer F.SilkS) (width 0.1524))
  (fp_line (start -4.191 8.636) (end -4.191 6.985) (layer F.Fab) (width 0.1524))
  (fp_line (start -4.191 6.985) (end -4.445 6.985) (layer F.Fab) (width 0.1524))
  (fp_line (start -4.191 8.636) (end -4.191 9.144) (layer F.SilkS) (width 0.1524))
  (fp_line (start -4.191 9.144) (end -3.429 9.144) (layer F.SilkS) (width 0.1524))
  (fp_line (start -3.429 9.144) (end -3.429 8.636) (layer F.SilkS) (width 0.1524))
  (fp_line (start -3.429 6.985) (end -3.429 8.636) (layer F.Fab) (width 0.1524))
  (fp_line (start -3.429 6.985) (end -2.921 6.985) (layer F.Fab) (width 0.1524))
  (fp_line (start -2.921 8.255) (end -2.921 6.985) (layer F.Fab) (width 0.1524))
  (fp_line (start -2.921 8.255) (end -2.921 9.144) (layer F.SilkS) (width 0.1524))
  (fp_line (start -2.921 9.144) (end -2.159 9.144) (layer F.SilkS) (width 0.1524))
  (fp_line (start -2.159 9.144) (end -2.159 8.255) (layer F.SilkS) (width 0.1524))
  (fp_line (start -2.159 6.985) (end -2.159 8.255) (layer F.Fab) (width 0.1524))
  (fp_line (start -2.159 6.985) (end -1.651 6.985) (layer F.Fab) (width 0.1524))
  (fp_line (start -1.651 8.636) (end -1.651 6.985) (layer F.Fab) (width 0.1524))
  (fp_line (start -1.651 8.636) (end -1.651 9.144) (layer F.SilkS) (width 0.1524))
  (fp_line (start -1.651 9.144) (end -0.889 9.144) (layer F.SilkS) (width 0.1524))
  (fp_line (start -0.889 9.144) (end -0.889 8.636) (layer F.SilkS) (width 0.1524))
  (fp_line (start -0.889 6.985) (end -0.889 8.636) (layer F.Fab) (width 0.1524))
  (fp_line (start -0.889 6.985) (end -0.381 6.985) (layer F.Fab) (width 0.1524))
  (fp_line (start -0.381 8.255) (end -0.381 6.985) (layer F.Fab) (width 0.1524))
  (fp_line (start -0.381 8.255) (end -0.381 9.144) (layer F.SilkS) (width 0.1524))
  (fp_line (start -0.381 9.144) (end 0.381 9.144) (layer F.SilkS) (width 0.1524))
  (fp_line (start 0.381 9.144) (end 0.381 8.255) (layer F.SilkS) (width 0.1524))
  (fp_line (start 0.381 6.985) (end 0.381 8.255) (layer F.Fab) (width 0.1524))
  (fp_line (start 0.381 6.985) (end 0.889 6.985) (layer F.Fab) (width 0.1524))
  (fp_line (start 0.889 8.636) (end 0.889 6.985) (layer F.Fab) (width 0.1524))
  (fp_line (start 0.889 8.636) (end 0.889 9.144) (layer F.SilkS) (width 0.1524))
  (fp_line (start 0.889 9.144) (end 1.651 9.144) (layer F.SilkS) (width 0.1524))
  (fp_line (start 1.651 9.144) (end 1.651 8.636) (layer F.SilkS) (width 0.1524))
  (fp_line (start 1.651 6.985) (end 1.651 8.636) (layer F.Fab) (width 0.1524))
  (fp_line (start 1.651 6.985) (end 2.159 6.985) (layer F.Fab) (width 0.1524))
  (fp_line (start 2.159 8.255) (end 2.159 6.985) (layer F.Fab) (width 0.1524))
  (fp_line (start 2.159 8.255) (end 2.159 9.144) (layer F.SilkS) (width 0.1524))
  (fp_line (start 2.159 9.144) (end 2.921 9.144) (layer F.SilkS) (width 0.1524))
  (fp_line (start 2.921 9.144) (end 2.921 8.255) (layer F.SilkS) (width 0.1524))
  (fp_line (start 2.921 6.985) (end 2.921 8.255) (layer F.Fab) (width 0.1524))
  (fp_line (start 2.921 6.985) (end 3.429 6.985) (layer F.Fab) (width 0.1524))
  (fp_line (start 3.429 8.636) (end 3.429 6.985) (layer F.Fab) (width 0.1524))
  (fp_line (start 3.429 8.636) (end 3.429 9.144) (layer F.SilkS) (width 0.1524))
  (fp_line (start 3.429 9.144) (end 4.191 9.144) (layer F.SilkS) (width 0.1524))
  (fp_line (start 4.191 9.144) (end 4.191 8.636) (layer F.SilkS) (width 0.1524))
  (fp_line (start 4.445 6.985) (end 4.191 6.985) (layer F.Fab) (width 0.1524))
  (fp_line (start 4.191 6.985) (end 4.191 8.636) (layer F.Fab) (width 0.1524))
  (fp_line (start 4.445 6.985) (end 5.715 6.985) (layer F.SilkS) (width 0.1524))
  (fp_line (start 7.874 -8.128) (end 5.715 -5.969) (layer F.SilkS) (width 0.1524))
  (fp_line (start 7.874 -8.128) (end 6.858 -9.144) (layer F.SilkS) (width 0.1524))
  (fp_line (start 6.858 -9.144) (end 4.699 -6.985) (layer F.SilkS) (width 0.1524))
  (fp_line (start 5.715 -5.969) (end 5.715 -5.715) (layer F.SilkS) (width 0.1524))
  (fp_line (start 7.366 -5.461) (end 5.715 -5.461) (layer F.Fab) (width 0.1524))
  (fp_line (start 5.715 -5.461) (end 5.715 -5.715) (layer F.Fab) (width 0.1524))
  (fp_line (start 7.366 -5.461) (end 7.874 -5.461) (layer F.SilkS) (width 0.1524))
  (fp_line (start 7.874 -5.461) (end 7.874 -4.699) (layer F.SilkS) (width 0.1524))
  (fp_line (start 7.874 -4.699) (end 7.366 -4.699) (layer F.SilkS) (width 0.1524))
  (fp_line (start 5.715 -4.699) (end 7.366 -4.699) (layer F.Fab) (width 0.1524))
  (fp_line (start 5.715 -4.699) (end 5.715 -4.191) (layer F.Fab) (width 0.1524))
  (fp_line (start 6.858 -4.191) (end 5.715 -4.191) (layer F.Fab) (width 0.1524))
  (fp_line (start 6.858 -4.191) (end 7.874 -4.191) (layer F.SilkS) (width 0.1524))
  (fp_line (start 7.874 -4.191) (end 7.874 -3.429) (layer F.SilkS) (width 0.1524))
  (fp_line (start 7.874 -3.429) (end 6.858 -3.429) (layer F.SilkS) (width 0.1524))
  (fp_line (start 5.715 -3.429) (end 6.858 -3.429) (layer F.Fab) (width 0.1524))
  (fp_line (start 5.715 -3.429) (end 5.715 -2.921) (layer F.Fab) (width 0.1524))
  (fp_line (start 7.366 -2.921) (end 5.715 -2.921) (layer F.Fab) (width 0.1524))
  (fp_line (start 5.715 0.381) (end 7.366 0.381) (layer F.Fab) (width 0.1524))
  (fp_line (start 5.715 0.381) (end 5.715 0.889) (layer F.Fab) (width 0.1524))
  (fp_line (start 6.858 0.889) (end 5.715 0.889) (layer F.Fab) (width 0.1524))
  (fp_line (start 6.858 0.889) (end 7.874 0.889) (layer F.SilkS) (width 0.1524))
  (fp_line (start 7.874 0.889) (end 7.874 1.651) (layer F.SilkS) (width 0.1524))
  (fp_line (start 7.874 1.651) (end 6.858 1.651) (layer F.SilkS) (width 0.1524))
  (fp_line (start 5.715 1.651) (end 6.858 1.651) (layer F.Fab) (width 0.1524))
  (fp_line (start 5.715 1.651) (end 5.715 2.159) (layer F.Fab) (width 0.1524))
  (fp_line (start 7.366 2.159) (end 5.715 2.159) (layer F.Fab) (width 0.1524))
  (fp_line (start 7.366 2.159) (end 7.874 2.159) (layer F.SilkS) (width 0.1524))
  (fp_line (start 7.874 2.159) (end 7.874 2.921) (layer F.SilkS) (width 0.1524))
  (fp_line (start 7.874 2.921) (end 7.366 2.921) (layer F.SilkS) (width 0.1524))
  (fp_line (start 5.715 2.921) (end 7.366 2.921) (layer F.Fab) (width 0.1524))
  (fp_line (start 5.715 2.921) (end 5.715 3.429) (layer F.Fab) (width 0.1524))
  (fp_line (start 6.858 3.429) (end 5.715 3.429) (layer F.Fab) (width 0.1524))
  (fp_line (start 6.858 3.429) (end 7.874 3.429) (layer F.SilkS) (width 0.1524))
  (fp_line (start 7.874 3.429) (end 7.874 4.191) (layer F.SilkS) (width 0.1524))
  (fp_line (start 7.874 4.191) (end 6.858 4.191) (layer F.SilkS) (width 0.1524))
  (fp_line (start 5.715 4.191) (end 6.858 4.191) (layer F.Fab) (width 0.1524))
  (fp_line (start 5.715 4.191) (end 5.715 4.699) (layer F.Fab) (width 0.1524))
  (fp_line (start 7.366 4.699) (end 5.715 4.699) (layer F.Fab) (width 0.1524))
  (fp_line (start 7.366 4.699) (end 7.874 4.699) (layer F.SilkS) (width 0.1524))
  (fp_line (start 7.874 4.699) (end 7.874 5.461) (layer F.SilkS) (width 0.1524))
  (fp_line (start 7.874 5.461) (end 7.366 5.461) (layer F.SilkS) (width 0.1524))
  (fp_line (start 5.715 5.715) (end 5.715 5.461) (layer F.Fab) (width 0.1524))
  (fp_line (start 5.715 5.461) (end 7.366 5.461) (layer F.Fab) (width 0.1524))
  (fp_line (start 5.715 5.715) (end 5.715 6.985) (layer F.SilkS) (width 0.1524))
  (fp_line (start -5.715 5.715) (end -5.715 5.461) (layer F.Fab) (width 0.1524))
  (fp_line (start -7.366 5.461) (end -5.715 5.461) (layer F.Fab) (width 0.1524))
  (fp_line (start -7.366 5.461) (end -7.874 5.461) (layer F.SilkS) (width 0.1524))
  (fp_line (start -7.874 5.461) (end -7.874 4.699) (layer F.SilkS) (width 0.1524))
  (fp_line (start -7.874 4.699) (end -7.366 4.699) (layer F.SilkS) (width 0.1524))
  (fp_line (start -5.715 4.699) (end -7.366 4.699) (layer F.Fab) (width 0.1524))
  (fp_line (start -5.715 4.699) (end -5.715 4.191) (layer F.Fab) (width 0.1524))
  (fp_line (start -6.985 4.191) (end -5.715 4.191) (layer F.Fab) (width 0.1524))
  (fp_line (start -6.985 4.191) (end -7.874 4.191) (layer F.SilkS) (width 0.1524))
  (fp_line (start -7.874 4.191) (end -7.874 3.429) (layer F.SilkS) (width 0.1524))
  (fp_line (start -7.874 3.429) (end -6.985 3.429) (layer F.SilkS) (width 0.1524))
  (fp_line (start -5.715 3.429) (end -6.985 3.429) (layer F.Fab) (width 0.1524))
  (fp_line (start -5.715 3.429) (end -5.715 2.921) (layer F.Fab) (width 0.1524))
  (fp_line (start -7.366 2.921) (end -5.715 2.921) (layer F.Fab) (width 0.1524))
  (fp_line (start -7.366 2.921) (end -7.874 2.921) (layer F.SilkS) (width 0.1524))
  (fp_line (start -7.874 2.921) (end -7.874 2.159) (layer F.SilkS) (width 0.1524))
  (fp_line (start -7.874 2.159) (end -7.366 2.159) (layer F.SilkS) (width 0.1524))
  (fp_line (start -5.715 2.159) (end -7.366 2.159) (layer F.Fab) (width 0.1524))
  (fp_line (start -5.715 2.159) (end -5.715 1.651) (layer F.Fab) (width 0.1524))
  (fp_line (start -6.985 1.651) (end -5.715 1.651) (layer F.Fab) (width 0.1524))
  (fp_line (start -6.985 1.651) (end -7.874 1.651) (layer F.SilkS) (width 0.1524))
  (fp_line (start -7.874 1.651) (end -7.874 0.889) (layer F.SilkS) (width 0.1524))
  (fp_line (start -7.874 0.889) (end -6.985 0.889) (layer F.SilkS) (width 0.1524))
  (fp_line (start -5.715 0.889) (end -6.985 0.889) (layer F.Fab) (width 0.1524))
  (fp_line (start -5.715 0.889) (end -5.715 0.381) (layer F.Fab) (width 0.1524))
  (fp_line (start -7.366 0.381) (end -5.715 0.381) (layer F.Fab) (width 0.1524))
  (fp_line (start -5.715 -2.921) (end -7.366 -2.921) (layer F.Fab) (width 0.1524))
  (fp_line (start -5.715 -2.921) (end -5.715 -3.429) (layer F.Fab) (width 0.1524))
  (fp_line (start -6.985 -3.429) (end -5.715 -3.429) (layer F.Fab) (width 0.1524))
  (fp_line (start -6.985 -3.429) (end -7.874 -3.429) (layer F.SilkS) (width 0.1524))
  (fp_line (start -7.874 -3.429) (end -7.874 -4.191) (layer F.SilkS) (width 0.1524))
  (fp_line (start -7.874 -4.191) (end -6.985 -4.191) (layer F.SilkS) (width 0.1524))
  (fp_line (start -5.715 -4.191) (end -6.985 -4.191) (layer F.Fab) (width 0.1524))
  (fp_line (start -5.715 -4.191) (end -5.715 -4.699) (layer F.Fab) (width 0.1524))
  (fp_line (start -7.366 -4.699) (end -5.715 -4.699) (layer F.Fab) (width 0.1524))
  (fp_line (start -7.366 -4.699) (end -7.874 -4.699) (layer F.SilkS) (width 0.1524))
  (fp_line (start -7.874 -4.699) (end -7.874 -5.461) (layer F.SilkS) (width 0.1524))
  (fp_line (start -7.874 -5.461) (end -7.366 -5.461) (layer F.SilkS) (width 0.1524))
  (fp_line (start -5.715 -5.461) (end -7.366 -5.461) (layer F.Fab) (width 0.1524))
  (fp_line (start -5.715 -5.461) (end -5.715 -5.715) (layer F.Fab) (width 0.1524))
  (fp_line (start 4.699 -6.985) (end 4.445 -6.985) (layer F.SilkS) (width 0.1524))
  (fp_line (start 4.191 -8.636) (end 4.191 -6.985) (layer F.Fab) (width 0.1524))
  (fp_line (start 4.191 -6.985) (end 4.445 -6.985) (layer F.Fab) (width 0.1524))
  (fp_line (start 4.191 -8.636) (end 4.191 -9.144) (layer F.SilkS) (width 0.1524))
  (fp_line (start 4.191 -9.144) (end 3.429 -9.144) (layer F.SilkS) (width 0.1524))
  (fp_line (start 3.429 -9.144) (end 3.429 -8.636) (layer F.SilkS) (width 0.1524))
  (fp_line (start 3.429 -6.985) (end 3.429 -8.636) (layer F.Fab) (width 0.1524))
  (fp_line (start 3.429 -6.985) (end 2.921 -6.985) (layer F.Fab) (width 0.1524))
  (fp_line (start 2.921 -8.255) (end 2.921 -6.985) (layer F.Fab) (width 0.1524))
  (fp_line (start 2.921 -8.255) (end 2.921 -9.144) (layer F.SilkS) (width 0.1524))
  (fp_line (start 2.921 -9.144) (end 2.159 -9.144) (layer F.SilkS) (width 0.1524))
  (fp_line (start 2.159 -9.144) (end 2.159 -8.255) (layer F.SilkS) (width 0.1524))
  (fp_line (start 2.159 -6.985) (end 2.159 -8.255) (layer F.Fab) (width 0.1524))
  (fp_line (start 2.159 -6.985) (end 1.651 -6.985) (layer F.Fab) (width 0.1524))
  (fp_line (start 1.651 -8.636) (end 1.651 -6.985) (layer F.Fab) (width 0.1524))
  (fp_line (start 1.651 -8.636) (end 1.651 -9.144) (layer F.SilkS) (width 0.1524))
  (fp_line (start 1.651 -9.144) (end 0.889 -9.144) (layer F.SilkS) (width 0.1524))
  (fp_line (start 0.889 -9.144) (end 0.889 -8.636) (layer F.SilkS) (width 0.1524))
  (fp_line (start 0.889 -6.985) (end 0.889 -8.636) (layer F.Fab) (width 0.1524))
  (fp_line (start 0.889 -6.985) (end 0.381 -6.985) (layer F.Fab) (width 0.1524))
  (fp_line (start 0.381 -8.255) (end 0.381 -6.985) (layer F.Fab) (width 0.1524))
  (fp_line (start 0.381 -8.255) (end 0.381 -9.144) (layer F.SilkS) (width 0.1524))
  (fp_line (start 0.381 -9.144) (end -0.381 -9.144) (layer F.SilkS) (width 0.1524))
  (fp_line (start -0.381 -9.144) (end -0.381 -8.255) (layer F.SilkS) (width 0.1524))
  (fp_line (start -0.381 -6.985) (end -0.381 -8.255) (layer F.Fab) (width 0.1524))
  (fp_line (start -0.381 -6.985) (end -0.889 -6.985) (layer F.Fab) (width 0.1524))
  (fp_line (start -0.889 -8.636) (end -0.889 -6.985) (layer F.Fab) (width 0.1524))
  (fp_line (start -0.889 -8.636) (end -0.889 -9.144) (layer F.SilkS) (width 0.1524))
  (fp_line (start -0.889 -9.144) (end -1.651 -9.144) (layer F.SilkS) (width 0.1524))
  (fp_line (start -1.651 -9.144) (end -1.651 -8.636) (layer F.SilkS) (width 0.1524))
  (fp_line (start -1.651 -6.985) (end -1.651 -8.636) (layer F.Fab) (width 0.1524))
  (fp_line (start -1.651 -6.985) (end -2.159 -6.985) (layer F.Fab) (width 0.1524))
  (fp_line (start -2.159 -8.255) (end -2.159 -6.985) (layer F.Fab) (width 0.1524))
  (fp_line (start -2.159 -8.255) (end -2.159 -9.144) (layer F.SilkS) (width 0.1524))
  (fp_line (start -2.159 -9.144) (end -2.921 -9.144) (layer F.SilkS) (width 0.1524))
  (fp_line (start -2.921 -9.144) (end -2.921 -8.255) (layer F.SilkS) (width 0.1524))
  (fp_line (start -2.921 -6.985) (end -2.921 -8.255) (layer F.Fab) (width 0.1524))
  (fp_line (start -2.921 -6.985) (end -3.429 -6.985) (layer F.Fab) (width 0.1524))
  (fp_line (start -3.429 -8.636) (end -3.429 -6.985) (layer F.Fab) (width 0.1524))
  (fp_line (start -3.429 -8.636) (end -3.429 -9.144) (layer F.SilkS) (width 0.1524))
  (fp_line (start -3.429 -9.144) (end -4.191 -9.144) (layer F.SilkS) (width 0.1524))
  (fp_line (start -4.191 -9.144) (end -4.191 -8.636) (layer F.SilkS) (width 0.1524))
  (fp_line (start -4.191 -6.985) (end -4.191 -8.636) (layer F.Fab) (width 0.1524))
  (fp_line (start -4.191 -6.985) (end -4.445 -6.985) (layer F.Fab) (width 0.1524))
  (fp_line (start 7.366 -2.921) (end 7.874 -2.921) (layer F.SilkS) (width 0.1524))
  (fp_line (start 7.874 -2.921) (end 7.874 -2.159) (layer F.SilkS) (width 0.1524))
  (fp_line (start 7.874 -2.159) (end 7.366 -2.159) (layer F.SilkS) (width 0.1524))
  (fp_line (start 5.715 -2.159) (end 7.366 -2.159) (layer F.Fab) (width 0.1524))
  (fp_line (start 5.715 -2.159) (end 5.715 -1.651) (layer F.Fab) (width 0.1524))
  (fp_line (start 6.858 -1.651) (end 5.715 -1.651) (layer F.Fab) (width 0.1524))
  (fp_line (start 6.858 -1.651) (end 7.874 -1.651) (layer F.SilkS) (width 0.1524))
  (fp_line (start 7.874 -1.651) (end 7.874 -0.889) (layer F.SilkS) (width 0.1524))
  (fp_line (start 7.874 -0.889) (end 6.858 -0.889) (layer F.SilkS) (width 0.1524))
  (fp_line (start 5.715 -0.889) (end 6.858 -0.889) (layer F.Fab) (width 0.1524))
  (fp_line (start 5.715 -0.889) (end 5.715 -0.381) (layer F.Fab) (width 0.1524))
  (fp_line (start 7.366 -0.381) (end 5.715 -0.381) (layer F.Fab) (width 0.1524))
  (fp_line (start 7.366 -0.381) (end 7.874 -0.381) (layer F.SilkS) (width 0.1524))
  (fp_line (start 7.874 -0.381) (end 7.874 0.381) (layer F.SilkS) (width 0.1524))
  (fp_line (start 7.874 0.381) (end 7.366 0.381) (layer F.SilkS) (width 0.1524))
  (fp_line (start -7.366 0.381) (end -7.874 0.381) (layer F.SilkS) (width 0.1524))
  (fp_line (start -7.874 0.381) (end -7.874 -0.381) (layer F.SilkS) (width 0.1524))
  (fp_line (start -7.874 -0.381) (end -7.366 -0.381) (layer F.SilkS) (width 0.1524))
  (fp_line (start -5.715 -0.381) (end -7.366 -0.381) (layer F.Fab) (width 0.1524))
  (fp_line (start -5.715 -0.381) (end -5.715 -0.889) (layer F.Fab) (width 0.1524))
  (fp_line (start -6.985 -0.889) (end -5.715 -0.889) (layer F.Fab) (width 0.1524))
  (fp_line (start -6.985 -0.889) (end -7.874 -0.889) (layer F.SilkS) (width 0.1524))
  (fp_line (start -7.874 -0.889) (end -7.874 -1.651) (layer F.SilkS) (width 0.1524))
  (fp_line (start -7.874 -1.651) (end -6.985 -1.651) (layer F.SilkS) (width 0.1524))
  (fp_line (start -5.715 -1.651) (end -6.985 -1.651) (layer F.Fab) (width 0.1524))
  (fp_line (start -5.715 -1.651) (end -5.715 -2.159) (layer F.Fab) (width 0.1524))
  (fp_line (start -7.366 -2.159) (end -5.715 -2.159) (layer F.Fab) (width 0.1524))
  (fp_line (start -7.366 -2.159) (end -7.874 -2.159) (layer F.SilkS) (width 0.1524))
  (fp_line (start -7.874 -2.159) (end -7.874 -2.921) (layer F.SilkS) (width 0.1524))
  (fp_line (start -7.874 -2.921) (end -7.366 -2.921) (layer F.SilkS) (width 0.1524))
  (fp_arc (start 2.54 -2.540021) (end 2.54 -3.81) (angle -224.999323) (layer F.SilkS) (width 0.1524))
  (fp_arc (start 2.539999 -2.540051) (end 3.438 -1.642) (angle -44.999323) (layer F.Fab) (width 0.1524))
  (fp_arc (start 2.54 -2.54) (end 2.54 -3.81) (angle 90) (layer F.Fab) (width 0.1524))
  (fp_arc (start 2.54 2.539895) (end 2.54 1.27) (angle -224.99668) (layer F.SilkS) (width 0.1524))
  (fp_arc (start 2.539999 2.539948) (end 3.438 3.438) (angle -44.999323) (layer F.Fab) (width 0.1524))
  (fp_arc (start 2.54 2.54) (end 2.54 1.27) (angle 90) (layer F.Fab) (width 0.1524))
  (fp_arc (start -2.54 2.540021) (end -3.438 1.642) (angle 224.999323) (layer F.SilkS) (width 0.1524))
  (fp_arc (start -2.539999 2.540051) (end -3.81 2.54) (angle 44.999323) (layer F.Fab) (width 0.1524))
  (fp_arc (start -2.54 2.54) (end -3.81 2.54) (angle -90) (layer F.Fab) (width 0.1524))
  (fp_arc (start -2.54 -2.53992) (end -3.438 -3.438) (angle 224.997454) (layer F.SilkS) (width 0.1524))
  (fp_arc (start -2.539999 -2.539948) (end -3.81 -2.54) (angle 44.999323) (layer F.Fab) (width 0.1524))
  (fp_arc (start -2.54 -2.54) (end -3.81 -2.54) (angle -90) (layer F.Fab) (width 0.1524))
  (fp_arc (start -8.509 9.779) (end -9.144 9.779) (angle -90) (layer F.SilkS) (width 0.1524))
  (fp_line (start 9.144 9.779) (end 9.144 -9.779) (layer F.SilkS) (width 0.1524))
  (fp_line (start 8.509 10.414) (end -8.509 10.414) (layer F.SilkS) (width 0.1524))
  (fp_arc (start 8.509 9.779) (end 8.509 10.414) (angle -90) (layer F.SilkS) (width 0.1524))
  (fp_line (start 8.509 -10.414) (end -7.62 -10.414) (layer F.SilkS) (width 0.1524))
  (fp_arc (start 8.509 -9.779) (end 8.509 -10.414) (angle 90) (layer F.SilkS) (width 0.1524))
  (fp_line (start -1.27 -3.556) (end 1.27 -3.556) (layer F.SilkS) (width 0.1524))
  (fp_line (start 1.27 -3.556) (end 0 -4.826) (layer F.SilkS) (width 0.1524))
  (fp_line (start 0 -4.826) (end -1.27 -3.556) (layer F.SilkS) (width 0.1524))
  (fp_text user 32 (at -1.27 0.635) (layer F.SilkS)
    (effects (font (size 1.2065 1.2065) (thickness 0.127)) (justify left bottom))
  )
  (fp_poly (pts (xy -0.508 -1.905) (xy 0.508 -1.905) (xy 0.508 -3.81) (xy -0.508 -3.81)) (layer F.SilkS) (width 0))
  (fp_poly (pts (xy -0.889 -3.556) (xy 0.889 -3.556) (xy 0.889 -3.937) (xy -0.889 -3.937)) (layer F.SilkS) (width 0))
  (fp_poly (pts (xy -0.635 -3.937) (xy 0.635 -3.937) (xy 0.635 -4.191) (xy -0.635 -4.191)) (layer F.SilkS) (width 0))
  (fp_poly (pts (xy -0.381 -4.191) (xy 0.381 -4.191) (xy 0.381 -4.445) (xy -0.381 -4.445)) (layer F.SilkS) (width 0))
  (fp_poly (pts (xy -0.127 -4.445) (xy 0.127 -4.445) (xy 0.127 -4.699) (xy -0.127 -4.699)) (layer F.SilkS) (width 0))
  (fp_poly (pts (xy -1.143 -3.556) (xy -0.889 -3.556) (xy -0.889 -3.683) (xy -1.143 -3.683)) (layer F.SilkS) (width 0))
  (fp_poly (pts (xy -1.016 -3.683) (xy -0.889 -3.683) (xy -0.889 -3.81) (xy -1.016 -3.81)) (layer F.SilkS) (width 0))
  (fp_poly (pts (xy -0.762 -3.937) (xy -0.635 -3.937) (xy -0.635 -4.064) (xy -0.762 -4.064)) (layer F.SilkS) (width 0))
  (fp_poly (pts (xy -0.508 -4.191) (xy -0.381 -4.191) (xy -0.381 -4.318) (xy -0.508 -4.318)) (layer F.SilkS) (width 0))
  (fp_poly (pts (xy -0.254 -4.445) (xy -0.127 -4.445) (xy -0.127 -4.572) (xy -0.254 -4.572)) (layer F.SilkS) (width 0))
  (fp_poly (pts (xy 0.127 -4.445) (xy 0.254 -4.445) (xy 0.254 -4.572) (xy 0.127 -4.572)) (layer F.SilkS) (width 0))
  (fp_poly (pts (xy 0.381 -4.191) (xy 0.508 -4.191) (xy 0.508 -4.318) (xy 0.381 -4.318)) (layer F.SilkS) (width 0))
  (fp_poly (pts (xy 0.635 -3.937) (xy 0.762 -3.937) (xy 0.762 -4.064) (xy 0.635 -4.064)) (layer F.SilkS) (width 0))
  (fp_poly (pts (xy 0.889 -3.556) (xy 1.143 -3.556) (xy 1.143 -3.683) (xy 0.889 -3.683)) (layer F.SilkS) (width 0))
  (fp_poly (pts (xy 0.889 -3.683) (xy 1.016 -3.683) (xy 1.016 -3.81) (xy 0.889 -3.81)) (layer F.SilkS) (width 0))
  (pad 1 thru_hole circle (at 1.27 -5.08) (size 1.6002 1.6002) (drill 0.7) (layers *.Cu *.Mask)
    (solder_mask_margin 0.075))
  (pad 2 thru_hole circle (at -1.27 -7.62) (size 1.6002 1.6002) (drill 0.7) (layers *.Cu *.Mask)
    (solder_mask_margin 0.075))
  (pad 3 thru_hole circle (at -1.27 -5.08) (size 1.6002 1.6002) (drill 0.7) (layers *.Cu *.Mask)
    (solder_mask_margin 0.075))
  (pad 4 thru_hole circle (at -3.81 -7.62) (size 1.6002 1.6002) (drill 0.7) (layers *.Cu *.Mask)
    (solder_mask_margin 0.075))
  (pad 5 thru_hole circle (at -6.35 -5.08) (size 1.6002 1.6002) (drill 0.7) (layers *.Cu *.Mask)
    (solder_mask_margin 0.075))
  (pad 6 thru_hole circle (at -3.81 -5.08) (size 1.6002 1.6002) (drill 0.7) (layers *.Cu *.Mask)
    (solder_mask_margin 0.075))
  (pad 7 thru_hole circle (at -6.35 -2.54) (size 1.6002 1.6002) (drill 0.7) (layers *.Cu *.Mask)
    (solder_mask_margin 0.075))
  (pad 8 thru_hole circle (at -3.81 -2.54) (size 1.6002 1.6002) (drill 0.7) (layers *.Cu *.Mask)
    (solder_mask_margin 0.075))
  (pad 9 thru_hole circle (at -6.35 0) (size 1.6002 1.6002) (drill 0.7) (layers *.Cu *.Mask)
    (solder_mask_margin 0.075))
  (pad 10 thru_hole circle (at -3.81 0) (size 1.6002 1.6002) (drill 0.7) (layers *.Cu *.Mask)
    (solder_mask_margin 0.075))
  (pad 11 thru_hole circle (at -6.35 2.54) (size 1.6002 1.6002) (drill 0.7) (layers *.Cu *.Mask)
    (solder_mask_margin 0.075))
  (pad 12 thru_hole circle (at -3.81 2.54) (size 1.6002 1.6002) (drill 0.7) (layers *.Cu *.Mask)
    (solder_mask_margin 0.075))
  (pad 13 thru_hole circle (at -6.35 5.08) (size 1.6002 1.6002) (drill 0.7) (layers *.Cu *.Mask)
    (solder_mask_margin 0.075))
  (pad 14 thru_hole circle (at -3.81 7.62) (size 1.6002 1.6002) (drill 0.7) (layers *.Cu *.Mask)
    (solder_mask_margin 0.075))
  (pad 15 thru_hole circle (at -3.81 5.08) (size 1.6002 1.6002) (drill 0.7) (layers *.Cu *.Mask)
    (solder_mask_margin 0.075))
  (pad 16 thru_hole circle (at -1.27 7.62) (size 1.6002 1.6002) (drill 0.7) (layers *.Cu *.Mask)
    (solder_mask_margin 0.075))
  (pad 17 thru_hole circle (at -1.27 5.08) (size 1.6002 1.6002) (drill 0.7) (layers *.Cu *.Mask)
    (solder_mask_margin 0.075))
  (pad 18 thru_hole circle (at 1.27 7.62) (size 1.6002 1.6002) (drill 0.7) (layers *.Cu *.Mask)
    (solder_mask_margin 0.075))
  (pad 19 thru_hole circle (at 1.27 5.08) (size 1.6002 1.6002) (drill 0.7) (layers *.Cu *.Mask)
    (solder_mask_margin 0.075))
  (pad 20 thru_hole circle (at 3.81 7.62) (size 1.6002 1.6002) (drill 0.7) (layers *.Cu *.Mask)
    (solder_mask_margin 0.075))
  (pad 21 thru_hole circle (at 6.35 5.08) (size 1.6002 1.6002) (drill 0.7) (layers *.Cu *.Mask)
    (solder_mask_margin 0.075))
  (pad 22 thru_hole circle (at 3.81 5.08) (size 1.6002 1.6002) (drill 0.7) (layers *.Cu *.Mask)
    (solder_mask_margin 0.075))
  (pad 23 thru_hole circle (at 6.35 2.54) (size 1.6002 1.6002) (drill 0.7) (layers *.Cu *.Mask)
    (solder_mask_margin 0.075))
  (pad 24 thru_hole circle (at 3.81 2.54) (size 1.6002 1.6002) (drill 0.7) (layers *.Cu *.Mask)
    (solder_mask_margin 0.075))
  (pad 25 thru_hole circle (at 6.35 0) (size 1.6002 1.6002) (drill 0.7) (layers *.Cu *.Mask)
    (solder_mask_margin 0.075))
  (pad 26 thru_hole circle (at 3.81 0) (size 1.6002 1.6002) (drill 0.7) (layers *.Cu *.Mask)
    (solder_mask_margin 0.075))
  (pad 27 thru_hole circle (at 6.35 -2.54) (size 1.6002 1.6002) (drill 0.7) (layers *.Cu *.Mask)
    (solder_mask_margin 0.075))
  (pad 28 thru_hole circle (at 3.81 -2.54) (size 1.6002 1.6002) (drill 0.7) (layers *.Cu *.Mask)
    (solder_mask_margin 0.075))
  (pad 29 thru_hole circle (at 6.35 -5.08) (size 1.6002 1.6002) (drill 0.7) (layers *.Cu *.Mask)
    (solder_mask_margin 0.075))
  (pad 30 thru_hole circle (at 3.81 -7.62) (size 1.6002 1.6002) (drill 0.7) (layers *.Cu *.Mask)
    (solder_mask_margin 0.075))
  (pad 31 thru_hole circle (at 3.81 -5.08) (size 1.6002 1.6002) (drill 0.7) (layers *.Cu *.Mask)
    (solder_mask_margin 0.075))
  (pad 32 thru_hole circle (at 1.27 -7.62) (size 1.6002 1.6002) (drill 0.7) (layers *.Cu *.Mask)
    (solder_mask_margin 0.075))
)
