(module TQFP144 (layer F.Cu) (tedit 0)
  (descr "<b>Thin Quad Flat Pack</b>")
  (fp_text reference IC2 (at -2.686181 7.145891 -90) (layer F.SilkS)
    (effects (font (size 1.6891 1.6891) (thickness 0.16891)) (justify left bottom))
  )
  (fp_text value XC95288XL-TQ144 (at -7.146122 -3.230934 -315.1) (layer F.Fab)
    (effects (font (size 1.2065 1.2065) (thickness 0.12065)) (justify left bottom))
  )
  (fp_line (start -9.873 -9.873) (end 9.873 -9.873) (layer F.SilkS) (width 0.1524))
  (fp_line (start 9.873 -9.873) (end 9.873 9.873) (layer F.SilkS) (width 0.1524))
  (fp_line (start 9.873 9.873) (end -9.123 9.873) (layer F.SilkS) (width 0.1524))
  (fp_line (start -9.123 9.873) (end -9.873 9.123) (layer F.SilkS) (width 0.1524))
  (fp_line (start -9.873 9.123) (end -9.873 -9.873) (layer F.SilkS) (width 0.1524))
  (fp_circle (center -8 8) (end -7 8) (layer F.SilkS) (width 0.1524))
  (fp_poly (pts (xy -8.885 -9.8705) (xy -8.615 -9.8705) (xy -8.615 -10.873) (xy -8.885 -10.873)) (layer F.Fab) (width 0))
  (fp_poly (pts (xy -8.385 -9.8705) (xy -8.115 -9.8705) (xy -8.115 -10.873) (xy -8.385 -10.873)) (layer F.Fab) (width 0))
  (fp_poly (pts (xy -7.885 -9.8705) (xy -7.615 -9.8705) (xy -7.615 -10.873) (xy -7.885 -10.873)) (layer F.Fab) (width 0))
  (fp_poly (pts (xy -7.385 -9.8705) (xy -7.115 -9.8705) (xy -7.115 -10.873) (xy -7.385 -10.873)) (layer F.Fab) (width 0))
  (fp_poly (pts (xy -6.885 -9.8705) (xy -6.615 -9.8705) (xy -6.615 -10.873) (xy -6.885 -10.873)) (layer F.Fab) (width 0))
  (fp_poly (pts (xy -6.385 -9.8705) (xy -6.115 -9.8705) (xy -6.115 -10.873) (xy -6.385 -10.873)) (layer F.Fab) (width 0))
  (fp_poly (pts (xy -5.885 -9.8705) (xy -5.615 -9.8705) (xy -5.615 -10.873) (xy -5.885 -10.873)) (layer F.Fab) (width 0))
  (fp_poly (pts (xy -5.385 -9.8705) (xy -5.115 -9.8705) (xy -5.115 -10.873) (xy -5.385 -10.873)) (layer F.Fab) (width 0))
  (fp_poly (pts (xy -4.885 -9.8705) (xy -4.615 -9.8705) (xy -4.615 -10.873) (xy -4.885 -10.873)) (layer F.Fab) (width 0))
  (fp_poly (pts (xy -4.385 -9.8705) (xy -4.115 -9.8705) (xy -4.115 -10.873) (xy -4.385 -10.873)) (layer F.Fab) (width 0))
  (fp_poly (pts (xy -3.885 -9.8705) (xy -3.615 -9.8705) (xy -3.615 -10.873) (xy -3.885 -10.873)) (layer F.Fab) (width 0))
  (fp_poly (pts (xy -3.385 -9.8705) (xy -3.115 -9.8705) (xy -3.115 -10.873) (xy -3.385 -10.873)) (layer F.Fab) (width 0))
  (fp_poly (pts (xy -2.885 -9.8705) (xy -2.615 -9.8705) (xy -2.615 -10.873) (xy -2.885 -10.873)) (layer F.Fab) (width 0))
  (fp_poly (pts (xy -2.385 -9.8705) (xy -2.115 -9.8705) (xy -2.115 -10.873) (xy -2.385 -10.873)) (layer F.Fab) (width 0))
  (fp_poly (pts (xy -1.885 -9.8705) (xy -1.615 -9.8705) (xy -1.615 -10.873) (xy -1.885 -10.873)) (layer F.Fab) (width 0))
  (fp_poly (pts (xy -1.385 -9.8705) (xy -1.115 -9.8705) (xy -1.115 -10.873) (xy -1.385 -10.873)) (layer F.Fab) (width 0))
  (fp_poly (pts (xy -0.885 -9.8705) (xy -0.615 -9.8705) (xy -0.615 -10.873) (xy -0.885 -10.873)) (layer F.Fab) (width 0))
  (fp_poly (pts (xy -0.385 -9.8705) (xy -0.115 -9.8705) (xy -0.115 -10.873) (xy -0.385 -10.873)) (layer F.Fab) (width 0))
  (fp_poly (pts (xy 0.115 -9.8705) (xy 0.385 -9.8705) (xy 0.385 -10.873) (xy 0.115 -10.873)) (layer F.Fab) (width 0))
  (fp_poly (pts (xy 0.615 -9.8705) (xy 0.885 -9.8705) (xy 0.885 -10.873) (xy 0.615 -10.873)) (layer F.Fab) (width 0))
  (fp_poly (pts (xy 1.115 -9.8705) (xy 1.385 -9.8705) (xy 1.385 -10.873) (xy 1.115 -10.873)) (layer F.Fab) (width 0))
  (fp_poly (pts (xy 1.615 -9.8705) (xy 1.885 -9.8705) (xy 1.885 -10.873) (xy 1.615 -10.873)) (layer F.Fab) (width 0))
  (fp_poly (pts (xy 2.115 -9.8705) (xy 2.385 -9.8705) (xy 2.385 -10.873) (xy 2.115 -10.873)) (layer F.Fab) (width 0))
  (fp_poly (pts (xy 2.615 -9.8705) (xy 2.885 -9.8705) (xy 2.885 -10.873) (xy 2.615 -10.873)) (layer F.Fab) (width 0))
  (fp_poly (pts (xy 3.115 -9.8705) (xy 3.385 -9.8705) (xy 3.385 -10.873) (xy 3.115 -10.873)) (layer F.Fab) (width 0))
  (fp_poly (pts (xy 3.615 -9.8705) (xy 3.885 -9.8705) (xy 3.885 -10.873) (xy 3.615 -10.873)) (layer F.Fab) (width 0))
  (fp_poly (pts (xy 4.115 -9.8705) (xy 4.385 -9.8705) (xy 4.385 -10.873) (xy 4.115 -10.873)) (layer F.Fab) (width 0))
  (fp_poly (pts (xy 4.615 -9.8705) (xy 4.885 -9.8705) (xy 4.885 -10.873) (xy 4.615 -10.873)) (layer F.Fab) (width 0))
  (fp_poly (pts (xy 5.115 -9.8705) (xy 5.385 -9.8705) (xy 5.385 -10.873) (xy 5.115 -10.873)) (layer F.Fab) (width 0))
  (fp_poly (pts (xy 5.615 -9.8705) (xy 5.885 -9.8705) (xy 5.885 -10.873) (xy 5.615 -10.873)) (layer F.Fab) (width 0))
  (fp_poly (pts (xy 6.115 -9.8705) (xy 6.385 -9.8705) (xy 6.385 -10.873) (xy 6.115 -10.873)) (layer F.Fab) (width 0))
  (fp_poly (pts (xy 6.615 -9.8705) (xy 6.885 -9.8705) (xy 6.885 -10.873) (xy 6.615 -10.873)) (layer F.Fab) (width 0))
  (fp_poly (pts (xy 7.115 -9.8705) (xy 7.385 -9.8705) (xy 7.385 -10.873) (xy 7.115 -10.873)) (layer F.Fab) (width 0))
  (fp_poly (pts (xy 7.615 -9.8705) (xy 7.885 -9.8705) (xy 7.885 -10.873) (xy 7.615 -10.873)) (layer F.Fab) (width 0))
  (fp_poly (pts (xy 8.115 -9.8705) (xy 8.385 -9.8705) (xy 8.385 -10.873) (xy 8.115 -10.873)) (layer F.Fab) (width 0))
  (fp_poly (pts (xy 8.615 -9.8705) (xy 8.885 -9.8705) (xy 8.885 -10.873) (xy 8.615 -10.873)) (layer F.Fab) (width 0))
  (fp_poly (pts (xy -8.885 10.8755) (xy -8.615 10.8755) (xy -8.615 9.873) (xy -8.885 9.873)) (layer F.Fab) (width 0))
  (fp_poly (pts (xy -8.385 10.8755) (xy -8.115 10.8755) (xy -8.115 9.873) (xy -8.385 9.873)) (layer F.Fab) (width 0))
  (fp_poly (pts (xy -7.885 10.8755) (xy -7.615 10.8755) (xy -7.615 9.873) (xy -7.885 9.873)) (layer F.Fab) (width 0))
  (fp_poly (pts (xy -7.385 10.8755) (xy -7.115 10.8755) (xy -7.115 9.873) (xy -7.385 9.873)) (layer F.Fab) (width 0))
  (fp_poly (pts (xy -6.885 10.8755) (xy -6.615 10.8755) (xy -6.615 9.873) (xy -6.885 9.873)) (layer F.Fab) (width 0))
  (fp_poly (pts (xy -6.385 10.8755) (xy -6.115 10.8755) (xy -6.115 9.873) (xy -6.385 9.873)) (layer F.Fab) (width 0))
  (fp_poly (pts (xy -5.885 10.8755) (xy -5.615 10.8755) (xy -5.615 9.873) (xy -5.885 9.873)) (layer F.Fab) (width 0))
  (fp_poly (pts (xy -5.385 10.8755) (xy -5.115 10.8755) (xy -5.115 9.873) (xy -5.385 9.873)) (layer F.Fab) (width 0))
  (fp_poly (pts (xy -4.885 10.8755) (xy -4.615 10.8755) (xy -4.615 9.873) (xy -4.885 9.873)) (layer F.Fab) (width 0))
  (fp_poly (pts (xy -4.385 10.8755) (xy -4.115 10.8755) (xy -4.115 9.873) (xy -4.385 9.873)) (layer F.Fab) (width 0))
  (fp_poly (pts (xy -3.885 10.8755) (xy -3.615 10.8755) (xy -3.615 9.873) (xy -3.885 9.873)) (layer F.Fab) (width 0))
  (fp_poly (pts (xy -3.385 10.8755) (xy -3.115 10.8755) (xy -3.115 9.873) (xy -3.385 9.873)) (layer F.Fab) (width 0))
  (fp_poly (pts (xy -2.885 10.8755) (xy -2.615 10.8755) (xy -2.615 9.873) (xy -2.885 9.873)) (layer F.Fab) (width 0))
  (fp_poly (pts (xy -2.385 10.8755) (xy -2.115 10.8755) (xy -2.115 9.873) (xy -2.385 9.873)) (layer F.Fab) (width 0))
  (fp_poly (pts (xy -1.885 10.8755) (xy -1.615 10.8755) (xy -1.615 9.873) (xy -1.885 9.873)) (layer F.Fab) (width 0))
  (fp_poly (pts (xy -1.385 10.8755) (xy -1.115 10.8755) (xy -1.115 9.873) (xy -1.385 9.873)) (layer F.Fab) (width 0))
  (fp_poly (pts (xy -0.885 10.8755) (xy -0.615 10.8755) (xy -0.615 9.873) (xy -0.885 9.873)) (layer F.Fab) (width 0))
  (fp_poly (pts (xy -0.385 10.8755) (xy -0.115 10.8755) (xy -0.115 9.873) (xy -0.385 9.873)) (layer F.Fab) (width 0))
  (fp_poly (pts (xy 0.115 10.8755) (xy 0.385 10.8755) (xy 0.385 9.873) (xy 0.115 9.873)) (layer F.Fab) (width 0))
  (fp_poly (pts (xy 0.615 10.8755) (xy 0.885 10.8755) (xy 0.885 9.873) (xy 0.615 9.873)) (layer F.Fab) (width 0))
  (fp_poly (pts (xy 1.115 10.8755) (xy 1.385 10.8755) (xy 1.385 9.873) (xy 1.115 9.873)) (layer F.Fab) (width 0))
  (fp_poly (pts (xy 1.615 10.8755) (xy 1.885 10.8755) (xy 1.885 9.873) (xy 1.615 9.873)) (layer F.Fab) (width 0))
  (fp_poly (pts (xy 2.115 10.8755) (xy 2.385 10.8755) (xy 2.385 9.873) (xy 2.115 9.873)) (layer F.Fab) (width 0))
  (fp_poly (pts (xy 2.615 10.8755) (xy 2.885 10.8755) (xy 2.885 9.873) (xy 2.615 9.873)) (layer F.Fab) (width 0))
  (fp_poly (pts (xy 3.115 10.8755) (xy 3.385 10.8755) (xy 3.385 9.873) (xy 3.115 9.873)) (layer F.Fab) (width 0))
  (fp_poly (pts (xy 3.615 10.8755) (xy 3.885 10.8755) (xy 3.885 9.873) (xy 3.615 9.873)) (layer F.Fab) (width 0))
  (fp_poly (pts (xy 4.115 10.8755) (xy 4.385 10.8755) (xy 4.385 9.873) (xy 4.115 9.873)) (layer F.Fab) (width 0))
  (fp_poly (pts (xy 4.615 10.8755) (xy 4.885 10.8755) (xy 4.885 9.873) (xy 4.615 9.873)) (layer F.Fab) (width 0))
  (fp_poly (pts (xy 5.115 10.8755) (xy 5.385 10.8755) (xy 5.385 9.873) (xy 5.115 9.873)) (layer F.Fab) (width 0))
  (fp_poly (pts (xy 5.615 10.8755) (xy 5.885 10.8755) (xy 5.885 9.873) (xy 5.615 9.873)) (layer F.Fab) (width 0))
  (fp_poly (pts (xy 6.115 10.8755) (xy 6.385 10.8755) (xy 6.385 9.873) (xy 6.115 9.873)) (layer F.Fab) (width 0))
  (fp_poly (pts (xy 6.615 10.8755) (xy 6.885 10.8755) (xy 6.885 9.873) (xy 6.615 9.873)) (layer F.Fab) (width 0))
  (fp_poly (pts (xy 7.115 10.8755) (xy 7.385 10.8755) (xy 7.385 9.873) (xy 7.115 9.873)) (layer F.Fab) (width 0))
  (fp_poly (pts (xy 7.615 10.8755) (xy 7.885 10.8755) (xy 7.885 9.873) (xy 7.615 9.873)) (layer F.Fab) (width 0))
  (fp_poly (pts (xy 8.115 10.8755) (xy 8.385 10.8755) (xy 8.385 9.873) (xy 8.115 9.873)) (layer F.Fab) (width 0))
  (fp_poly (pts (xy 8.615 10.8755) (xy 8.885 10.8755) (xy 8.885 9.873) (xy 8.615 9.873)) (layer F.Fab) (width 0))
  (fp_poly (pts (xy 9.873 8.885) (xy 10.8755 8.885) (xy 10.8755 8.615) (xy 9.873 8.615)) (layer F.Fab) (width 0))
  (fp_poly (pts (xy 9.873 8.385) (xy 10.8755 8.385) (xy 10.8755 8.115) (xy 9.873 8.115)) (layer F.Fab) (width 0))
  (fp_poly (pts (xy 9.873 7.885) (xy 10.8755 7.885) (xy 10.8755 7.615) (xy 9.873 7.615)) (layer F.Fab) (width 0))
  (fp_poly (pts (xy 9.873 7.385) (xy 10.8755 7.385) (xy 10.8755 7.115) (xy 9.873 7.115)) (layer F.Fab) (width 0))
  (fp_poly (pts (xy 9.873 6.885) (xy 10.8755 6.885) (xy 10.8755 6.615) (xy 9.873 6.615)) (layer F.Fab) (width 0))
  (fp_poly (pts (xy 9.873 6.385) (xy 10.8755 6.385) (xy 10.8755 6.115) (xy 9.873 6.115)) (layer F.Fab) (width 0))
  (fp_poly (pts (xy 9.873 5.885) (xy 10.8755 5.885) (xy 10.8755 5.615) (xy 9.873 5.615)) (layer F.Fab) (width 0))
  (fp_poly (pts (xy 9.873 5.385) (xy 10.8755 5.385) (xy 10.8755 5.115) (xy 9.873 5.115)) (layer F.Fab) (width 0))
  (fp_poly (pts (xy 9.873 4.885) (xy 10.8755 4.885) (xy 10.8755 4.615) (xy 9.873 4.615)) (layer F.Fab) (width 0))
  (fp_poly (pts (xy 9.873 4.385) (xy 10.8755 4.385) (xy 10.8755 4.115) (xy 9.873 4.115)) (layer F.Fab) (width 0))
  (fp_poly (pts (xy 9.873 3.885) (xy 10.8755 3.885) (xy 10.8755 3.615) (xy 9.873 3.615)) (layer F.Fab) (width 0))
  (fp_poly (pts (xy 9.873 3.385) (xy 10.8755 3.385) (xy 10.8755 3.115) (xy 9.873 3.115)) (layer F.Fab) (width 0))
  (fp_poly (pts (xy 9.873 2.885) (xy 10.8755 2.885) (xy 10.8755 2.615) (xy 9.873 2.615)) (layer F.Fab) (width 0))
  (fp_poly (pts (xy 9.873 2.385) (xy 10.8755 2.385) (xy 10.8755 2.115) (xy 9.873 2.115)) (layer F.Fab) (width 0))
  (fp_poly (pts (xy 9.873 1.885) (xy 10.8755 1.885) (xy 10.8755 1.615) (xy 9.873 1.615)) (layer F.Fab) (width 0))
  (fp_poly (pts (xy 9.873 1.385) (xy 10.8755 1.385) (xy 10.8755 1.115) (xy 9.873 1.115)) (layer F.Fab) (width 0))
  (fp_poly (pts (xy 9.873 0.885) (xy 10.8755 0.885) (xy 10.8755 0.615) (xy 9.873 0.615)) (layer F.Fab) (width 0))
  (fp_poly (pts (xy 9.873 0.385) (xy 10.8755 0.385) (xy 10.8755 0.115) (xy 9.873 0.115)) (layer F.Fab) (width 0))
  (fp_poly (pts (xy 9.873 -0.115) (xy 10.8755 -0.115) (xy 10.8755 -0.385) (xy 9.873 -0.385)) (layer F.Fab) (width 0))
  (fp_poly (pts (xy 9.873 -0.615) (xy 10.8755 -0.615) (xy 10.8755 -0.885) (xy 9.873 -0.885)) (layer F.Fab) (width 0))
  (fp_poly (pts (xy 9.873 -1.115) (xy 10.8755 -1.115) (xy 10.8755 -1.385) (xy 9.873 -1.385)) (layer F.Fab) (width 0))
  (fp_poly (pts (xy 9.873 -1.615) (xy 10.8755 -1.615) (xy 10.8755 -1.885) (xy 9.873 -1.885)) (layer F.Fab) (width 0))
  (fp_poly (pts (xy 9.873 -2.115) (xy 10.8755 -2.115) (xy 10.8755 -2.385) (xy 9.873 -2.385)) (layer F.Fab) (width 0))
  (fp_poly (pts (xy 9.873 -2.615) (xy 10.8755 -2.615) (xy 10.8755 -2.885) (xy 9.873 -2.885)) (layer F.Fab) (width 0))
  (fp_poly (pts (xy 9.873 -3.115) (xy 10.8755 -3.115) (xy 10.8755 -3.385) (xy 9.873 -3.385)) (layer F.Fab) (width 0))
  (fp_poly (pts (xy 9.873 -3.615) (xy 10.8755 -3.615) (xy 10.8755 -3.885) (xy 9.873 -3.885)) (layer F.Fab) (width 0))
  (fp_poly (pts (xy 9.873 -4.115) (xy 10.8755 -4.115) (xy 10.8755 -4.385) (xy 9.873 -4.385)) (layer F.Fab) (width 0))
  (fp_poly (pts (xy 9.873 -4.615) (xy 10.8755 -4.615) (xy 10.8755 -4.885) (xy 9.873 -4.885)) (layer F.Fab) (width 0))
  (fp_poly (pts (xy 9.873 -5.115) (xy 10.8755 -5.115) (xy 10.8755 -5.385) (xy 9.873 -5.385)) (layer F.Fab) (width 0))
  (fp_poly (pts (xy 9.873 -5.615) (xy 10.8755 -5.615) (xy 10.8755 -5.885) (xy 9.873 -5.885)) (layer F.Fab) (width 0))
  (fp_poly (pts (xy 9.873 -6.115) (xy 10.8755 -6.115) (xy 10.8755 -6.385) (xy 9.873 -6.385)) (layer F.Fab) (width 0))
  (fp_poly (pts (xy 9.873 -6.615) (xy 10.8755 -6.615) (xy 10.8755 -6.885) (xy 9.873 -6.885)) (layer F.Fab) (width 0))
  (fp_poly (pts (xy 9.873 -7.115) (xy 10.8755 -7.115) (xy 10.8755 -7.385) (xy 9.873 -7.385)) (layer F.Fab) (width 0))
  (fp_poly (pts (xy 9.873 -7.615) (xy 10.8755 -7.615) (xy 10.8755 -7.885) (xy 9.873 -7.885)) (layer F.Fab) (width 0))
  (fp_poly (pts (xy 9.873 -8.115) (xy 10.8755 -8.115) (xy 10.8755 -8.385) (xy 9.873 -8.385)) (layer F.Fab) (width 0))
  (fp_poly (pts (xy 9.873 -8.615) (xy 10.8755 -8.615) (xy 10.8755 -8.885) (xy 9.873 -8.885)) (layer F.Fab) (width 0))
  (fp_poly (pts (xy -10.873 8.885) (xy -9.8705 8.885) (xy -9.8705 8.615) (xy -10.873 8.615)) (layer F.Fab) (width 0))
  (fp_poly (pts (xy -10.873 8.385) (xy -9.8705 8.385) (xy -9.8705 8.115) (xy -10.873 8.115)) (layer F.Fab) (width 0))
  (fp_poly (pts (xy -10.873 7.885) (xy -9.8705 7.885) (xy -9.8705 7.615) (xy -10.873 7.615)) (layer F.Fab) (width 0))
  (fp_poly (pts (xy -10.873 7.385) (xy -9.8705 7.385) (xy -9.8705 7.115) (xy -10.873 7.115)) (layer F.Fab) (width 0))
  (fp_poly (pts (xy -10.873 6.885) (xy -9.8705 6.885) (xy -9.8705 6.615) (xy -10.873 6.615)) (layer F.Fab) (width 0))
  (fp_poly (pts (xy -10.873 6.385) (xy -9.8705 6.385) (xy -9.8705 6.115) (xy -10.873 6.115)) (layer F.Fab) (width 0))
  (fp_poly (pts (xy -10.873 5.885) (xy -9.8705 5.885) (xy -9.8705 5.615) (xy -10.873 5.615)) (layer F.Fab) (width 0))
  (fp_poly (pts (xy -10.873 5.385) (xy -9.8705 5.385) (xy -9.8705 5.115) (xy -10.873 5.115)) (layer F.Fab) (width 0))
  (fp_poly (pts (xy -10.873 4.885) (xy -9.8705 4.885) (xy -9.8705 4.615) (xy -10.873 4.615)) (layer F.Fab) (width 0))
  (fp_poly (pts (xy -10.873 4.385) (xy -9.8705 4.385) (xy -9.8705 4.115) (xy -10.873 4.115)) (layer F.Fab) (width 0))
  (fp_poly (pts (xy -10.873 3.885) (xy -9.8705 3.885) (xy -9.8705 3.615) (xy -10.873 3.615)) (layer F.Fab) (width 0))
  (fp_poly (pts (xy -10.873 3.385) (xy -9.8705 3.385) (xy -9.8705 3.115) (xy -10.873 3.115)) (layer F.Fab) (width 0))
  (fp_poly (pts (xy -10.873 2.885) (xy -9.8705 2.885) (xy -9.8705 2.615) (xy -10.873 2.615)) (layer F.Fab) (width 0))
  (fp_poly (pts (xy -10.873 2.385) (xy -9.8705 2.385) (xy -9.8705 2.115) (xy -10.873 2.115)) (layer F.Fab) (width 0))
  (fp_poly (pts (xy -10.873 1.885) (xy -9.8705 1.885) (xy -9.8705 1.615) (xy -10.873 1.615)) (layer F.Fab) (width 0))
  (fp_poly (pts (xy -10.873 1.385) (xy -9.8705 1.385) (xy -9.8705 1.115) (xy -10.873 1.115)) (layer F.Fab) (width 0))
  (fp_poly (pts (xy -10.873 0.885) (xy -9.8705 0.885) (xy -9.8705 0.615) (xy -10.873 0.615)) (layer F.Fab) (width 0))
  (fp_poly (pts (xy -10.873 0.385) (xy -9.8705 0.385) (xy -9.8705 0.115) (xy -10.873 0.115)) (layer F.Fab) (width 0))
  (fp_poly (pts (xy -10.873 -0.115) (xy -9.8705 -0.115) (xy -9.8705 -0.385) (xy -10.873 -0.385)) (layer F.Fab) (width 0))
  (fp_poly (pts (xy -10.873 -0.615) (xy -9.8705 -0.615) (xy -9.8705 -0.885) (xy -10.873 -0.885)) (layer F.Fab) (width 0))
  (fp_poly (pts (xy -10.873 -1.115) (xy -9.8705 -1.115) (xy -9.8705 -1.385) (xy -10.873 -1.385)) (layer F.Fab) (width 0))
  (fp_poly (pts (xy -10.873 -1.615) (xy -9.8705 -1.615) (xy -9.8705 -1.885) (xy -10.873 -1.885)) (layer F.Fab) (width 0))
  (fp_poly (pts (xy -10.873 -2.115) (xy -9.8705 -2.115) (xy -9.8705 -2.385) (xy -10.873 -2.385)) (layer F.Fab) (width 0))
  (fp_poly (pts (xy -10.873 -2.615) (xy -9.8705 -2.615) (xy -9.8705 -2.885) (xy -10.873 -2.885)) (layer F.Fab) (width 0))
  (fp_poly (pts (xy -10.873 -3.115) (xy -9.8705 -3.115) (xy -9.8705 -3.385) (xy -10.873 -3.385)) (layer F.Fab) (width 0))
  (fp_poly (pts (xy -10.873 -3.615) (xy -9.8705 -3.615) (xy -9.8705 -3.885) (xy -10.873 -3.885)) (layer F.Fab) (width 0))
  (fp_poly (pts (xy -10.873 -4.115) (xy -9.8705 -4.115) (xy -9.8705 -4.385) (xy -10.873 -4.385)) (layer F.Fab) (width 0))
  (fp_poly (pts (xy -10.873 -4.615) (xy -9.8705 -4.615) (xy -9.8705 -4.885) (xy -10.873 -4.885)) (layer F.Fab) (width 0))
  (fp_poly (pts (xy -10.873 -5.115) (xy -9.8705 -5.115) (xy -9.8705 -5.385) (xy -10.873 -5.385)) (layer F.Fab) (width 0))
  (fp_poly (pts (xy -10.873 -5.615) (xy -9.8705 -5.615) (xy -9.8705 -5.885) (xy -10.873 -5.885)) (layer F.Fab) (width 0))
  (fp_poly (pts (xy -10.873 -6.115) (xy -9.8705 -6.115) (xy -9.8705 -6.385) (xy -10.873 -6.385)) (layer F.Fab) (width 0))
  (fp_poly (pts (xy -10.873 -6.615) (xy -9.8705 -6.615) (xy -9.8705 -6.885) (xy -10.873 -6.885)) (layer F.Fab) (width 0))
  (fp_poly (pts (xy -10.873 -7.115) (xy -9.8705 -7.115) (xy -9.8705 -7.385) (xy -10.873 -7.385)) (layer F.Fab) (width 0))
  (fp_poly (pts (xy -10.873 -7.615) (xy -9.8705 -7.615) (xy -9.8705 -7.885) (xy -10.873 -7.885)) (layer F.Fab) (width 0))
  (fp_poly (pts (xy -10.873 -8.115) (xy -9.8705 -8.115) (xy -9.8705 -8.385) (xy -10.873 -8.385)) (layer F.Fab) (width 0))
  (fp_poly (pts (xy -10.873 -8.615) (xy -9.8705 -8.615) (xy -9.8705 -8.885) (xy -10.873 -8.885)) (layer F.Fab) (width 0))
  (pad 108 smd rect (at -8.75 -10.75) (size 0.27 1.5) (layers F.Cu F.Paste F.Mask)
    (solder_mask_margin 0.075))
  (pad 107 smd rect (at -8.25 -10.75) (size 0.27 1.5) (layers F.Cu F.Paste F.Mask)
    (solder_mask_margin 0.075))
  (pad 106 smd rect (at -7.75 -10.75) (size 0.27 1.5) (layers F.Cu F.Paste F.Mask)
    (solder_mask_margin 0.075))
  (pad 105 smd rect (at -7.25 -10.75) (size 0.27 1.5) (layers F.Cu F.Paste F.Mask)
    (solder_mask_margin 0.075))
  (pad 104 smd rect (at -6.75 -10.75) (size 0.27 1.5) (layers F.Cu F.Paste F.Mask)
    (solder_mask_margin 0.075))
  (pad 103 smd rect (at -6.25 -10.75) (size 0.27 1.5) (layers F.Cu F.Paste F.Mask)
    (solder_mask_margin 0.075))
  (pad 102 smd rect (at -5.75 -10.75) (size 0.27 1.5) (layers F.Cu F.Paste F.Mask)
    (solder_mask_margin 0.075))
  (pad 101 smd rect (at -5.25 -10.75) (size 0.27 1.5) (layers F.Cu F.Paste F.Mask)
    (solder_mask_margin 0.075))
  (pad 100 smd rect (at -4.75 -10.75) (size 0.27 1.5) (layers F.Cu F.Paste F.Mask)
    (solder_mask_margin 0.075))
  (pad 99 smd rect (at -4.25 -10.75) (size 0.27 1.5) (layers F.Cu F.Paste F.Mask)
    (solder_mask_margin 0.075))
  (pad 98 smd rect (at -3.75 -10.75) (size 0.27 1.5) (layers F.Cu F.Paste F.Mask)
    (solder_mask_margin 0.075))
  (pad 97 smd rect (at -3.25 -10.75) (size 0.27 1.5) (layers F.Cu F.Paste F.Mask)
    (solder_mask_margin 0.075))
  (pad 96 smd rect (at -2.75 -10.75) (size 0.27 1.5) (layers F.Cu F.Paste F.Mask)
    (solder_mask_margin 0.075))
  (pad 95 smd rect (at -2.25 -10.75) (size 0.27 1.5) (layers F.Cu F.Paste F.Mask)
    (solder_mask_margin 0.075))
  (pad 94 smd rect (at -1.75 -10.75) (size 0.27 1.5) (layers F.Cu F.Paste F.Mask)
    (solder_mask_margin 0.075))
  (pad 93 smd rect (at -1.25 -10.75) (size 0.27 1.5) (layers F.Cu F.Paste F.Mask)
    (solder_mask_margin 0.075))
  (pad 92 smd rect (at -0.75 -10.75) (size 0.27 1.5) (layers F.Cu F.Paste F.Mask)
    (solder_mask_margin 0.075))
  (pad 91 smd rect (at -0.25 -10.75) (size 0.27 1.5) (layers F.Cu F.Paste F.Mask)
    (solder_mask_margin 0.075))
  (pad 90 smd rect (at 0.25 -10.75) (size 0.27 1.5) (layers F.Cu F.Paste F.Mask)
    (solder_mask_margin 0.075))
  (pad 89 smd rect (at 0.75 -10.75) (size 0.27 1.5) (layers F.Cu F.Paste F.Mask)
    (solder_mask_margin 0.075))
  (pad 88 smd rect (at 1.25 -10.75) (size 0.27 1.5) (layers F.Cu F.Paste F.Mask)
    (solder_mask_margin 0.075))
  (pad 87 smd rect (at 1.75 -10.75) (size 0.27 1.5) (layers F.Cu F.Paste F.Mask)
    (solder_mask_margin 0.075))
  (pad 86 smd rect (at 2.25 -10.75) (size 0.27 1.5) (layers F.Cu F.Paste F.Mask)
    (solder_mask_margin 0.075))
  (pad 85 smd rect (at 2.75 -10.75) (size 0.27 1.5) (layers F.Cu F.Paste F.Mask)
    (solder_mask_margin 0.075))
  (pad 84 smd rect (at 3.25 -10.75) (size 0.27 1.5) (layers F.Cu F.Paste F.Mask)
    (solder_mask_margin 0.075))
  (pad 83 smd rect (at 3.75 -10.75) (size 0.27 1.5) (layers F.Cu F.Paste F.Mask)
    (solder_mask_margin 0.075))
  (pad 82 smd rect (at 4.25 -10.75) (size 0.27 1.5) (layers F.Cu F.Paste F.Mask)
    (solder_mask_margin 0.075))
  (pad 81 smd rect (at 4.75 -10.75) (size 0.27 1.5) (layers F.Cu F.Paste F.Mask)
    (solder_mask_margin 0.075))
  (pad 80 smd rect (at 5.25 -10.75) (size 0.27 1.5) (layers F.Cu F.Paste F.Mask)
    (solder_mask_margin 0.075))
  (pad 79 smd rect (at 5.75 -10.75) (size 0.27 1.5) (layers F.Cu F.Paste F.Mask)
    (solder_mask_margin 0.075))
  (pad 78 smd rect (at 6.25 -10.75) (size 0.27 1.5) (layers F.Cu F.Paste F.Mask)
    (solder_mask_margin 0.075))
  (pad 77 smd rect (at 6.75 -10.75) (size 0.27 1.5) (layers F.Cu F.Paste F.Mask)
    (solder_mask_margin 0.075))
  (pad 76 smd rect (at 7.25 -10.75) (size 0.27 1.5) (layers F.Cu F.Paste F.Mask)
    (solder_mask_margin 0.075))
  (pad 75 smd rect (at 7.75 -10.75) (size 0.27 1.5) (layers F.Cu F.Paste F.Mask)
    (solder_mask_margin 0.075))
  (pad 74 smd rect (at 8.25 -10.75) (size 0.27 1.5) (layers F.Cu F.Paste F.Mask)
    (solder_mask_margin 0.075))
  (pad 73 smd rect (at 8.75 -10.75) (size 0.27 1.5) (layers F.Cu F.Paste F.Mask)
    (solder_mask_margin 0.075))
  (pad 37 smd rect (at 10.75 8.75) (size 1.5 0.27) (layers F.Cu F.Paste F.Mask)
    (solder_mask_margin 0.075))
  (pad 38 smd rect (at 10.75 8.25) (size 1.5 0.27) (layers F.Cu F.Paste F.Mask)
    (solder_mask_margin 0.075))
  (pad 39 smd rect (at 10.75 7.75) (size 1.5 0.27) (layers F.Cu F.Paste F.Mask)
    (solder_mask_margin 0.075))
  (pad 40 smd rect (at 10.75 7.25) (size 1.5 0.27) (layers F.Cu F.Paste F.Mask)
    (solder_mask_margin 0.075))
  (pad 41 smd rect (at 10.75 6.75) (size 1.5 0.27) (layers F.Cu F.Paste F.Mask)
    (solder_mask_margin 0.075))
  (pad 42 smd rect (at 10.75 6.25) (size 1.5 0.27) (layers F.Cu F.Paste F.Mask)
    (solder_mask_margin 0.075))
  (pad 43 smd rect (at 10.75 5.75) (size 1.5 0.27) (layers F.Cu F.Paste F.Mask)
    (solder_mask_margin 0.075))
  (pad 44 smd rect (at 10.75 5.25) (size 1.5 0.27) (layers F.Cu F.Paste F.Mask)
    (solder_mask_margin 0.075))
  (pad 45 smd rect (at 10.75 4.75) (size 1.5 0.27) (layers F.Cu F.Paste F.Mask)
    (solder_mask_margin 0.075))
  (pad 46 smd rect (at 10.75 4.25) (size 1.5 0.27) (layers F.Cu F.Paste F.Mask)
    (solder_mask_margin 0.075))
  (pad 47 smd rect (at 10.75 3.75) (size 1.5 0.27) (layers F.Cu F.Paste F.Mask)
    (solder_mask_margin 0.075))
  (pad 48 smd rect (at 10.75 3.25) (size 1.5 0.27) (layers F.Cu F.Paste F.Mask)
    (solder_mask_margin 0.075))
  (pad 49 smd rect (at 10.75 2.75) (size 1.5 0.27) (layers F.Cu F.Paste F.Mask)
    (solder_mask_margin 0.075))
  (pad 50 smd rect (at 10.75 2.25) (size 1.5 0.27) (layers F.Cu F.Paste F.Mask)
    (solder_mask_margin 0.075))
  (pad 51 smd rect (at 10.75 1.75) (size 1.5 0.27) (layers F.Cu F.Paste F.Mask)
    (solder_mask_margin 0.075))
  (pad 52 smd rect (at 10.75 1.25) (size 1.5 0.27) (layers F.Cu F.Paste F.Mask)
    (solder_mask_margin 0.075))
  (pad 53 smd rect (at 10.75 0.75) (size 1.5 0.27) (layers F.Cu F.Paste F.Mask)
    (solder_mask_margin 0.075))
  (pad 54 smd rect (at 10.75 0.25) (size 1.5 0.27) (layers F.Cu F.Paste F.Mask)
    (solder_mask_margin 0.075))
  (pad 55 smd rect (at 10.75 -0.25) (size 1.5 0.27) (layers F.Cu F.Paste F.Mask)
    (solder_mask_margin 0.075))
  (pad 56 smd rect (at 10.75 -0.75) (size 1.5 0.27) (layers F.Cu F.Paste F.Mask)
    (solder_mask_margin 0.075))
  (pad 57 smd rect (at 10.75 -1.25) (size 1.5 0.27) (layers F.Cu F.Paste F.Mask)
    (solder_mask_margin 0.075))
  (pad 58 smd rect (at 10.75 -1.75) (size 1.5 0.27) (layers F.Cu F.Paste F.Mask)
    (solder_mask_margin 0.075))
  (pad 59 smd rect (at 10.75 -2.25) (size 1.5 0.27) (layers F.Cu F.Paste F.Mask)
    (solder_mask_margin 0.075))
  (pad 60 smd rect (at 10.75 -2.75) (size 1.5 0.27) (layers F.Cu F.Paste F.Mask)
    (solder_mask_margin 0.075))
  (pad 61 smd rect (at 10.75 -3.25) (size 1.5 0.27) (layers F.Cu F.Paste F.Mask)
    (solder_mask_margin 0.075))
  (pad 62 smd rect (at 10.75 -3.75) (size 1.5 0.27) (layers F.Cu F.Paste F.Mask)
    (solder_mask_margin 0.075))
  (pad 63 smd rect (at 10.75 -4.25) (size 1.5 0.27) (layers F.Cu F.Paste F.Mask)
    (solder_mask_margin 0.075))
  (pad 64 smd rect (at 10.75 -4.75) (size 1.5 0.27) (layers F.Cu F.Paste F.Mask)
    (solder_mask_margin 0.075))
  (pad 65 smd rect (at 10.75 -5.25) (size 1.5 0.27) (layers F.Cu F.Paste F.Mask)
    (solder_mask_margin 0.075))
  (pad 66 smd rect (at 10.75 -5.75) (size 1.5 0.27) (layers F.Cu F.Paste F.Mask)
    (solder_mask_margin 0.075))
  (pad 67 smd rect (at 10.75 -6.25) (size 1.5 0.27) (layers F.Cu F.Paste F.Mask)
    (solder_mask_margin 0.075))
  (pad 68 smd rect (at 10.75 -6.75) (size 1.5 0.27) (layers F.Cu F.Paste F.Mask)
    (solder_mask_margin 0.075))
  (pad 69 smd rect (at 10.75 -7.25) (size 1.5 0.27) (layers F.Cu F.Paste F.Mask)
    (solder_mask_margin 0.075))
  (pad 70 smd rect (at 10.75 -7.75) (size 1.5 0.27) (layers F.Cu F.Paste F.Mask)
    (solder_mask_margin 0.075))
  (pad 71 smd rect (at 10.75 -8.25) (size 1.5 0.27) (layers F.Cu F.Paste F.Mask)
    (solder_mask_margin 0.075))
  (pad 72 smd rect (at 10.75 -8.75) (size 1.5 0.27) (layers F.Cu F.Paste F.Mask)
    (solder_mask_margin 0.075))
  (pad 144 smd rect (at -10.75 8.75) (size 1.5 0.27) (layers F.Cu F.Paste F.Mask)
    (solder_mask_margin 0.075))
  (pad 143 smd rect (at -10.75 8.25) (size 1.5 0.27) (layers F.Cu F.Paste F.Mask)
    (solder_mask_margin 0.075))
  (pad 142 smd rect (at -10.75 7.75) (size 1.5 0.27) (layers F.Cu F.Paste F.Mask)
    (solder_mask_margin 0.075))
  (pad 141 smd rect (at -10.75 7.25) (size 1.5 0.27) (layers F.Cu F.Paste F.Mask)
    (solder_mask_margin 0.075))
  (pad 140 smd rect (at -10.75 6.75) (size 1.5 0.27) (layers F.Cu F.Paste F.Mask)
    (solder_mask_margin 0.075))
  (pad 139 smd rect (at -10.75 6.25) (size 1.5 0.27) (layers F.Cu F.Paste F.Mask)
    (solder_mask_margin 0.075))
  (pad 138 smd rect (at -10.75 5.75) (size 1.5 0.27) (layers F.Cu F.Paste F.Mask)
    (solder_mask_margin 0.075))
  (pad 137 smd rect (at -10.75 5.25) (size 1.5 0.27) (layers F.Cu F.Paste F.Mask)
    (solder_mask_margin 0.075))
  (pad 136 smd rect (at -10.75 4.75) (size 1.5 0.27) (layers F.Cu F.Paste F.Mask)
    (solder_mask_margin 0.075))
  (pad 135 smd rect (at -10.75 4.25) (size 1.5 0.27) (layers F.Cu F.Paste F.Mask)
    (solder_mask_margin 0.075))
  (pad 134 smd rect (at -10.75 3.75) (size 1.5 0.27) (layers F.Cu F.Paste F.Mask)
    (solder_mask_margin 0.075))
  (pad 133 smd rect (at -10.75 3.25) (size 1.5 0.27) (layers F.Cu F.Paste F.Mask)
    (solder_mask_margin 0.075))
  (pad 132 smd rect (at -10.75 2.75) (size 1.5 0.27) (layers F.Cu F.Paste F.Mask)
    (solder_mask_margin 0.075))
  (pad 131 smd rect (at -10.75 2.25) (size 1.5 0.27) (layers F.Cu F.Paste F.Mask)
    (solder_mask_margin 0.075))
  (pad 130 smd rect (at -10.75 1.75) (size 1.5 0.27) (layers F.Cu F.Paste F.Mask)
    (solder_mask_margin 0.075))
  (pad 129 smd rect (at -10.75 1.25) (size 1.5 0.27) (layers F.Cu F.Paste F.Mask)
    (solder_mask_margin 0.075))
  (pad 128 smd rect (at -10.75 0.75) (size 1.5 0.27) (layers F.Cu F.Paste F.Mask)
    (solder_mask_margin 0.075))
  (pad 127 smd rect (at -10.75 0.25) (size 1.5 0.27) (layers F.Cu F.Paste F.Mask)
    (solder_mask_margin 0.075))
  (pad 126 smd rect (at -10.75 -0.25) (size 1.5 0.27) (layers F.Cu F.Paste F.Mask)
    (solder_mask_margin 0.075))
  (pad 125 smd rect (at -10.75 -0.75) (size 1.5 0.27) (layers F.Cu F.Paste F.Mask)
    (solder_mask_margin 0.075))
  (pad 124 smd rect (at -10.75 -1.25) (size 1.5 0.27) (layers F.Cu F.Paste F.Mask)
    (solder_mask_margin 0.075))
  (pad 123 smd rect (at -10.75 -1.75) (size 1.5 0.27) (layers F.Cu F.Paste F.Mask)
    (solder_mask_margin 0.075))
  (pad 122 smd rect (at -10.75 -2.25) (size 1.5 0.27) (layers F.Cu F.Paste F.Mask)
    (solder_mask_margin 0.075))
  (pad 121 smd rect (at -10.75 -2.75) (size 1.5 0.27) (layers F.Cu F.Paste F.Mask)
    (solder_mask_margin 0.075))
  (pad 120 smd rect (at -10.75 -3.25) (size 1.5 0.27) (layers F.Cu F.Paste F.Mask)
    (solder_mask_margin 0.075))
  (pad 119 smd rect (at -10.75 -3.75) (size 1.5 0.27) (layers F.Cu F.Paste F.Mask)
    (solder_mask_margin 0.075))
  (pad 118 smd rect (at -10.75 -4.25) (size 1.5 0.27) (layers F.Cu F.Paste F.Mask)
    (solder_mask_margin 0.075))
  (pad 117 smd rect (at -10.75 -4.75) (size 1.5 0.27) (layers F.Cu F.Paste F.Mask)
    (solder_mask_margin 0.075))
  (pad 116 smd rect (at -10.75 -5.25) (size 1.5 0.27) (layers F.Cu F.Paste F.Mask)
    (solder_mask_margin 0.075))
  (pad 115 smd rect (at -10.75 -5.75) (size 1.5 0.27) (layers F.Cu F.Paste F.Mask)
    (solder_mask_margin 0.075))
  (pad 114 smd rect (at -10.75 -6.25) (size 1.5 0.27) (layers F.Cu F.Paste F.Mask)
    (solder_mask_margin 0.075))
  (pad 113 smd rect (at -10.75 -6.75) (size 1.5 0.27) (layers F.Cu F.Paste F.Mask)
    (solder_mask_margin 0.075))
  (pad 112 smd rect (at -10.75 -7.25) (size 1.5 0.27) (layers F.Cu F.Paste F.Mask)
    (solder_mask_margin 0.075))
  (pad 111 smd rect (at -10.75 -7.75) (size 1.5 0.27) (layers F.Cu F.Paste F.Mask)
    (solder_mask_margin 0.075))
  (pad 110 smd rect (at -10.75 -8.25) (size 1.5 0.27) (layers F.Cu F.Paste F.Mask)
    (solder_mask_margin 0.075))
  (pad 109 smd rect (at -10.75 -8.75) (size 1.5 0.27) (layers F.Cu F.Paste F.Mask)
    (solder_mask_margin 0.075))
  (pad 1 smd rect (at -8.75 10.75) (size 0.27 1.5) (layers F.Cu F.Paste F.Mask)
    (solder_mask_margin 0.075))
  (pad 2 smd rect (at -8.25 10.75) (size 0.27 1.5) (layers F.Cu F.Paste F.Mask)
    (solder_mask_margin 0.075))
  (pad 3 smd rect (at -7.75 10.75) (size 0.27 1.5) (layers F.Cu F.Paste F.Mask)
    (solder_mask_margin 0.075))
  (pad 4 smd rect (at -7.25 10.75) (size 0.27 1.5) (layers F.Cu F.Paste F.Mask)
    (solder_mask_margin 0.075))
  (pad 5 smd rect (at -6.75 10.75) (size 0.27 1.5) (layers F.Cu F.Paste F.Mask)
    (solder_mask_margin 0.075))
  (pad 6 smd rect (at -6.25 10.75) (size 0.27 1.5) (layers F.Cu F.Paste F.Mask)
    (solder_mask_margin 0.075))
  (pad 7 smd rect (at -5.75 10.75) (size 0.27 1.5) (layers F.Cu F.Paste F.Mask)
    (solder_mask_margin 0.075))
  (pad 8 smd rect (at -5.25 10.75) (size 0.27 1.5) (layers F.Cu F.Paste F.Mask)
    (solder_mask_margin 0.075))
  (pad 9 smd rect (at -4.75 10.75) (size 0.27 1.5) (layers F.Cu F.Paste F.Mask)
    (solder_mask_margin 0.075))
  (pad 10 smd rect (at -4.25 10.75) (size 0.27 1.5) (layers F.Cu F.Paste F.Mask)
    (solder_mask_margin 0.075))
  (pad 11 smd rect (at -3.75 10.75) (size 0.27 1.5) (layers F.Cu F.Paste F.Mask)
    (solder_mask_margin 0.075))
  (pad 12 smd rect (at -3.25 10.75) (size 0.27 1.5) (layers F.Cu F.Paste F.Mask)
    (solder_mask_margin 0.075))
  (pad 13 smd rect (at -2.75 10.75) (size 0.27 1.5) (layers F.Cu F.Paste F.Mask)
    (solder_mask_margin 0.075))
  (pad 14 smd rect (at -2.25 10.75) (size 0.27 1.5) (layers F.Cu F.Paste F.Mask)
    (solder_mask_margin 0.075))
  (pad 15 smd rect (at -1.75 10.75) (size 0.27 1.5) (layers F.Cu F.Paste F.Mask)
    (solder_mask_margin 0.075))
  (pad 16 smd rect (at -1.25 10.75) (size 0.27 1.5) (layers F.Cu F.Paste F.Mask)
    (solder_mask_margin 0.075))
  (pad 17 smd rect (at -0.75 10.75) (size 0.27 1.5) (layers F.Cu F.Paste F.Mask)
    (solder_mask_margin 0.075))
  (pad 18 smd rect (at -0.25 10.75) (size 0.27 1.5) (layers F.Cu F.Paste F.Mask)
    (solder_mask_margin 0.075))
  (pad 19 smd rect (at 0.25 10.75) (size 0.27 1.5) (layers F.Cu F.Paste F.Mask)
    (solder_mask_margin 0.075))
  (pad 20 smd rect (at 0.75 10.75) (size 0.27 1.5) (layers F.Cu F.Paste F.Mask)
    (solder_mask_margin 0.075))
  (pad 21 smd rect (at 1.25 10.75) (size 0.27 1.5) (layers F.Cu F.Paste F.Mask)
    (solder_mask_margin 0.075))
  (pad 22 smd rect (at 1.75 10.75) (size 0.27 1.5) (layers F.Cu F.Paste F.Mask)
    (solder_mask_margin 0.075))
  (pad 23 smd rect (at 2.25 10.75) (size 0.27 1.5) (layers F.Cu F.Paste F.Mask)
    (solder_mask_margin 0.075))
  (pad 24 smd rect (at 2.75 10.75) (size 0.27 1.5) (layers F.Cu F.Paste F.Mask)
    (solder_mask_margin 0.075))
  (pad 25 smd rect (at 3.25 10.75) (size 0.27 1.5) (layers F.Cu F.Paste F.Mask)
    (solder_mask_margin 0.075))
  (pad 26 smd rect (at 3.75 10.75) (size 0.27 1.5) (layers F.Cu F.Paste F.Mask)
    (solder_mask_margin 0.075))
  (pad 27 smd rect (at 4.25 10.75) (size 0.27 1.5) (layers F.Cu F.Paste F.Mask)
    (solder_mask_margin 0.075))
  (pad 28 smd rect (at 4.75 10.75) (size 0.27 1.5) (layers F.Cu F.Paste F.Mask)
    (solder_mask_margin 0.075))
  (pad 29 smd rect (at 5.25 10.75) (size 0.27 1.5) (layers F.Cu F.Paste F.Mask)
    (solder_mask_margin 0.075))
  (pad 30 smd rect (at 5.75 10.75) (size 0.27 1.5) (layers F.Cu F.Paste F.Mask)
    (solder_mask_margin 0.075))
  (pad 31 smd rect (at 6.25 10.75) (size 0.27 1.5) (layers F.Cu F.Paste F.Mask)
    (solder_mask_margin 0.075))
  (pad 32 smd rect (at 6.75 10.75) (size 0.27 1.5) (layers F.Cu F.Paste F.Mask)
    (solder_mask_margin 0.075))
  (pad 33 smd rect (at 7.25 10.75) (size 0.27 1.5) (layers F.Cu F.Paste F.Mask)
    (solder_mask_margin 0.075))
  (pad 34 smd rect (at 7.75 10.75) (size 0.27 1.5) (layers F.Cu F.Paste F.Mask)
    (solder_mask_margin 0.075))
  (pad 35 smd rect (at 8.25 10.75) (size 0.27 1.5) (layers F.Cu F.Paste F.Mask)
    (solder_mask_margin 0.075))
  (pad 36 smd rect (at 8.75 10.75) (size 0.27 1.5) (layers F.Cu F.Paste F.Mask)
    (solder_mask_margin 0.075))
)
