Importer Log Report
Project : Group

Section : Analyze Document - F:\Daten\tkurbad\Windows\Documents\Projekte\Hobby\Amiga\Hardware\Zorro-LAN-IDE\PCB\OLIMEX-ENJ.lbr
    Analyzing data of F:\Daten\tkurbad\Windows\Documents\Projekte\Hobby\Amiga\Hardware\Zorro-LAN-IDE\PCB\OLIMEX-ENJ.lbr
    Load settings
    Load layers 49
    Load Library library
    Load Library ""
    Load Packages 3
    Load Symbols 3
    Load DeviceSets 2
EndSection

Section : Analyze Document - F:\Daten\tkurbad\Windows\Documents\Projekte\Hobby\Amiga\Hardware\Zorro-LAN-IDE\PCB\ZORRO-LAN-IDE-CP-V2F.brd
    Analyzing data of F:\Daten\tkurbad\Windows\Documents\Projekte\Hobby\Amiga\Hardware\Zorro-LAN-IDE\PCB\ZORRO-LAN-IDE-CP-V2F.brd
    Load settings
    Load layers 98
    Load Library "xilinx_xc9572xl-tq100"
    Load Packages 1
    Load Library "74xx-eu"
    Load Packages 1
    Load Library "con-harting-ml"
    Load Packages 2
    Load Library "am29-memory"
    Load Packages 1
    Load Library "rcl"
    Load Packages 7
    Load Library "resistor-dil"
    Load Packages 1
    Load Library "v-reg"
    Load Packages 1
    Load Library "jumper"
    Load Packages 2
    Load Library "Amiga"
    Load Packages 2
    Load Library "OLIMEX-ENJ"
    Load Packages 1
    Load Library "crystal"
    Load Packages 2
    Load Library "con-stewart"
    Load Packages 1
    Load Library "con-ml"
    Load Packages 1
    ERROR: Unhandled typeerrors
EndSection
