%TF.GenerationSoftware,Altium Limited,Altium Designer,19.0.10 (269)*%
G04 Layer_Color=255*
%FSLAX26Y26*%
%MOIN*%
%TF.FileFunction,Pads,Bot*%
%TF.Part,Single*%
G01*
G75*
%TA.AperFunction,SMDPad,CuDef*%
%ADD12R,0.051180X0.062990*%
%ADD15R,0.041340X0.042520*%
%ADD16R,0.062990X0.051180*%
%TA.AperFunction,ConnectorPad*%
G04:AMPARAMS|DCode=24|XSize=300mil|YSize=50mil|CornerRadius=25mil|HoleSize=0mil|Usage=FLASHONLY|Rotation=90.000|XOffset=0mil|YOffset=0mil|HoleType=Round|Shape=RoundedRectangle|*
%AMROUNDEDRECTD24*
21,1,0.300000,0.000000,0,0,90.0*
21,1,0.250000,0.050000,0,0,90.0*
1,1,0.050000,0.000000,0.125000*
1,1,0.050000,0.000000,-0.125000*
1,1,0.050000,0.000000,-0.125000*
1,1,0.050000,0.000000,0.125000*
%
%ADD24ROUNDEDRECTD24*%
%TA.AperFunction,SMDPad,CuDef*%
%ADD28R,0.042520X0.041340*%
%TA.AperFunction,ComponentPad*%
G04:AMPARAMS|DCode=40|XSize=52.285mil|YSize=52.285mil|CornerRadius=0mil|HoleSize=0mil|Usage=FLASHONLY|Rotation=90.000|XOffset=0mil|YOffset=0mil|HoleType=Round|Shape=Octagon|*
%AMOCTAGOND40*
4,1,8,0.013071,0.026143,-0.013071,0.026143,-0.026143,0.013071,-0.026143,-0.013071,-0.013071,-0.026143,0.013071,-0.026143,0.026143,-0.013071,0.026143,0.013071,0.013071,0.026143,0.0*
%
%ADD40OCTAGOND40*%

%ADD41O,0.054000X0.108000*%
%ADD42C,0.128000*%
%ADD43C,0.059060*%
%ADD44C,0.086610*%
%ADD45O,0.108000X0.054000*%
%ADD46C,0.048000*%
%ADD47C,0.054000*%
%ADD48R,0.052285X0.052285*%
G04:AMPARAMS|DCode=49|XSize=52.285mil|YSize=52.285mil|CornerRadius=0mil|HoleSize=0mil|Usage=FLASHONLY|Rotation=0.000|XOffset=0mil|YOffset=0mil|HoleType=Round|Shape=Octagon|*
%AMOCTAGOND49*
4,1,8,0.026143,-0.013071,0.026143,0.013071,0.013071,0.026143,-0.013071,0.026143,-0.026143,0.013071,-0.026143,-0.013071,-0.013071,-0.026143,0.013071,-0.026143,0.026143,-0.013071,0.0*
%
%ADD49OCTAGOND49*%

G04:AMPARAMS|DCode=50|XSize=60.999mil|YSize=60.999mil|CornerRadius=0mil|HoleSize=0mil|Usage=FLASHONLY|Rotation=180.000|XOffset=0mil|YOffset=0mil|HoleType=Round|Shape=Octagon|*
%AMOCTAGOND50*
4,1,8,-0.030500,0.015250,-0.030500,-0.015250,-0.015250,-0.030500,0.015250,-0.030500,0.030500,-0.015250,0.030500,0.015250,0.015250,0.030500,-0.015250,0.030500,-0.030500,0.015250,0.0*
%
%ADD50OCTAGOND50*%

%ADD51C,0.063000*%
%TA.AperFunction,SMDPad,CuDef*%
G04:AMPARAMS|DCode=61|XSize=41.34mil|YSize=42.52mil|CornerRadius=0mil|HoleSize=0mil|Usage=FLASHONLY|Rotation=222.400|XOffset=0mil|YOffset=0mil|HoleType=Round|Shape=Rectangle|*
%AMROTATEDRECTD61*
4,1,4,0.000928,0.029637,0.029599,-0.001762,-0.000928,-0.029637,-0.029599,0.001762,0.000928,0.029637,0.0*
%
%ADD61ROTATEDRECTD61*%

G04:AMPARAMS|DCode=62|XSize=41.34mil|YSize=42.52mil|CornerRadius=0mil|HoleSize=0mil|Usage=FLASHONLY|Rotation=314.900|XOffset=0mil|YOffset=0mil|HoleType=Round|Shape=Rectangle|*
%AMROTATEDRECTD62*
4,1,4,-0.029650,-0.000365,0.000469,0.029648,0.029650,0.000365,-0.000469,-0.029648,-0.029650,-0.000365,0.0*
%
%ADD62ROTATEDRECTD62*%

D12*
X3220260Y1458220D02*
D03*
X3141520D02*
D03*
X3203100Y1987780D02*
D03*
X3281840D02*
D03*
D15*
X1788200Y2153130D02*
D03*
X1719300D02*
D03*
D16*
X3664280Y1997990D02*
D03*
Y1919250D02*
D03*
X3731220Y1660940D02*
D03*
Y1739680D02*
D03*
X3844440Y1661490D02*
D03*
Y1740230D02*
D03*
X3730960Y1513330D02*
D03*
Y1592070D02*
D03*
D24*
X115000Y200000D02*
D03*
X215000D02*
D03*
X315000D02*
D03*
X415000D02*
D03*
X515000D02*
D03*
X615000D02*
D03*
X715000D02*
D03*
X815000D02*
D03*
X915000D02*
D03*
X1015000D02*
D03*
X1115000D02*
D03*
X1215000D02*
D03*
X1315000D02*
D03*
X1415000D02*
D03*
X1515000D02*
D03*
X1615000D02*
D03*
X1715000D02*
D03*
X1815000D02*
D03*
X1915000D02*
D03*
X2015000D02*
D03*
X2115000D02*
D03*
X2215000D02*
D03*
X2315000D02*
D03*
X2415000D02*
D03*
X2515000D02*
D03*
X2615000D02*
D03*
X2715000D02*
D03*
X2815000D02*
D03*
X2915000D02*
D03*
X3015000D02*
D03*
X3115000D02*
D03*
X3215000D02*
D03*
X3315000D02*
D03*
X3415000D02*
D03*
X3515000D02*
D03*
X3615000D02*
D03*
X3715000D02*
D03*
X3815000D02*
D03*
X3915000D02*
D03*
X4015000D02*
D03*
X4115000D02*
D03*
X4215000D02*
D03*
X4315000D02*
D03*
X4415000D02*
D03*
X4515000D02*
D03*
X4615000D02*
D03*
X4715000D02*
D03*
X4815000D02*
D03*
X4915000D02*
D03*
X5015000D02*
D03*
D28*
X1054030Y1611740D02*
D03*
Y1680640D02*
D03*
X2200870Y1600500D02*
D03*
Y1669400D02*
D03*
D40*
X4132500Y1918750D02*
D03*
X4232500D02*
D03*
X4132500Y1818750D02*
D03*
X4232500D02*
D03*
X4132500Y1718750D02*
D03*
X4232500D02*
D03*
X4132500Y1618750D02*
D03*
X4232500D02*
D03*
X4132500Y1518750D02*
D03*
X4232500D02*
D03*
X4132500Y1418750D02*
D03*
X4232500D02*
D03*
X4132500Y1318750D02*
D03*
X4232500D02*
D03*
X75000Y2525000D02*
D03*
X175000D02*
D03*
X75000Y2425000D02*
D03*
X175000D02*
D03*
X75000Y2325000D02*
D03*
X175000D02*
D03*
X75000Y2225000D02*
D03*
X175000D02*
D03*
X75000Y2125000D02*
D03*
X175000D02*
D03*
D41*
X4765630Y1192500D02*
D03*
X4665630D02*
D03*
X4667500Y2044380D02*
D03*
X4767500D02*
D03*
X2375000Y2975000D02*
D03*
X2475000D02*
D03*
D42*
X4996880Y1847500D02*
D03*
Y1397500D02*
D03*
D43*
X4456880Y1837500D02*
D03*
Y1737500D02*
D03*
Y1507500D02*
D03*
Y1407500D02*
D03*
X4746880Y1447500D02*
D03*
X4646880Y1497500D02*
D03*
X4746880Y1547500D02*
D03*
X4646880Y1597500D02*
D03*
X4746880Y1647500D02*
D03*
X4646880Y1697500D02*
D03*
X4746880Y1747500D02*
D03*
X4646880Y1797500D02*
D03*
D44*
X4876880Y1927500D02*
D03*
Y1317500D02*
D03*
D45*
X358400Y810250D02*
D03*
Y710250D02*
D03*
X594800Y701080D02*
D03*
Y801080D02*
D03*
X126970Y814320D02*
D03*
Y714320D02*
D03*
D46*
X3138750Y1188750D02*
D03*
X3338750D02*
D03*
D47*
X3743700Y3039370D02*
D03*
Y2960630D02*
D03*
X3664960Y3039370D02*
D03*
Y2960630D02*
D03*
X3586220Y3039370D02*
D03*
Y2960630D02*
D03*
X3507480Y3039370D02*
D03*
Y2960630D02*
D03*
X3428740Y3039370D02*
D03*
Y2960630D02*
D03*
X3350000Y3039370D02*
D03*
Y2960630D02*
D03*
X3271260Y3039370D02*
D03*
Y2960630D02*
D03*
X3192520Y3039370D02*
D03*
Y2960630D02*
D03*
X3113780Y3039370D02*
D03*
Y2960630D02*
D03*
X3035040Y3039370D02*
D03*
Y2960630D02*
D03*
X2956300Y3039370D02*
D03*
D48*
Y2960630D02*
D03*
D49*
X2100000Y3000000D02*
D03*
Y2900000D02*
D03*
X2000000D02*
D03*
Y3000000D02*
D03*
X1900000D02*
D03*
Y2900000D02*
D03*
X1800000D02*
D03*
Y3000000D02*
D03*
X1700000D02*
D03*
Y2900000D02*
D03*
X1600000D02*
D03*
Y3000000D02*
D03*
X1500000D02*
D03*
Y2900000D02*
D03*
X1400000Y3000000D02*
D03*
Y2900000D02*
D03*
X1300000Y3000000D02*
D03*
Y2900000D02*
D03*
X1200000Y3000000D02*
D03*
Y2900000D02*
D03*
X1100000Y3000000D02*
D03*
Y2900000D02*
D03*
X1000000Y3000000D02*
D03*
Y2900000D02*
D03*
X900000Y3000000D02*
D03*
Y2900000D02*
D03*
X800000Y3000000D02*
D03*
Y2900000D02*
D03*
X700000Y3000000D02*
D03*
Y2900000D02*
D03*
X600000Y3000000D02*
D03*
Y2900000D02*
D03*
X500000Y3000000D02*
D03*
Y2900000D02*
D03*
X400000Y3000000D02*
D03*
Y2900000D02*
D03*
X300000Y3000000D02*
D03*
Y2900000D02*
D03*
X200000Y3000000D02*
D03*
Y2900000D02*
D03*
D50*
X444200Y1329620D02*
D03*
X344200Y1429620D02*
D03*
Y1329620D02*
D03*
X244200Y1429620D02*
D03*
X344200Y1529620D02*
D03*
X244200D02*
D03*
X344200Y1629620D02*
D03*
X244200D02*
D03*
X344200Y1729620D02*
D03*
X244200D02*
D03*
X344200Y1829620D02*
D03*
X244200D02*
D03*
X344200Y1929620D02*
D03*
X444200Y1829620D02*
D03*
Y1929620D02*
D03*
X544200Y1829620D02*
D03*
Y1929620D02*
D03*
X644200Y1829620D02*
D03*
Y1929620D02*
D03*
X744200Y1829620D02*
D03*
X644200Y1729620D02*
D03*
X744200D02*
D03*
X644200Y1629620D02*
D03*
X744200D02*
D03*
X644200Y1529620D02*
D03*
X744200D02*
D03*
X644200Y1429620D02*
D03*
X744200D02*
D03*
X644200Y1329620D02*
D03*
X544200Y1429620D02*
D03*
Y1329620D02*
D03*
D51*
X444200Y1429620D02*
D03*
D61*
X1993310Y2022400D02*
D03*
X2044190Y2068860D02*
D03*
X1300341Y1540526D02*
D03*
X1249219Y1494334D02*
D03*
D62*
X1440417Y2064908D02*
D03*
X1391783Y2113712D02*
D03*
%TF.MD5,40808fc98b249935eede5707a3717708*%
M02*
