%TF.GenerationSoftware,Altium Limited,Altium Designer,19.0.10 (269)*%
G04 Layer_Physical_Order=4*
G04 Layer_Color=16711680*
%FSLAX26Y26*%
%MOIN*%
%TF.FileFunction,Copper,L4,Bot,Signal*%
%TF.Part,Single*%
G01*
G75*
%TA.AperFunction,Conductor*%
%ADD10C,0.010000*%
%TA.AperFunction,SMDPad,CuDef*%
%ADD12R,0.051180X0.062990*%
%ADD15R,0.041340X0.042520*%
%ADD16R,0.062990X0.051180*%
%TA.AperFunction,ConnectorPad*%
G04:AMPARAMS|DCode=24|XSize=300mil|YSize=50mil|CornerRadius=25mil|HoleSize=0mil|Usage=FLASHONLY|Rotation=90.000|XOffset=0mil|YOffset=0mil|HoleType=Round|Shape=RoundedRectangle|*
%AMROUNDEDRECTD24*
21,1,0.300000,0.000000,0,0,90.0*
21,1,0.250000,0.050000,0,0,90.0*
1,1,0.050000,0.000000,0.125000*
1,1,0.050000,0.000000,-0.125000*
1,1,0.050000,0.000000,-0.125000*
1,1,0.050000,0.000000,0.125000*
%
%ADD24ROUNDEDRECTD24*%
%TA.AperFunction,SMDPad,CuDef*%
%ADD28R,0.042520X0.041340*%
%TA.AperFunction,Conductor*%
%ADD34C,0.012000*%
%ADD35C,0.016000*%
%ADD36C,0.024000*%
%ADD37C,0.040000*%
%ADD38C,0.050000*%
%TA.AperFunction,ComponentPad*%
G04:AMPARAMS|DCode=40|XSize=52.285mil|YSize=52.285mil|CornerRadius=0mil|HoleSize=0mil|Usage=FLASHONLY|Rotation=90.000|XOffset=0mil|YOffset=0mil|HoleType=Round|Shape=Octagon|*
%AMOCTAGOND40*
4,1,8,0.013071,0.026143,-0.013071,0.026143,-0.026143,0.013071,-0.026143,-0.013071,-0.013071,-0.026143,0.013071,-0.026143,0.026143,-0.013071,0.026143,0.013071,0.013071,0.026143,0.0*
%
%ADD40OCTAGOND40*%

%ADD41O,0.054000X0.108000*%
%ADD42C,0.128000*%
%ADD43C,0.059060*%
%ADD44C,0.086610*%
%ADD45O,0.108000X0.054000*%
%ADD46C,0.048000*%
%ADD47C,0.054000*%
%ADD48R,0.052285X0.052285*%
G04:AMPARAMS|DCode=49|XSize=52.285mil|YSize=52.285mil|CornerRadius=0mil|HoleSize=0mil|Usage=FLASHONLY|Rotation=0.000|XOffset=0mil|YOffset=0mil|HoleType=Round|Shape=Octagon|*
%AMOCTAGOND49*
4,1,8,0.026143,-0.013071,0.026143,0.013071,0.013071,0.026143,-0.013071,0.026143,-0.026143,0.013071,-0.026143,-0.013071,-0.013071,-0.026143,0.013071,-0.026143,0.026143,-0.013071,0.0*
%
%ADD49OCTAGOND49*%

G04:AMPARAMS|DCode=50|XSize=60.999mil|YSize=60.999mil|CornerRadius=0mil|HoleSize=0mil|Usage=FLASHONLY|Rotation=180.000|XOffset=0mil|YOffset=0mil|HoleType=Round|Shape=Octagon|*
%AMOCTAGOND50*
4,1,8,-0.030500,0.015250,-0.030500,-0.015250,-0.015250,-0.030500,0.015250,-0.030500,0.030500,-0.015250,0.030500,0.015250,0.015250,0.030500,-0.015250,0.030500,-0.030500,0.015250,0.0*
%
%ADD50OCTAGOND50*%

%ADD51C,0.063000*%
%TA.AperFunction,ViaPad*%
%ADD52C,0.023621*%
%ADD53C,0.035431*%
%ADD54C,0.041340*%
%ADD55C,0.031501*%
%TA.AperFunction,SMDPad,CuDef*%
G04:AMPARAMS|DCode=61|XSize=41.34mil|YSize=42.52mil|CornerRadius=0mil|HoleSize=0mil|Usage=FLASHONLY|Rotation=222.400|XOffset=0mil|YOffset=0mil|HoleType=Round|Shape=Rectangle|*
%AMROTATEDRECTD61*
4,1,4,0.000928,0.029637,0.029599,-0.001762,-0.000928,-0.029637,-0.029599,0.001762,0.000928,0.029637,0.0*
%
%ADD61ROTATEDRECTD61*%

G04:AMPARAMS|DCode=62|XSize=41.34mil|YSize=42.52mil|CornerRadius=0mil|HoleSize=0mil|Usage=FLASHONLY|Rotation=314.900|XOffset=0mil|YOffset=0mil|HoleType=Round|Shape=Rectangle|*
%AMROTATEDRECTD62*
4,1,4,-0.029650,-0.000365,0.000469,0.029648,0.029650,0.000365,-0.000469,-0.029648,-0.029650,-0.000365,0.0*
%
%ADD62ROTATEDRECTD62*%

G36*
X5077106Y3061655D02*
X5059561D01*
X5059034D01*
X5058582Y3061730D01*
X5058206Y3061805D01*
X5057980Y3061956D01*
X5057603Y3062107D01*
X5057453Y3062182D01*
X5057151Y3062634D01*
X5057001Y3063086D01*
X5056926Y3063462D01*
Y3063613D01*
X5057001Y3064140D01*
X5057227Y3064591D01*
X5057377Y3064893D01*
X5057453Y3064968D01*
X5057754Y3065194D01*
X5058055Y3065345D01*
X5058733Y3065495D01*
X5059034Y3065570D01*
X5059335D01*
X5059486D01*
X5059561D01*
X5073190D01*
Y3081685D01*
X5026354D01*
Y3070992D01*
X5026278Y3070615D01*
X5026052Y3069938D01*
X5025827Y3069637D01*
X5025751Y3069486D01*
X5025300Y3069110D01*
X5024848Y3068959D01*
X5024547Y3068884D01*
X5024471D01*
X5024396D01*
X5023793Y3068959D01*
X5023342Y3069185D01*
X5023041Y3069411D01*
X5022965Y3069486D01*
X5022815Y3069712D01*
X5022664Y3070088D01*
X5022513Y3070766D01*
X5022438Y3071067D01*
Y3095766D01*
X5022513Y3096669D01*
X5022739Y3097272D01*
X5022890Y3097648D01*
X5022965Y3097724D01*
X5023417Y3098100D01*
X5023869Y3098326D01*
X5024245Y3098401D01*
X5024396D01*
X5024923Y3098326D01*
X5025375Y3098100D01*
X5025676Y3097799D01*
X5025751Y3097724D01*
X5026128Y3097196D01*
X5026278Y3096519D01*
X5026354Y3096218D01*
Y3085600D01*
X5073190D01*
Y3101714D01*
X5059561D01*
X5059034D01*
X5058582Y3101790D01*
X5058206Y3101865D01*
X5057980Y3102016D01*
X5057603Y3102166D01*
X5057453Y3102242D01*
X5057151Y3102693D01*
X5057001Y3103145D01*
X5056926Y3103522D01*
Y3103672D01*
X5057001Y3104199D01*
X5057227Y3104651D01*
X5057377Y3104952D01*
X5057453Y3105028D01*
X5057754Y3105253D01*
X5058055Y3105404D01*
X5058733Y3105555D01*
X5059034Y3105630D01*
X5059335D01*
X5059486D01*
X5059561D01*
X5077106D01*
Y3061655D01*
D02*
G37*
G36*
X5052483Y3050134D02*
X5055194Y3049757D01*
X5056474Y3049532D01*
X5057678Y3049230D01*
X5058808Y3049004D01*
X5059862Y3048703D01*
X5060766Y3048402D01*
X5061669Y3048101D01*
X5062347Y3047800D01*
X5063025Y3047574D01*
X5063477Y3047348D01*
X5063853Y3047197D01*
X5064079Y3047122D01*
X5064154Y3047047D01*
X5066564Y3045767D01*
X5068597Y3044336D01*
X5069576Y3043583D01*
X5070404Y3042830D01*
X5071233Y3042152D01*
X5071910Y3041399D01*
X5072513Y3040797D01*
X5073115Y3040194D01*
X5073567Y3039667D01*
X5073943Y3039140D01*
X5074244Y3038764D01*
X5074470Y3038462D01*
X5074546Y3038312D01*
X5074621Y3038236D01*
X5075299Y3037182D01*
X5075901Y3036128D01*
X5076353Y3035074D01*
X5076805Y3034095D01*
X5077482Y3032062D01*
X5077934Y3030255D01*
X5078085Y3029426D01*
X5078160Y3028673D01*
X5078311Y3027996D01*
Y3027393D01*
X5078386Y3026941D01*
Y3026339D01*
X5078311Y3024607D01*
X5078010Y3022875D01*
X5077633Y3021219D01*
X5077106Y3019713D01*
X5076503Y3018207D01*
X5075826Y3016851D01*
X5075148Y3015571D01*
X5074395Y3014366D01*
X5073642Y3013312D01*
X5072889Y3012333D01*
X5072211Y3011505D01*
X5071609Y3010827D01*
X5071082Y3010300D01*
X5070705Y3009848D01*
X5070404Y3009622D01*
X5070329Y3009547D01*
X5068748Y3008267D01*
X5067091Y3007213D01*
X5065434Y3006234D01*
X5063703Y3005406D01*
X5061971Y3004728D01*
X5060239Y3004126D01*
X5058582Y3003674D01*
X5056926Y3003297D01*
X5055419Y3002996D01*
X5054064Y3002770D01*
X5052784Y3002620D01*
X5051730Y3002544D01*
X5050826Y3002469D01*
X5050149Y3002394D01*
X5049772D01*
X5049621D01*
X5047287Y3002469D01*
X5045103Y3002695D01*
X5043070Y3003071D01*
X5041113Y3003523D01*
X5039230Y3004050D01*
X5037573Y3004653D01*
X5035992Y3005330D01*
X5034561Y3006008D01*
X5033357Y3006610D01*
X5032227Y3007288D01*
X5031248Y3007891D01*
X5030420Y3008418D01*
X5029818Y3008869D01*
X5029366Y3009246D01*
X5029065Y3009472D01*
X5028989Y3009547D01*
X5027559Y3010903D01*
X5026354Y3012333D01*
X5025224Y3013764D01*
X5024321Y3015195D01*
X5023568Y3016625D01*
X5022890Y3018056D01*
X5022363Y3019412D01*
X5021911Y3020692D01*
X5021610Y3021821D01*
X5021384Y3022951D01*
X5021158Y3023930D01*
X5021083Y3024758D01*
X5021007Y3025436D01*
X5020932Y3025887D01*
Y3026339D01*
X5021007Y3027544D01*
X5021083Y3028673D01*
X5021534Y3030932D01*
X5022137Y3032965D01*
X5022815Y3034697D01*
X5023116Y3035526D01*
X5023492Y3036203D01*
X5023793Y3036806D01*
X5024019Y3037333D01*
X5024321Y3037785D01*
X5024471Y3038086D01*
X5024547Y3038236D01*
X5024622Y3038312D01*
X5026128Y3040270D01*
X5027860Y3042001D01*
X5029592Y3043508D01*
X5031248Y3044788D01*
X5032754Y3045767D01*
X5033432Y3046143D01*
X5033959Y3046444D01*
X5034411Y3046745D01*
X5034787Y3046896D01*
X5035013Y3047047D01*
X5035088D01*
X5036369Y3047649D01*
X5037649Y3048101D01*
X5040209Y3048929D01*
X5042618Y3049532D01*
X5043748Y3049682D01*
X5044877Y3049908D01*
X5045856Y3049983D01*
X5046760Y3050134D01*
X5047588Y3050209D01*
X5048266D01*
X5048868Y3050285D01*
X5049245D01*
X5049546D01*
X5049621D01*
X5051127D01*
X5052483Y3050134D01*
D02*
G37*
G36*
X5039004Y2991852D02*
X5040510Y2991550D01*
X5041865Y2991099D01*
X5043070Y2990572D01*
X5044049Y2990044D01*
X5044802Y2989593D01*
X5045028Y2989442D01*
X5045254Y2989291D01*
X5045329Y2989141D01*
X5045405D01*
X5046685Y2987936D01*
X5047890Y2986581D01*
X5048868Y2985075D01*
X5049697Y2983644D01*
X5050374Y2982289D01*
X5050676Y2981762D01*
X5050901Y2981234D01*
X5051052Y2980858D01*
X5051203Y2980557D01*
X5051278Y2980331D01*
Y2980256D01*
X5052106Y2981611D01*
X5053085Y2982816D01*
X5053989Y2983795D01*
X5054968Y2984698D01*
X5055947Y2985451D01*
X5056926Y2986054D01*
X5057829Y2986581D01*
X5058733Y2986957D01*
X5059561Y2987258D01*
X5060389Y2987560D01*
X5061067Y2987710D01*
X5061669Y2987785D01*
X5062197Y2987861D01*
X5062573Y2987936D01*
X5062799D01*
X5062874D01*
X5063928Y2987861D01*
X5064983Y2987710D01*
X5065886Y2987484D01*
X5066865Y2987183D01*
X5068522Y2986430D01*
X5070028Y2985602D01*
X5071157Y2984773D01*
X5071684Y2984322D01*
X5072061Y2984021D01*
X5072362Y2983719D01*
X5072588Y2983493D01*
X5072739Y2983343D01*
X5072814Y2983267D01*
X5073567Y2982364D01*
X5074244Y2981460D01*
X5074772Y2980481D01*
X5075299Y2979503D01*
X5075751Y2978448D01*
X5076052Y2977469D01*
X5076579Y2975587D01*
X5076729Y2974759D01*
X5076880Y2973930D01*
X5076955Y2973177D01*
X5077031Y2972575D01*
X5077106Y2972048D01*
Y2946220D01*
X5077031Y2945843D01*
X5076805Y2945166D01*
X5076579Y2944865D01*
X5076503Y2944714D01*
X5076052Y2944337D01*
X5075600Y2944187D01*
X5075299Y2944111D01*
X5075223D01*
X5075148D01*
X5074546Y2944187D01*
X5074094Y2944413D01*
X5073793Y2944639D01*
X5073717Y2944714D01*
X5073567Y2944940D01*
X5073416Y2945316D01*
X5073266Y2945994D01*
X5073190Y2946295D01*
Y2952018D01*
X5026354D01*
Y2946220D01*
X5026278Y2945843D01*
X5026052Y2945166D01*
X5025827Y2944865D01*
X5025751Y2944714D01*
X5025300Y2944337D01*
X5024848Y2944187D01*
X5024547Y2944111D01*
X5024471D01*
X5024396D01*
X5023793Y2944187D01*
X5023342Y2944413D01*
X5023041Y2944639D01*
X5022965Y2944714D01*
X5022815Y2944940D01*
X5022664Y2945316D01*
X5022513Y2945994D01*
X5022438Y2946295D01*
Y2976039D01*
X5022513Y2977695D01*
X5022815Y2979277D01*
X5023191Y2980707D01*
X5023568Y2981912D01*
X5024019Y2982966D01*
X5024321Y2983719D01*
X5024471Y2984021D01*
X5024622Y2984246D01*
X5024697Y2984322D01*
Y2984397D01*
X5025601Y2985752D01*
X5026504Y2986882D01*
X5027408Y2987861D01*
X5028311Y2988689D01*
X5029065Y2989291D01*
X5029667Y2989743D01*
X5030043Y2990044D01*
X5030194Y2990120D01*
X5031474Y2990722D01*
X5032754Y2991174D01*
X5033959Y2991550D01*
X5035088Y2991776D01*
X5035992Y2991927D01*
X5036745Y2992002D01*
X5037046D01*
X5037272D01*
X5037347D01*
X5037423D01*
X5039004Y2991852D01*
D02*
G37*
%LPC*%
G36*
X5050073Y3046369D02*
X5049697D01*
X5049621D01*
X5047814Y3046294D01*
X5046082Y3046143D01*
X5044426Y3045842D01*
X5042844Y3045465D01*
X5041338Y3045014D01*
X5039908Y3044562D01*
X5038628Y3044035D01*
X5037423Y3043508D01*
X5036293Y3042980D01*
X5035314Y3042453D01*
X5034411Y3042001D01*
X5033733Y3041625D01*
X5033131Y3041249D01*
X5032754Y3040947D01*
X5032453Y3040797D01*
X5032378Y3040721D01*
X5031022Y3039667D01*
X5029893Y3038538D01*
X5028914Y3037333D01*
X5028010Y3036128D01*
X5027333Y3034923D01*
X5026655Y3033718D01*
X5026203Y3032589D01*
X5025827Y3031459D01*
X5025450Y3030405D01*
X5025224Y3029426D01*
X5025074Y3028523D01*
X5024998Y3027770D01*
X5024923Y3027167D01*
X5024848Y3026716D01*
Y3026339D01*
X5024923Y3024908D01*
X5025149Y3023553D01*
X5025525Y3022198D01*
X5025902Y3020918D01*
X5026429Y3019637D01*
X5027031Y3018508D01*
X5027634Y3017454D01*
X5028311Y3016475D01*
X5028989Y3015571D01*
X5029592Y3014743D01*
X5030194Y3014065D01*
X5030721Y3013463D01*
X5031173Y3013011D01*
X5031474Y3012710D01*
X5031700Y3012484D01*
X5031775Y3012409D01*
X5033131Y3011354D01*
X5034561Y3010376D01*
X5035992Y3009547D01*
X5037498Y3008869D01*
X5039004Y3008267D01*
X5040435Y3007815D01*
X5041941Y3007363D01*
X5043296Y3007062D01*
X5044576Y3006836D01*
X5045781Y3006610D01*
X5046911Y3006535D01*
X5047814Y3006385D01*
X5048567D01*
X5049170Y3006309D01*
X5049471D01*
X5049621D01*
X5051504Y3006385D01*
X5053311Y3006535D01*
X5055043Y3006836D01*
X5056700Y3007213D01*
X5058281Y3007665D01*
X5059712Y3008192D01*
X5061067Y3008719D01*
X5062272Y3009246D01*
X5063401Y3009773D01*
X5064305Y3010300D01*
X5065208Y3010827D01*
X5065886Y3011279D01*
X5066413Y3011656D01*
X5066865Y3011957D01*
X5067091Y3012107D01*
X5067166Y3012183D01*
X5068446Y3013312D01*
X5069576Y3014517D01*
X5070555Y3015646D01*
X5071383Y3016851D01*
X5072136Y3018056D01*
X5072663Y3019261D01*
X5073190Y3020390D01*
X5073567Y3021445D01*
X5073868Y3022499D01*
X5074094Y3023402D01*
X5074244Y3024231D01*
X5074395Y3024984D01*
Y3025511D01*
X5074470Y3025963D01*
Y3026339D01*
X5074395Y3027920D01*
X5074169Y3029502D01*
X5073793Y3030932D01*
X5073266Y3032288D01*
X5072663Y3033568D01*
X5072061Y3034773D01*
X5071383Y3035827D01*
X5070630Y3036806D01*
X5069952Y3037709D01*
X5069199Y3038462D01*
X5068597Y3039140D01*
X5067995Y3039742D01*
X5067467Y3040119D01*
X5067091Y3040495D01*
X5066865Y3040646D01*
X5066790Y3040721D01*
X5065359Y3041700D01*
X5063853Y3042604D01*
X5062347Y3043282D01*
X5060916Y3043959D01*
X5059410Y3044486D01*
X5058055Y3044938D01*
X5056624Y3045315D01*
X5055344Y3045616D01*
X5054139Y3045842D01*
X5053085Y3046068D01*
X5052106Y3046218D01*
X5051203Y3046294D01*
X5050525D01*
X5050073Y3046369D01*
D02*
G37*
G36*
X5063401Y2984021D02*
X5063326D01*
X5063251D01*
X5062272Y2983945D01*
X5061368Y2983795D01*
X5060540Y2983493D01*
X5059787Y2983192D01*
X5059109Y2982891D01*
X5058657Y2982590D01*
X5058356Y2982439D01*
X5058206Y2982364D01*
X5057302Y2981686D01*
X5056549Y2981008D01*
X5055871Y2980256D01*
X5055344Y2979578D01*
X5054892Y2978900D01*
X5054591Y2978373D01*
X5054441Y2978072D01*
X5054365Y2977921D01*
X5053838Y2976490D01*
X5053462Y2975060D01*
X5053160Y2973704D01*
X5053010Y2972500D01*
X5052859Y2971370D01*
X5052784Y2970542D01*
Y2955934D01*
X5073190D01*
Y2971521D01*
X5073040Y2973479D01*
X5072663Y2975286D01*
X5072211Y2976867D01*
X5071609Y2978147D01*
X5071007Y2979201D01*
X5070555Y2979954D01*
X5070329Y2980180D01*
X5070178Y2980406D01*
X5070103Y2980481D01*
X5070028Y2980557D01*
X5069425Y2981159D01*
X5068823Y2981686D01*
X5067693Y2982590D01*
X5066564Y2983192D01*
X5065510Y2983569D01*
X5064606Y2983870D01*
X5063853Y2983945D01*
X5063401Y2984021D01*
D02*
G37*
G36*
X5037875Y2988087D02*
X5037498D01*
X5037347D01*
X5036369Y2988011D01*
X5035390Y2987861D01*
X5034486Y2987635D01*
X5033733Y2987334D01*
X5033055Y2987032D01*
X5032604Y2986807D01*
X5032302Y2986656D01*
X5032152Y2986581D01*
X5031248Y2985978D01*
X5030495Y2985301D01*
X5029742Y2984623D01*
X5029140Y2983945D01*
X5028688Y2983343D01*
X5028311Y2982816D01*
X5028086Y2982515D01*
X5028010Y2982364D01*
X5027483Y2981310D01*
X5027031Y2980180D01*
X5026730Y2979051D01*
X5026580Y2977997D01*
X5026429Y2977093D01*
X5026354Y2976415D01*
Y2955934D01*
X5048868D01*
Y2970015D01*
X5048793Y2972349D01*
X5048642Y2974382D01*
X5048417Y2976114D01*
X5048266Y2976867D01*
X5048115Y2977545D01*
X5047965Y2978147D01*
X5047814Y2978674D01*
X5047739Y2979126D01*
X5047588Y2979503D01*
X5047513Y2979804D01*
X5047438Y2980030D01*
X5047362Y2980105D01*
Y2980180D01*
X5046760Y2981460D01*
X5046082Y2982665D01*
X5045405Y2983644D01*
X5044652Y2984472D01*
X5044049Y2985150D01*
X5043522Y2985602D01*
X5043221Y2985903D01*
X5043070Y2985978D01*
X5042016Y2986656D01*
X5041037Y2987183D01*
X5040058Y2987560D01*
X5039155Y2987861D01*
X5038402Y2988011D01*
X5037875Y2988087D01*
D02*
G37*
%LPD*%
D10*
X4018750Y1506250D02*
X4056250Y1468750D01*
X4331250D01*
X4381250Y1518750D01*
Y1543750D01*
X4435000Y1597500D01*
X4646880D01*
X3912500Y1521250D02*
X3922500Y1511250D01*
X3912500Y1521250D02*
Y1600000D01*
X3937500Y1625000D01*
Y1681250D01*
X4025000Y1768750D01*
Y1808750D01*
X414380Y200630D02*
X415000Y200000D01*
X414380Y200630D02*
Y431880D01*
X1035630Y638750D02*
X1056250Y659380D01*
Y1520000D01*
X4132500Y1918750D02*
X4180000Y1966250D01*
X3999380Y1590000D02*
X4059380Y1650000D01*
Y1853130D01*
X4125000Y1918750D01*
X4132500D01*
X4590000Y2044380D02*
X4667500D01*
X4465630Y1920000D02*
X4590000Y2044380D01*
X4465630Y1842500D02*
Y1920000D01*
X4180000Y1966250D02*
X4328750D01*
X4456880Y1838130D01*
Y1837500D02*
Y1838130D01*
X3956880Y1590000D02*
X3999380D01*
X4663130Y2040000D02*
X4667500Y2044380D01*
X3928090Y1329650D02*
X3951250Y1352820D01*
Y1582500D01*
X3956880Y1588130D01*
Y1590000D01*
X4456880Y1837500D02*
X4461880Y1842500D01*
X4465630D01*
X3485130Y1442720D02*
X3534610Y1393240D01*
X4006880Y1566880D02*
X4087500Y1647500D01*
Y1843130D01*
X4112500Y1868130D01*
X4151880D01*
X4202500Y1918750D01*
X4232500D01*
X4295630Y1855630D01*
X4373750D01*
X4456880Y1737500D02*
X4508130Y1788750D01*
Y1903130D01*
X4583750Y1978750D01*
X4698750D01*
X4763750Y2043750D01*
Y2044380D01*
X4440630Y1753750D02*
X4456880Y1737500D01*
X4407500Y1753750D02*
X4440630D01*
X4373750Y1787500D02*
X4407500Y1753750D01*
X4373750Y1787500D02*
Y1855630D01*
X3973130Y1566880D02*
X4006880D01*
X3960630Y1296250D02*
X3973130Y1308750D01*
Y1566880D01*
X3745510Y1393240D02*
X3849380Y1289380D01*
X3534610Y1393240D02*
X3745510D01*
X4763750Y2044380D02*
X4767500D01*
X3485130Y1436840D02*
Y1442720D01*
X4123130Y1209380D02*
X4232500Y1318750D01*
X3972500Y1209380D02*
X4123130D01*
X4232500Y1318750D02*
X4239380Y1325630D01*
X4376880D01*
X3763130Y1421250D02*
X3771160Y1413210D01*
X3550000Y1421250D02*
X3763130D01*
X3526790Y1444460D02*
X3550000Y1421250D01*
X3522170Y1444460D02*
X3526790D01*
X3971880Y1208750D02*
X3972500Y1209380D01*
X4376880Y1325630D02*
X4456880Y1405630D01*
Y1407500D01*
X3771160Y1409460D02*
X3971880Y1208750D01*
X3771160Y1409460D02*
Y1413210D01*
X4451160D02*
X4456880Y1407500D01*
X4665630Y1198750D01*
Y1192500D02*
Y1198750D01*
X3790280Y1438970D02*
X3802780Y1426470D01*
Y1414720D02*
Y1426470D01*
X4050630Y1236880D02*
X4132500Y1318750D01*
X3980000Y1236880D02*
X4050630D01*
X4132500Y1318750D02*
X4178750Y1365000D01*
X4375000D01*
X4401250Y1391250D01*
X4399600Y1450220D02*
X4401250Y1448570D01*
Y1391250D02*
Y1448570D01*
X3947500Y1269380D02*
X3980000Y1236880D01*
X3947500Y1269380D02*
Y1270000D01*
X3802780Y1414720D02*
X3947500Y1270000D01*
X4399600Y1450220D02*
X4456880Y1507500D01*
X4765630Y1198750D01*
Y1192500D02*
Y1198750D01*
X2434040Y2332360D02*
X2434360Y2332030D01*
Y1008500D02*
Y2332030D01*
Y1008500D02*
X2441530Y1001330D01*
Y998330D02*
Y1001330D01*
X2434040Y2332360D02*
X2465670Y2363990D01*
X2473890D01*
X3226630Y2241980D02*
X3226860Y2241750D01*
X3226630Y2241980D02*
Y2432760D01*
X3337940Y2544070D01*
Y2774680D01*
X3192520Y2920110D02*
X3337940Y2774680D01*
X3192520Y2920110D02*
Y2960630D01*
X2454470Y1034410D02*
X2460560Y1028320D01*
X2454470Y1034410D02*
Y2309100D01*
X2490410Y2345050D01*
X2509240D01*
X3125900Y2227580D02*
X3185000Y2286680D01*
Y2435880D01*
X3305930Y2556800D01*
Y2757870D01*
X3155000Y2908800D02*
X3305930Y2757870D01*
X3155000Y2908800D02*
Y3003460D01*
X3190910Y3039370D01*
X3192520D01*
X2997400Y3077010D02*
X3035040Y3039370D01*
X1587280Y3077010D02*
X2997400D01*
X1550980Y3040710D02*
X1587280Y3077010D01*
X1550980Y2883380D02*
Y3040710D01*
X1372080Y2704480D02*
X1550980Y2883380D01*
X1024870Y2704480D02*
X1372080D01*
X986460Y2666080D02*
X1024870Y2704480D01*
X986460Y2344590D02*
Y2666080D01*
X1034340Y2364480D02*
X1034630Y2364770D01*
Y2419290D01*
X1057840Y2442500D01*
Y2442510D01*
X1034340Y2364480D02*
X1035170Y2365320D01*
X1057840Y2442510D02*
X1092360Y2477020D01*
X1465040D01*
X1492020Y2504000D01*
Y2580570D01*
X1561680Y2650230D01*
X1724800D01*
X1789500Y2714930D01*
X1837330D01*
X1034340Y2364480D02*
X1035470Y2365610D01*
X2903230Y2828820D02*
X3035040Y2960630D01*
X2610370Y2828820D02*
X2903230D01*
X2555800Y2774240D02*
X2610370Y2828820D01*
X1896630Y2774240D02*
X2555800D01*
X1837330Y2714930D02*
X1896630Y2774240D01*
X3002700Y2016370D02*
X3004360Y2018030D01*
X3002700Y1894210D02*
Y2016370D01*
X3003720Y1893190D02*
X3009610Y1887310D01*
X3002700Y1894210D02*
X3009610Y1887310D01*
X3004020Y1892890D02*
X3009610Y1887310D01*
X1828450Y932870D02*
X1833450Y937870D01*
Y1043770D01*
X2532160Y916550D02*
X2532210Y916600D01*
Y938470D01*
X2532130Y938390D02*
X2532210Y938470D01*
Y1007590D01*
X2526910Y1012890D02*
X2532210Y1007590D01*
X2526910Y1012890D02*
Y1539380D01*
X2526620Y1539670D02*
X2526910Y1539380D01*
X2532130Y938390D02*
Y953890D01*
X2526620Y1539670D02*
X2529790Y1542840D01*
Y1544170D01*
X2541950Y1556340D01*
Y1557460D01*
X2735450Y1936320D02*
X2735640Y1936140D01*
Y1706080D02*
Y1936140D01*
Y1706080D02*
X2737690Y1704030D01*
X2738710D01*
X2750400Y1692340D01*
Y1557970D02*
Y1692340D01*
X3029180Y1988440D02*
X3029720Y1987900D01*
Y1935720D02*
Y1987900D01*
X2289480Y1755540D02*
X2292970Y1752060D01*
X2289480Y1755540D02*
Y2636910D01*
X2315140Y2123700D02*
Y2248940D01*
X2213590Y2275290D02*
X2213940Y2274950D01*
Y2142250D02*
Y2274950D01*
X2213590Y2275290D02*
X2215670Y2273220D01*
X3940930Y856340D02*
X3969830Y827450D01*
X3901170Y856340D02*
X3940930D01*
X3840920Y916590D02*
X3901170Y856340D01*
X3840920Y916590D02*
Y1238160D01*
X3713830Y1365250D02*
X3840920Y1238160D01*
X2730900Y1365250D02*
X3713830D01*
X2621150Y1475000D02*
X2730900Y1365250D01*
X2593750Y1475000D02*
X2621150D01*
X2568750Y1500000D02*
X2593750Y1475000D01*
X2568750Y1500000D02*
Y1512500D01*
X2581250Y1525000D01*
Y1925000D01*
X2537500Y1968750D02*
X2581250Y1925000D01*
X2537500Y1968750D02*
Y2118750D01*
X4113750Y726250D02*
X4115000Y725000D01*
X4113750Y726250D02*
Y920000D01*
X3906780Y1126970D02*
X4113750Y920000D01*
X3864990Y1126970D02*
X3906780D01*
X2359950Y1126390D02*
Y1522460D01*
X4115000Y200000D02*
Y725000D01*
X2331910Y1550500D02*
X2359950Y1522460D01*
X2188660Y1550500D02*
X2331910D01*
X2140520Y1598640D02*
X2188660Y1550500D01*
X2046370Y1598640D02*
X2140520D01*
X1990860Y1654150D02*
X2046370Y1598640D01*
X1990860Y1654150D02*
Y1663190D01*
X1952210Y1701840D02*
X1990860Y1663190D01*
X1247460Y1701840D02*
X1952210D01*
X774220Y910590D02*
X775720Y912080D01*
Y1022070D01*
X515000Y465850D02*
X581650Y532500D01*
X748130D01*
X814380Y598750D01*
Y897350D01*
X839430Y922410D01*
X1502190Y950940D02*
X1502500Y950630D01*
X1502190Y950940D02*
Y1224050D01*
X1608880Y1330750D02*
X1615500D01*
X515000Y200000D02*
Y465850D01*
X1502190Y1224050D02*
X1608880Y1330750D01*
X1502560Y897370D02*
X1528190Y923000D01*
Y1209000D01*
X1615470Y1296280D01*
X1552440Y951310D02*
X1552500Y951250D01*
X1552440Y951310D02*
Y1195350D01*
X1615010Y1257920D02*
Y1258730D01*
X1552440Y1195350D02*
X1615010Y1257920D01*
X285140Y599540D02*
Y941750D01*
X285740Y942350D01*
X216180Y530590D02*
X285140Y599540D01*
X216180Y201180D02*
Y530590D01*
X215000Y200000D02*
X216180Y201180D01*
X2602070Y1415160D02*
X2602110Y1415120D01*
Y1081460D02*
Y1415120D01*
Y1081460D02*
X2622460Y1061100D01*
Y1039430D02*
Y1061100D01*
X2602070Y1019030D02*
X2622460Y1039430D01*
X2602070Y914520D02*
Y1019030D01*
X2681160Y522790D02*
X2681300Y522650D01*
X2681160Y522790D02*
Y798990D01*
X2633890Y874430D02*
Y888360D01*
X2628200Y868740D02*
X2633890Y874430D01*
X2628200Y855860D02*
Y868740D01*
Y855860D02*
X2630900Y853160D01*
Y849250D02*
Y853160D01*
Y849250D02*
X2681160Y798990D01*
X2361260Y882270D02*
Y1064500D01*
X2357680Y1068080D02*
X2361260Y1064500D01*
X2382540Y484910D02*
X2387070D01*
X2360190Y507260D02*
X2382540Y484910D01*
X2360190Y507260D02*
Y693840D01*
X2335390Y718650D02*
X2360190Y693840D01*
X2209530Y718650D02*
X2335390D01*
X2185690Y742490D02*
X2209530Y718650D01*
X2515000Y200000D02*
Y412470D01*
X2442470Y484990D02*
X2515000Y412470D01*
X2185690Y742490D02*
Y963810D01*
X2179650Y969850D02*
X2185690Y963810D01*
X2179650Y969850D02*
Y1002390D01*
X2175430Y1006610D02*
X2179650Y1002390D01*
X4312980Y878050D02*
X4313300Y878370D01*
X4312980Y537890D02*
Y878050D01*
Y537890D02*
X4314350Y536530D01*
X2580500Y1062400D02*
X2593190Y1049710D01*
X2580500Y1062400D02*
Y1080170D01*
X2575740Y1084930D02*
X2580500Y1080170D01*
X2575740Y1084930D02*
Y1441810D01*
X4213380Y201620D02*
X4215000Y200000D01*
X4213380Y201620D02*
Y831180D01*
X2633070Y974550D02*
X2635720Y971890D01*
Y970060D02*
Y971890D01*
X2633070Y974550D02*
Y1013380D01*
X2656290Y1036600D01*
Y1065910D01*
X2628460Y1093740D02*
X2656290Y1065910D01*
X2628460Y1093740D02*
Y1386560D01*
X4566020Y464410D02*
X4566550Y464930D01*
Y674790D01*
X2333040Y1096430D02*
X2333110Y1096360D01*
X2333040Y1096430D02*
Y1498550D01*
X4514470Y200530D02*
X4515000Y200000D01*
X4514470Y200530D02*
Y484450D01*
X4515000Y200000D02*
X4515090Y200090D01*
X2387600Y1513420D02*
X2388420Y1512600D01*
Y943070D02*
Y1512600D01*
X4515000Y200000D02*
X4515360Y200360D01*
X2387200Y1513020D02*
X2387600Y1513420D01*
X4614450Y200550D02*
X4615000Y200000D01*
X4614450Y200550D02*
Y537930D01*
X2478030Y1533960D02*
X2478660Y1533330D01*
Y1071250D02*
Y1533330D01*
X4615000Y200000D02*
X4615080Y200080D01*
X2478660Y1071250D02*
X2479790Y1070120D01*
X4714990Y200010D02*
X4715000Y200000D01*
X4714990Y200010D02*
Y462830D01*
X2504790Y1556990D02*
X2504970Y1557170D01*
X2504790Y996560D02*
Y1556990D01*
X4714300Y200700D02*
X4715000Y200000D01*
X4378270Y573380D02*
X4378550Y573650D01*
Y848100D01*
X2548180Y1465350D02*
X2554000Y1471170D01*
X2548180Y1079000D02*
Y1465350D01*
Y1079000D02*
X2551300Y1075880D01*
Y1073860D02*
Y1075880D01*
Y1073860D02*
X2554020Y1071140D01*
Y1070120D02*
Y1071140D01*
X2554000Y1471170D02*
X2554390Y1470780D01*
X1863130Y846250D02*
X1863750Y845630D01*
Y801250D02*
Y845630D01*
X1859350Y796850D02*
X1863750Y801250D01*
X1859350Y616790D02*
Y796850D01*
X1863130Y613020D02*
X1869370Y606770D01*
X1863130Y846250D02*
X1881250Y864380D01*
Y867500D01*
X1881710Y867960D01*
Y888890D01*
X1890520Y897710D01*
Y1065340D01*
X1859350Y616790D02*
X1869370Y606770D01*
X1475830Y417780D02*
Y606210D01*
X1475310Y606730D02*
X1475830Y606210D01*
X1555000Y915630D02*
X1555940Y916560D01*
X1579060D01*
Y1180410D01*
X1618770Y1220120D01*
X1767030Y2633090D02*
X1805820Y2671870D01*
X1573380Y2633090D02*
X1767030D01*
X1509460Y2569160D02*
X1573380Y2633090D01*
X1509460Y2494880D02*
Y2569160D01*
X1469230Y2454660D02*
X1509460Y2494880D01*
X1307370Y2454660D02*
X1469230D01*
X1258780Y2406060D02*
X1307370Y2454660D01*
X1127830Y2406060D02*
X1258780D01*
X3350000Y2868750D02*
Y2960630D01*
Y2868750D02*
X3393750Y2825000D01*
Y2512500D02*
Y2825000D01*
X3331250Y2450000D02*
X3393750Y2512500D01*
X3331250Y2332100D02*
Y2450000D01*
X3304730Y2305590D02*
X3331250Y2332100D01*
X3462290Y1598320D02*
X3464910Y1595710D01*
X3421570Y1598320D02*
X3462290D01*
X3364470Y1655430D02*
X3421570Y1598320D01*
X3326410Y1655430D02*
X3364470D01*
X3304310Y1633320D02*
X3326410Y1655430D01*
X3280360Y1633320D02*
X3304310D01*
X3264070Y1617030D02*
X3280360Y1633320D01*
X3226080Y1617030D02*
X3264070D01*
X3574130Y1554030D02*
X3589770Y1569670D01*
Y2282370D01*
X3550640Y2321500D02*
X3589770Y2282370D01*
X3320130Y2321500D02*
X3550640D01*
X3304210Y2305590D02*
X3320130Y2321500D01*
X3304210Y2305590D02*
X3304730D01*
X1735220Y2283390D02*
X1875430D01*
X1708700Y2256860D02*
X1735220Y2283390D01*
X1635880Y2256860D02*
X1708700D01*
X1875430Y2283390D02*
X1940710Y2348670D01*
Y2440000D01*
X1946850Y2446140D01*
Y2461490D01*
X1600660Y2221650D02*
X1635880Y2256860D01*
X1570170Y2221650D02*
X1600660D01*
X1553830Y2205310D02*
X1570170Y2221650D01*
X1553830Y2163920D02*
Y2205310D01*
Y2163920D02*
X1629340Y2088400D01*
X3370850Y2387620D02*
X3585540D01*
X3306250Y2406250D02*
Y2456250D01*
X3375000Y2525000D01*
Y2806250D01*
X3306250Y2875000D02*
X3375000Y2806250D01*
X3306250Y2875000D02*
Y3004380D01*
X3271260Y3039370D02*
X3306250Y3004380D01*
X3461070Y1457370D02*
X3532510Y1528810D01*
X3585500D01*
X3611150Y1554460D01*
Y2362010D01*
X3585540Y2387620D02*
X3611150Y2362010D01*
X3358240Y1463090D02*
X3368180Y1453150D01*
Y1429660D02*
Y1453150D01*
Y1429660D02*
X3379680Y1418150D01*
X3445560D01*
X3457580Y1430180D01*
X3461070Y1433670D01*
X3337930Y1627570D02*
X3347270Y1618240D01*
Y1586300D02*
Y1618240D01*
Y1586300D02*
X3358240Y1575330D01*
Y1463090D02*
Y1575330D01*
X3337930Y1627230D02*
Y1627570D01*
X1839350Y2563560D02*
X1847350Y2571560D01*
X1794350Y2563560D02*
X1839350D01*
X1781940Y2551150D02*
X1794350Y2563560D01*
X1781940Y2419540D02*
Y2551150D01*
X1772710Y2410310D02*
X1781940Y2419540D01*
X3461070Y1433670D02*
Y1457370D01*
X1740410Y2410310D02*
X1772710D01*
X1732920Y2417800D02*
X1740410Y2410310D01*
X1720940Y2417800D02*
X1732920D01*
X3269350Y2263100D02*
X3275000Y2268750D01*
Y2450000D01*
X3356250Y2531250D01*
Y2793750D01*
X3271260Y2878740D02*
X3356250Y2793750D01*
X3271260Y2878740D02*
Y2960630D01*
X1761250Y2097500D02*
X1786880Y2071880D01*
X1731880Y2097500D02*
X1761250D01*
X1712970Y2078600D02*
X1731880Y2097500D01*
X1708140Y2078600D02*
X1712970D01*
X1950000Y2180000D02*
Y2310640D01*
X1841880Y2071880D02*
X1950000Y2180000D01*
X1786880Y2071880D02*
X1841880D01*
X1978120Y2366460D02*
X1985130Y2373470D01*
X1978120Y2338760D02*
Y2366460D01*
X1950000Y2310640D02*
X1978120Y2338760D01*
X3392540Y2270770D02*
X3393040Y2271280D01*
X3536900D01*
X3548200Y2259980D01*
Y1609140D02*
Y2259980D01*
X3416380Y1477320D02*
X3548200Y1609140D01*
X3388330Y1477320D02*
X3416380D01*
X3379500Y1486150D02*
X3388330Y1477320D01*
X3379500Y1486150D02*
Y1600250D01*
X1703020Y2073480D02*
X1708140Y2078600D01*
X1697580Y2073480D02*
X1703020D01*
X1958220Y2422300D02*
X1974220Y2438300D01*
X1958220Y2343390D02*
Y2422300D01*
X1879370Y2264540D02*
X1958220Y2343390D01*
X1746750Y2264540D02*
X1879370D01*
X1720770Y2238570D02*
X1746750Y2264540D01*
X1642540Y2238570D02*
X1720770D01*
X1618750Y2214780D02*
X1642540Y2238570D01*
X1618750Y2201520D02*
Y2214780D01*
X3504120Y2296130D02*
X3504390Y2295860D01*
X3547970D01*
X3569860Y2273970D01*
Y1597630D02*
Y2273970D01*
X3432490Y1460260D02*
X3569860Y1597630D01*
X3432490Y1444820D02*
Y1460260D01*
X3341010Y2296080D02*
X3341060Y2296130D01*
X3504120D01*
X1586130Y2201520D02*
X1618750D01*
X1579860Y2195250D02*
X1586130Y2201520D01*
X1579860Y2174530D02*
Y2195250D01*
Y2174530D02*
X1670210Y2084180D01*
Y2083540D02*
Y2084180D01*
X1656210Y2069530D02*
X1670210Y2083540D01*
X1656210Y2059710D02*
Y2069530D01*
X2167400Y1740660D02*
Y1833000D01*
Y1740660D02*
X2201210Y1706850D01*
X2285540D01*
X2303600Y1688790D01*
Y1603060D02*
Y1688790D01*
X2161490Y2268860D02*
X2169140Y2276510D01*
X2167400Y1833000D02*
X2189220Y1854820D01*
Y2076970D01*
X2161490Y2104700D02*
X2189220Y2076970D01*
X2161490Y2104700D02*
Y2268860D01*
X2795360Y1585800D02*
X2809930Y1600370D01*
X3055070D01*
X3076030Y1621340D01*
X3174800D01*
X3196120Y1642660D01*
X3245850D01*
X3259360Y1656160D01*
X3289910D01*
X3319580Y1685830D01*
X3344310D01*
X1867110Y2501340D02*
X1867500Y2500950D01*
Y2457330D02*
Y2500950D01*
Y2457330D02*
X1877640Y2447200D01*
Y2444750D02*
Y2447200D01*
X3254320Y2087420D02*
X3255150Y2088250D01*
Y2090250D01*
X3350550D02*
X3353330Y2093030D01*
X3255150Y2090250D02*
X3350550D01*
X3378390Y1899200D02*
X3380900Y1896680D01*
X3378390Y1899200D02*
Y2067980D01*
X3353330Y2093030D02*
X3378390Y2067980D01*
X2546070Y2198210D02*
X2555230Y2207380D01*
Y2653750D01*
X2535440Y2673550D02*
X2555230Y2653750D01*
X2039320Y2673550D02*
X2535440D01*
X1867110Y2501340D02*
X2039320Y2673550D01*
X3136990Y2064490D02*
X3138180Y2063300D01*
Y1961110D02*
Y2063300D01*
Y1961110D02*
X3186070Y1913220D01*
Y1894050D02*
Y1913220D01*
Y1894050D02*
X3218500Y1861620D01*
X3380600D01*
X3395340Y1876360D01*
X3400490D01*
X3415970Y1891840D01*
X3418180D01*
X3437230Y1872780D01*
X3443250D01*
X3442040Y1819610D02*
X3442540Y1819110D01*
X3226600Y1819610D02*
X3442040D01*
X3161760Y1884450D02*
X3226600Y1819610D01*
X3161760Y1884450D02*
Y1902150D01*
X3094710Y1969210D02*
X3161760Y1902150D01*
X3094710Y1969210D02*
Y2037760D01*
X2828440Y1790310D02*
X2875040Y1743710D01*
X2828440Y1790310D02*
Y2336450D01*
X2795580Y1775080D02*
X2845670Y1724990D01*
X2795580Y1775080D02*
Y2358360D01*
X2822040Y1700790D02*
X2824310D01*
X2762580Y2540430D02*
X2765490Y2543340D01*
X2762580Y1760250D02*
Y2540430D01*
Y1760250D02*
X2822040Y1700790D01*
X1807630Y2590180D02*
X1808070Y2590620D01*
X1769540Y2590180D02*
X1807630D01*
X1755470Y2576110D02*
X1769540Y2590180D01*
X1755470Y2440030D02*
Y2576110D01*
X3393750Y2856250D02*
X3415610Y2834390D01*
X3393750Y2856250D02*
Y2995620D01*
X3350000Y3039370D02*
X3393750Y2995620D01*
X2760880Y2576550D02*
X2760960Y2576480D01*
X2760180Y2576550D02*
X2760880D01*
X2712740Y1690600D02*
X2716710Y1686630D01*
X2712740Y1690600D02*
Y1919710D01*
X2707410Y1925040D02*
X2712740Y1919710D01*
X2707410Y1925040D02*
Y1940730D01*
X2717980Y1951300D01*
Y1958760D01*
X2738240Y1979020D01*
Y2559280D01*
X2755430Y2576480D01*
X2760960D01*
X3396570Y2443210D02*
X3415610Y2462240D01*
X3363580Y2443210D02*
X3396570D01*
X3415610Y2462240D02*
Y2834390D01*
X1690480Y2296080D02*
X1713730Y2319320D01*
X1862930D01*
X1864070Y2320470D01*
X1865100D01*
X1905330Y2360700D02*
Y2407160D01*
X1865100Y2320470D02*
X1905330Y2360700D01*
X1865060Y2320500D02*
X1865100Y2320470D01*
X2053110Y2642890D02*
X2103790D01*
X1959760Y2555490D02*
X2030270Y2626000D01*
X2036220D01*
X2053110Y2642890D01*
X1959760Y2555490D02*
X1959970D01*
X1902800Y2498530D02*
X1959760Y2555490D01*
X1902800Y2409690D02*
Y2498530D01*
Y2409690D02*
X1905330Y2407160D01*
X2103790Y2642890D02*
X2107500Y2639170D01*
Y2077870D02*
Y2639170D01*
X1612150Y2296080D02*
X1690480D01*
X1579770Y2263700D02*
X1612150Y2296080D01*
X1290620Y2263700D02*
X1579770D01*
X1275560Y2278760D02*
X1290620Y2263700D01*
X1134750Y2278760D02*
X1275560D01*
X1130490Y2283020D02*
X1134750Y2278760D01*
X1101390Y2283020D02*
X1130490D01*
X1101390Y2307140D02*
X1101590Y2307340D01*
X1101390Y2283020D02*
Y2307140D01*
X1845550Y2529910D02*
X1865620Y2549980D01*
X1838870Y2529910D02*
X1845550D01*
X1834030Y2525070D02*
X1838870Y2529910D01*
X1834030Y2523040D02*
Y2525070D01*
X1827410Y2516420D02*
X1834030Y2523040D01*
X1827410Y2431860D02*
Y2516420D01*
Y2431860D02*
X1831530Y2427740D01*
X1857980D01*
X1865930Y2633610D02*
X1876950Y2644630D01*
X1865930Y2592770D02*
Y2633610D01*
Y2592770D02*
X1876010Y2582680D01*
Y2559450D02*
Y2582680D01*
X1866540Y2549980D02*
X1876010Y2559450D01*
X1865620Y2549980D02*
X1866540D01*
X1857980Y2427740D02*
X1881980Y2403740D01*
X1882520D01*
X1699110Y2335850D02*
Y2335860D01*
Y2335850D02*
X1857710D01*
X1886490Y2364630D01*
Y2399780D01*
X1882520Y2403740D02*
X1886490Y2399780D01*
X1680810Y2317560D02*
X1699110Y2335860D01*
X1602390Y2317560D02*
X1680810D01*
X1567530Y2282700D02*
X1602390Y2317560D01*
X1302210Y2282700D02*
X1567530D01*
X1282140Y2302780D02*
X1302210Y2282700D01*
X1141720Y2302780D02*
X1282140D01*
X2261630Y1825160D02*
X2261640Y1825150D01*
X2233430Y2622310D02*
X2261630Y2594110D01*
Y1825160D02*
Y2594110D01*
X1141720Y2302780D02*
Y2307160D01*
X1141560D02*
X1141720D01*
X1726680Y2303310D02*
X1871820D01*
X1884640Y2316140D01*
X1884700D01*
X1920170Y2417260D02*
X1922280Y2415160D01*
Y2353450D02*
Y2415160D01*
X1884700Y2316140D02*
X1922090Y2353530D01*
X1922200D01*
X1922280Y2353450D01*
X2074910Y2524630D02*
X2077990Y2521540D01*
X1956530Y2524630D02*
X2074910D01*
X1920170Y2488270D02*
X1956530Y2524630D01*
X1920170Y2417260D02*
Y2488270D01*
X2056690Y2607520D02*
X2056980Y2607810D01*
X2077990Y2521540D02*
Y2586800D01*
Y2490730D02*
Y2521540D01*
X2071780Y2484530D02*
X2077990Y2490730D01*
X2071780Y2101480D02*
Y2484530D01*
X2056980Y2607810D02*
X2077990Y2586800D01*
X1698230Y2274860D02*
X1726680Y2303310D01*
X1625040Y2274860D02*
X1698230D01*
X1592800Y2242620D02*
X1625040Y2274860D01*
X1277820Y2242620D02*
X1592800D01*
X1262570Y2257870D02*
X1277820Y2242620D01*
X1092220Y2257870D02*
X1262570D01*
X1081120Y2268970D02*
X1092220Y2257870D01*
X1061110Y2268970D02*
X1081120D01*
X1061110D02*
Y2307700D01*
X2240410Y1839510D02*
Y2428890D01*
X2219450Y1818550D02*
X2240410Y1839510D01*
X2219450Y1810610D02*
Y1818550D01*
X1807220Y2534890D02*
X1808310Y2535980D01*
X1807220Y2418000D02*
Y2534890D01*
Y2418000D02*
X1816390Y2408830D01*
X1846830D01*
X1848660Y2406990D01*
X1854160D01*
X1860030Y2401120D01*
X1861500D01*
X1868480Y2394150D01*
Y2373470D02*
Y2394150D01*
X1866590Y2371590D02*
X1868480Y2373470D01*
X1866590Y2368450D02*
Y2371590D01*
X1852790Y2354650D02*
X1866590Y2368450D01*
X1681500Y2354650D02*
X1852790D01*
X1663030Y2336170D02*
X1681500Y2354650D01*
X1622370Y2336170D02*
X1663030D01*
X2164510Y2504790D02*
X2240410Y2428890D01*
X1205320Y2335640D02*
X1205410Y2335560D01*
X1326480D01*
X1334080Y2327960D01*
X1352370D01*
X1362040Y2337630D01*
X1501830D01*
X1510810Y2346600D01*
X1611940D01*
X1622370Y2336170D01*
X1205320Y2335640D02*
X1205850Y2336170D01*
X1025350Y2335640D02*
X1205320D01*
X986190Y2296470D02*
X1025350Y2335640D01*
X2032010Y2102630D02*
X2044810Y2115430D01*
Y2493980D01*
X1763830Y1971460D02*
X1770320Y1977950D01*
X1000490Y1971460D02*
X1763830D01*
X992840Y1979100D02*
X1000490Y1971460D01*
X980850Y1979100D02*
X992840D01*
X2044810Y2493980D02*
X2048740Y2497910D01*
X2866350Y2324860D02*
X2868920Y2322290D01*
Y2174610D02*
Y2322290D01*
Y2174610D02*
X2869420Y2174110D01*
X2869340Y1818840D02*
X2869420Y1818910D01*
Y2174110D01*
X1013290Y1718450D02*
X1022760Y1727920D01*
X932270Y1718450D02*
X1013290D01*
X2017560Y1664890D02*
X2041050Y1641410D01*
X2017560Y1664890D02*
Y1673230D01*
X1962870Y1727920D02*
X2017560Y1673230D01*
X1022760Y1727920D02*
X1962870D01*
X2016820Y2288060D02*
X2016880Y2288000D01*
Y2149380D02*
Y2288000D01*
X1851140Y1983640D02*
X2016880Y2149380D01*
X1809300Y1983640D02*
X1851140D01*
X1018990Y2009060D02*
X1037680Y1990370D01*
X1744060D01*
X1757860Y2004160D01*
X1777460D01*
X1778550Y2003080D01*
X1782550D01*
X1785810Y1999810D01*
X1789440D01*
X1805610Y1983640D01*
X1809300D01*
X943100Y2024590D02*
Y2053560D01*
X1018990Y2009060D02*
X1020000Y2010080D01*
X958630Y2009060D02*
X1018990D01*
X943100Y2024590D02*
X958630Y2009060D01*
X984290Y2010080D02*
X1020000D01*
X2133110Y2291170D02*
X2134790Y2292850D01*
X2133110Y2107060D02*
Y2291170D01*
Y2107060D02*
X2171880Y2068300D01*
Y1864450D02*
Y2068300D01*
X2149800Y1842380D02*
X2171880Y1864450D01*
X2149800Y1711910D02*
Y1842380D01*
X2079940Y1642040D02*
X2149800Y1711910D01*
X2079940Y1641540D02*
Y1642040D01*
X893510Y1748250D02*
X893770Y1748510D01*
X1972980D01*
X2079940Y1641540D01*
X738820Y2003190D02*
X740690Y2005060D01*
X2972520Y2621430D02*
X2976740Y2617210D01*
Y1824550D02*
Y2617210D01*
X768980Y1805080D02*
X1967280D01*
X744440Y1829620D02*
X768980Y1805080D01*
X744200Y1829620D02*
X744440D01*
X738820Y1835000D02*
X744200Y1829620D01*
X738820Y1835000D02*
Y2003190D01*
X336230Y2010870D02*
X341820Y2005280D01*
X336230Y2010870D02*
Y2434260D01*
X1916730Y1780090D02*
X1925030Y1771790D01*
X705440Y1780090D02*
X1916730D01*
X695500Y1790030D02*
X705440Y1780090D01*
X644200Y1929620D02*
X695500Y1878320D01*
Y1790030D02*
Y1878320D01*
X644200Y1929620D02*
X644340Y1929760D01*
Y2043020D01*
X386920D02*
X387030Y2043140D01*
Y2434920D01*
X2949840Y1805860D02*
X2951120Y1807150D01*
Y2594190D01*
X2949840Y1805860D02*
X2949890Y1805910D01*
X834470Y1837990D02*
X844100Y1828360D01*
X1884510D01*
X592880Y1880950D02*
X644200Y1829620D01*
X592880Y1880950D02*
Y2081850D01*
X437880Y2082290D02*
X438160Y2082560D01*
Y2434840D01*
X2925100Y2660600D02*
X2942640Y2678140D01*
X2925100Y1916050D02*
Y2660600D01*
Y1783270D02*
Y1916050D01*
X2941580Y2677080D02*
X2942640Y2678140D01*
X2104060Y1885080D02*
X2138970D01*
X2094440Y1875460D02*
X2104060Y1885080D01*
X936290Y1875770D02*
X936590Y1875460D01*
X2094440D01*
X489420Y1884400D02*
X544200Y1829620D01*
X489420Y1884400D02*
Y2434840D01*
X2901870Y1763790D02*
X2902070Y1763580D01*
X2901870Y1763790D02*
Y1884610D01*
X2898570Y1887910D02*
X2901850Y1884630D01*
X2898570Y1887910D02*
Y2645430D01*
X2901850Y1884630D02*
X2901870Y1884610D01*
X775450Y1980660D02*
X824480Y1931630D01*
X936400D01*
X951320Y1916700D01*
X1816840D01*
X691240Y1981200D02*
X691770Y1980660D01*
X691240Y1981200D02*
Y2025440D01*
X736010Y2070200D01*
Y2393250D01*
X2690490Y1566450D02*
X2725030Y1531910D01*
X3238010D02*
X3280860Y1574770D01*
X2725030Y1531910D02*
X3238010D01*
X2689250Y1964250D02*
X2690490Y1963020D01*
X2689250Y1964250D02*
Y2673760D01*
X2745440Y2729960D01*
X3173560D01*
X3280860Y1574770D02*
Y1595300D01*
X2690490Y1566450D02*
Y1963020D01*
X3275230Y1412500D02*
X3278240Y1415510D01*
X2743750Y1412500D02*
X3275230D01*
X2651920Y1504330D02*
X2743750Y1412500D01*
X2651920Y1504330D02*
Y1936740D01*
X1785820Y1896830D02*
X1785910Y1896740D01*
X945240Y1896830D02*
X1785820D01*
X937080Y1904990D02*
X945240Y1896830D01*
X897280Y1902200D02*
X900070Y1904990D01*
X937080D01*
X1785350Y1896170D02*
X1785910Y1896740D01*
X907160D02*
X915390Y1904960D01*
X902740Y1896740D02*
X907160D01*
X897280Y1902200D02*
X902740Y1896740D01*
X1785910D02*
X1790540Y1892110D01*
X1836800D01*
X1840190Y1895500D01*
Y1896740D01*
X1842810Y1899360D01*
X2088000D01*
X897280Y1902200D02*
X900120Y1899360D01*
X2088000D02*
X2126210Y1937580D01*
X2134020D01*
X390970Y1882860D02*
X444200Y1829620D01*
X300660Y1882860D02*
X390970D01*
X279780Y1903730D02*
X300660Y1882860D01*
X279780Y1903730D02*
Y2117380D01*
X786950D02*
Y2393210D01*
X2651920Y1936740D02*
X2655390Y1940210D01*
Y2701140D01*
X3278240Y1415510D02*
X3302810Y1440080D01*
X3272100Y1409380D02*
X3275230Y1412500D01*
X2599660Y1510320D02*
X2600000Y1510660D01*
Y1937500D01*
X2574660Y1962840D02*
X2600000Y1937500D01*
X2574660Y1962840D02*
Y2027770D01*
X962640Y1933500D02*
X1796170D01*
X1803910Y1941240D01*
X1829780D01*
X1832460Y1938560D01*
Y1938110D02*
Y1938560D01*
Y1938110D02*
X1835050Y1935520D01*
X1844650D01*
X1855190Y1924980D01*
X942080Y1954070D02*
X962640Y1933500D01*
X855100Y1954070D02*
X942080D01*
X837860Y1971310D02*
X855100Y1954070D01*
X837860Y1971310D02*
Y2154300D01*
X309550Y1964270D02*
X344200Y1929620D01*
X309550Y1964270D02*
Y2154270D01*
X837830D02*
X837860Y2154300D01*
Y2392700D01*
X3172700Y2798030D02*
X3173440Y2797290D01*
X2627470Y2798030D02*
X3172700D01*
X2574280Y2028150D02*
X2574660Y2028540D01*
Y2745220D01*
X2627470Y2798030D01*
X2574280Y2028150D02*
X2574660Y2027770D01*
X2689380Y1512720D02*
X2690660Y1511440D01*
X3255390D01*
X3319990Y1576040D01*
Y1595240D01*
X2631250Y1493750D02*
X2631600Y1494100D01*
Y1911460D01*
X2625080Y1917970D02*
X2631600Y1911460D01*
X2625080Y1917970D02*
Y1943820D01*
X2611470Y1957430D02*
X2625080Y1943820D01*
X2631250Y1493750D02*
X2738360Y1386640D01*
X3314720D01*
X2611470Y1957430D02*
Y1994290D01*
X889830Y1988320D02*
X890860Y1989350D01*
Y2153940D01*
X889830Y2154970D02*
X890860Y2153940D01*
X889830Y2154970D02*
Y2391620D01*
X1899810Y1919150D02*
X1996310D01*
X2065590Y1988430D01*
X2080390D01*
X1861780Y1957190D02*
X1899810Y1919150D01*
X1792700Y1957190D02*
X1861780D01*
X1787390Y1951880D02*
X1792700Y1957190D01*
X971040Y1951880D02*
X1787390D01*
X950790Y1972130D02*
X971040Y1951880D01*
X906020Y1972130D02*
X950790D01*
X889830Y1988320D02*
X906020Y1972130D01*
X889830Y2391620D02*
X890940Y2392720D01*
X244200Y2146080D02*
X280770Y2182640D01*
X244200Y1829620D02*
Y2146080D01*
X3212960Y2758080D02*
X3213110Y2757940D01*
X2641380Y2758080D02*
X3212960D01*
X2611720Y1996630D02*
X2612770Y1995590D01*
X2611720Y1996630D02*
Y2728420D01*
X2641380Y2758080D01*
X2611470Y1994290D02*
X2612770Y1995590D01*
X3314720Y1386640D02*
X3340060Y1411980D01*
Y1440270D01*
X102480Y1924430D02*
X134650Y1892260D01*
Y1713340D02*
Y1892260D01*
X107720Y1686410D02*
X134650Y1713340D01*
X107720Y1247290D02*
Y1686410D01*
Y1247290D02*
X116700Y1238310D01*
Y1215860D02*
Y1238310D01*
X101440Y1200600D02*
X116700Y1215860D01*
X101440Y1175450D02*
Y1200600D01*
X896690Y1853590D02*
X897640Y1852630D01*
X1923460D01*
X50640Y2005570D02*
X91560Y2046490D01*
X50640Y1139770D02*
Y2005570D01*
Y1139770D02*
X73330Y1117080D01*
X134650D01*
X83480Y1717110D02*
X89420Y1723040D01*
X83480Y1227530D02*
Y1717110D01*
X543830Y1329240D02*
X544200Y1329620D01*
X543830Y1021330D02*
Y1329240D01*
X499110Y1384520D02*
X544200Y1429620D01*
X499110Y910550D02*
Y1384520D01*
X1351100Y2362200D02*
X1352690Y2363780D01*
X1633740D01*
X1351100Y2362200D02*
X1352920Y2364020D01*
X1298700Y2156550D02*
X1388100D01*
X1237720Y2095570D02*
X1298700Y2156550D01*
X1237720Y2095570D02*
X1237950Y2095330D01*
X1314730Y2309440D02*
X1314830Y2309540D01*
X1361520D01*
X1371650Y2319670D01*
X1565440D01*
X1314730Y2309440D02*
X1315020Y2309730D01*
X1314730Y2309440D02*
X1316510Y2311220D01*
X1314730Y2309440D02*
X1315640Y2310350D01*
X1277460Y2102440D02*
X1293360Y2118340D01*
X1359160D01*
X1277460Y2060220D02*
Y2102440D01*
X1261350Y2197770D02*
X1351010D01*
X1357770Y2191010D01*
X1404170D01*
X1198520Y2134940D02*
X1261350Y2197770D01*
X976230Y2096920D02*
Y2185340D01*
Y2096920D02*
X1000990Y2072160D01*
X1039330D01*
X1054270Y2057230D01*
X1153520D01*
X976230Y2244460D02*
X977110Y2245350D01*
X976230Y2185340D02*
Y2244460D01*
X1205800Y2218660D02*
X1207240Y2217220D01*
X1375150D01*
X1151830Y2058920D02*
X1153520Y2057230D01*
X1151830Y2058920D02*
Y2165030D01*
X1172200Y2185400D01*
X1172540D01*
X1205800Y2218660D01*
X669220Y2574050D02*
X683270Y2560000D01*
X319280Y2574050D02*
X669220D01*
X2414800Y200200D02*
X2415000Y200000D01*
X2414800Y200200D02*
Y2383440D01*
X1832210Y2391100D02*
X1841570Y2381740D01*
X1706310Y2391100D02*
X1832210D01*
X1692140Y2405270D02*
X1706310Y2391100D01*
X1692140Y2405270D02*
Y2423440D01*
X1673840Y2441740D02*
X1692140Y2423440D01*
X1543570Y2441740D02*
X1673840D01*
X1534200Y2451110D02*
X1543570Y2441740D01*
X1534200Y2451110D02*
Y2553170D01*
X939150Y2180280D02*
X939460Y2180580D01*
X939150Y2095120D02*
Y2180280D01*
Y2095120D02*
X996300Y2037980D01*
X1037090D01*
X1329990Y2729990D02*
X1400000Y2800000D01*
X1000070Y2729990D02*
X1329990D01*
X939460Y2669380D02*
X1000070Y2729990D01*
X939460Y2180580D02*
Y2669380D01*
X1400000Y2800000D02*
X1500000Y2900000D01*
X1440420Y2116390D02*
X1470420Y2146390D01*
X1440420Y2113720D02*
Y2116390D01*
X1150580Y1611740D02*
X1189730Y1650890D01*
X1054030Y1611740D02*
X1150580D01*
X1672530Y2152610D02*
X1673050Y2153130D01*
X1719300D01*
X1995100Y2068850D02*
X2001250Y2075000D01*
X1993310Y2068850D02*
X1995100D01*
X2063940Y2075000D02*
X2087500Y2051440D01*
X2001250Y2075000D02*
X2063940D01*
X2141210Y2051440D02*
X2143860Y2054090D01*
X2087500Y2051440D02*
X2141210D01*
X3635420Y1695700D02*
X3639500Y1699780D01*
X3791370D01*
X3831820Y1740240D01*
X3844440D01*
X3663390Y1918350D02*
X3664280Y1919250D01*
X1739300Y1322760D02*
X1745430Y1328890D01*
X1739300Y1065530D02*
X1741160Y1063670D01*
X1739300Y1065530D02*
Y1322760D01*
X1249220Y1562590D02*
X1266930Y1580300D01*
X1249220Y1540520D02*
Y1562590D01*
X2260700Y1669400D02*
X2272430Y1681130D01*
X2200870Y1669400D02*
X2260700D01*
X3203100Y1919520D02*
X3216730Y1905890D01*
X3203100Y1919520D02*
Y1987780D01*
X2115000Y200000D02*
X2145810Y230810D01*
Y628230D01*
X2077120Y696910D02*
X2145810Y628230D01*
X2077120Y696910D02*
Y906340D01*
X2043150Y940310D02*
X2077120Y906340D01*
X2043150Y940310D02*
Y982520D01*
X2215000Y200000D02*
X2215100Y200100D01*
Y417830D01*
X2164650Y468280D02*
X2215100Y417830D01*
X2164650Y468280D02*
Y642570D01*
X2098610Y708610D02*
X2164650Y642570D01*
X2098610Y708610D02*
Y919140D01*
X2072680Y945070D02*
X2098610Y919140D01*
X2072680Y945070D02*
Y1004840D01*
X2191130Y543960D02*
X2214640Y520460D01*
X2188040Y543960D02*
X2191130D01*
X2188040D02*
Y654040D01*
X2120620Y721460D02*
X2188040Y654040D01*
X2120620Y721460D02*
Y932900D01*
X2099700Y953820D02*
X2120620Y932900D01*
X2099700Y953820D02*
Y1030730D01*
X2126710Y1045930D02*
X2127030Y1046250D01*
X2126710Y957590D02*
Y1045930D01*
Y957590D02*
X2142410Y941890D01*
Y731570D02*
Y941890D01*
Y731570D02*
X2197480Y676500D01*
X2290130D01*
X2303690Y662950D01*
Y520340D02*
Y662950D01*
X2336890Y485780D02*
Y680840D01*
Y485780D02*
X2376530Y446140D01*
X2387870D01*
X2318860Y698870D02*
X2336890Y680840D01*
X2203480Y698870D02*
X2318860D01*
X2163570Y738780D02*
X2203480Y698870D01*
X2163570Y738780D02*
Y954120D01*
X2151350Y966340D02*
X2163570Y954120D01*
X2151350Y966340D02*
Y1024500D01*
X2152400Y1025540D01*
X2387130Y524500D02*
Y700700D01*
X2345820Y742010D02*
X2387130Y700700D01*
X2225420Y742010D02*
X2345820D01*
X2208120Y759310D02*
X2225420Y742010D01*
X2208120Y759310D02*
Y982180D01*
X2207250Y983050D02*
X2208120Y982180D01*
X2715000Y200000D02*
Y805460D01*
X2656740Y863720D02*
X2715000Y805460D01*
X2329720Y882360D02*
Y889750D01*
X2337950Y897990D01*
Y1038770D01*
X2332540Y1044180D02*
X2337950Y1038770D01*
X2815000Y200000D02*
X2815100Y200100D01*
Y357390D01*
X2801540Y370950D02*
X2815100Y357390D01*
X2801540Y370950D02*
Y1174390D01*
X1790280Y915030D02*
X1794370Y919120D01*
X1790280Y552270D02*
Y915030D01*
X1794370Y919120D02*
X1794790Y919550D01*
Y1045740D01*
X2915000Y200000D02*
Y543680D01*
X2909950Y548740D02*
X2915000Y543680D01*
X1789520Y551520D02*
X1790280Y552270D01*
X241500Y998630D02*
X241540Y998680D01*
X241500Y969100D02*
Y998630D01*
X241540Y998680D02*
Y1196390D01*
X254010Y1208860D01*
Y1213020D01*
X245180Y1221850D02*
X254010Y1213020D01*
X245180Y1221850D02*
Y1225480D01*
X244200Y1226460D02*
X245180Y1225480D01*
X244200Y1226460D02*
Y1429620D01*
X2909950Y205050D02*
X2915000Y200000D01*
X2914810Y200190D02*
X2915000Y200000D01*
X1474150Y674150D02*
Y1128240D01*
Y674150D02*
X1483570Y664740D01*
X3016640Y201640D02*
Y665790D01*
X3015000Y200000D02*
X3016640Y201640D01*
X396250Y1088250D02*
Y1480130D01*
X346750Y1529620D02*
X396250Y1480130D01*
X344200Y1529620D02*
X346750D01*
X3115000Y200000D02*
Y778570D01*
X3110090Y783470D02*
X3115000Y778570D01*
X2234800Y776860D02*
Y995770D01*
X2198440Y1032130D02*
X2234800Y995770D01*
X2198440Y1032130D02*
Y1110880D01*
X2097070Y1212240D02*
X2198440Y1110880D01*
X2097070Y1212240D02*
Y1254670D01*
X2019070Y1332680D02*
X2097070Y1254670D01*
X1883750Y1332680D02*
X2019070D01*
X1830210Y1386220D02*
X1883750Y1332680D01*
X644200Y1329620D02*
X644210Y1329610D01*
Y1109940D02*
Y1329610D01*
X3149410Y492190D02*
Y785210D01*
X3149370Y785240D02*
X3149410Y785210D01*
X2258620Y800140D02*
Y1001040D01*
X2222720Y1036940D02*
X2258620Y1001040D01*
X2222720Y1036940D02*
Y1122020D01*
X2122050Y1222690D02*
X2222720Y1122020D01*
X2122050Y1222690D02*
Y1273240D01*
X2035310Y1359980D02*
X2122050Y1273240D01*
X1899370Y1359980D02*
X2035310D01*
X1870560Y1388790D02*
X1899370Y1359980D01*
X183890Y1164660D02*
X191750Y1172520D01*
Y1320290D01*
X179630Y1332410D02*
X191750Y1320290D01*
X179630Y1332410D02*
Y1564860D01*
X244200Y1629440D01*
Y1629620D01*
X3345100Y521220D02*
Y791330D01*
X3314730Y490850D02*
X3345100Y521220D01*
X3300750Y835680D02*
X3345100Y791330D01*
X2282480Y824230D02*
Y1009160D01*
X2246200Y1045440D02*
X2282480Y1009160D01*
X2246200Y1045440D02*
Y1127490D01*
X2144810Y1228880D02*
X2246200Y1127490D01*
X2144810Y1228880D02*
Y1286320D01*
X2047150Y1383980D02*
X2144810Y1286320D01*
X1924890Y1383980D02*
X2047150D01*
X1921160Y1380250D02*
X1924890Y1383980D01*
X1920400Y1380250D02*
X1921160D01*
X1865620Y1435040D02*
X1920400Y1380250D01*
X888080Y1161010D02*
Y1301620D01*
X895560Y1309100D01*
Y1663130D01*
X881110Y1677570D02*
X895560Y1663130D01*
X720840Y1677570D02*
X881110D01*
X695720Y1702700D02*
X720840Y1677570D01*
X695720Y1702700D02*
Y1747020D01*
X667390Y1775340D02*
X695720Y1747020D01*
X289160Y1775340D02*
X667390D01*
X244200Y1730390D02*
X289160Y1775340D01*
X244200Y1729620D02*
Y1730390D01*
X3370010Y530780D02*
Y837670D01*
X3409580Y491210D02*
X3414050D01*
X3370010Y530780D02*
X3409580Y491210D01*
X2306410Y848350D02*
Y1018780D01*
X2267070Y1058120D02*
X2306410Y1018780D01*
X2267070Y1058120D02*
Y1136440D01*
X2165680Y1237830D02*
X2267070Y1136440D01*
X2165680Y1237830D02*
Y1293780D01*
X2048640Y1410830D02*
X2165680Y1293780D01*
X1928190Y1410830D02*
X2048640D01*
X1910110Y1428910D02*
X1928190Y1410830D01*
X293910Y1187430D02*
Y1581760D01*
X341770Y1629620D01*
X344200D01*
X744200Y1429620D02*
X745790Y1428030D01*
Y1264440D02*
Y1428030D01*
X1338340Y692060D02*
Y1270650D01*
X3403130Y796630D02*
Y1010630D01*
X3361880Y1051880D02*
X3403130Y1010630D01*
X2950630Y1051880D02*
X3361880D01*
X2874580Y1127920D02*
X2950630Y1051880D01*
X2874580Y1127920D02*
Y1157450D01*
X2870830Y1161200D02*
X2874580Y1157450D01*
X3513040Y638860D02*
X3515630Y641440D01*
Y684120D01*
X3403130Y796630D02*
X3515630Y684120D01*
X2303740Y1142880D02*
X2304780D01*
X2186860Y1260800D02*
X2304780Y1142880D01*
X2186860Y1260800D02*
Y1316910D01*
X2142190Y1361590D02*
X2186860Y1316910D01*
X2142190Y1361590D02*
Y1384970D01*
X2085570Y1441590D02*
X2142190Y1384970D01*
X1938570Y1441590D02*
X2085570D01*
X1912340Y1467820D02*
X1938570Y1441590D01*
X1912330Y1467820D02*
X1912340D01*
X199110Y1345440D02*
X219860Y1324690D01*
Y1213110D02*
Y1324690D01*
X199110Y1345440D02*
Y1483050D01*
X244200Y1528140D01*
Y1529620D01*
X2906250Y1210630D02*
X3040630Y1076250D01*
X2905630Y1210630D02*
X2906250D01*
X2904280Y1211970D02*
X2905630Y1210630D01*
X2869280Y1211970D02*
X2904280D01*
X3430320Y834100D02*
X3430630Y834400D01*
Y1033130D01*
X3387500Y1076250D02*
X3430630Y1033130D01*
X3040630Y1076250D02*
X3387500D01*
X2869280Y1211970D02*
Y1212500D01*
X644200Y1429620D02*
X667550Y1406270D01*
X674760D01*
X693980Y1387050D01*
X714760Y1366270D01*
Y1289380D02*
Y1366270D01*
X3430320Y834100D02*
X3456150Y808270D01*
X2270490Y1212500D02*
X2305820D01*
X2206080Y1276910D02*
X2270490Y1212500D01*
X2206080Y1276910D02*
Y1335620D01*
X2169200Y1372500D02*
X2206080Y1335620D01*
X2169200Y1372500D02*
Y1399510D01*
X2098550Y1470160D02*
X2169200Y1399510D01*
X1954150Y1470160D02*
X2098550D01*
X2732510Y1311670D02*
X2750430Y1293750D01*
X3718750D01*
X3796330Y1216170D01*
Y889140D02*
Y1216170D01*
Y889140D02*
X3914960Y770510D01*
Y200040D02*
X3915000Y200000D01*
X3914960Y200040D02*
Y770510D01*
X2732510Y1311670D02*
Y1316150D01*
X2251640Y1327460D02*
X2251670Y1327480D01*
X2251640Y1306500D02*
Y1327460D01*
Y1306500D02*
X2272160Y1285990D01*
X2303830D01*
X2251670Y1327480D02*
Y1446640D01*
X2245720Y1452590D02*
X2251670Y1446640D01*
X2189770Y1452590D02*
X2245720D01*
X2121700Y1520660D02*
X2189770Y1452590D01*
X1999010Y1520660D02*
X2121700D01*
X1982380Y1537290D02*
X1999010Y1520660D01*
X1982240Y1537290D02*
X1982380D01*
X2654420Y1359590D02*
X2654950Y1360120D01*
X2654420Y1105360D02*
Y1359590D01*
X2305490Y1370740D02*
X2308500Y1373750D01*
Y1495200D01*
X1997810Y1608490D02*
X1999920D01*
X4013870Y201130D02*
X4015000Y200000D01*
X4013870Y201130D02*
Y851910D01*
X2686220Y888780D02*
X2686770Y888240D01*
X2686220Y888780D02*
Y1073560D01*
X2654420Y1105360D02*
X2686220Y1073560D01*
X2301920Y1501780D02*
X2308500Y1495200D01*
X2207630Y1501780D02*
X2301920D01*
X2136170Y1573240D02*
X2207630Y1501780D01*
X2035170Y1573240D02*
X2136170D01*
X1999920Y1608490D02*
X2035170Y1573240D01*
X3727360Y1319280D02*
X3818900Y1227730D01*
Y901540D02*
Y1227730D01*
Y901540D02*
X3824120Y896320D01*
Y895240D02*
Y896320D01*
X2766270Y1319280D02*
X3727360D01*
X2743670Y1341880D02*
X2766270Y1319280D01*
X2718770Y1341880D02*
X2743670D01*
X2704250Y1327360D02*
X2718770Y1341880D01*
X2691450Y1327360D02*
X2704250D01*
X3824120Y895240D02*
X3896140Y823210D01*
X3916010D01*
X944710Y1543050D02*
Y1632340D01*
Y1543050D02*
X945300Y1542470D01*
X2691450Y1326210D02*
Y1327360D01*
X2274890Y1337210D02*
X2287740Y1324370D01*
X2303380D01*
X2274890Y1337210D02*
Y1469710D01*
X2264840Y1479760D02*
X2274890Y1469710D01*
X2201350Y1479760D02*
X2264840D01*
X2131910Y1549200D02*
X2201350Y1479760D01*
X2017260Y1549200D02*
X2131910D01*
X1991750Y1574700D02*
X2017260Y1549200D01*
X1984510Y1574700D02*
X1991750D01*
X3045630Y1100000D02*
Y1103130D01*
X2898180Y1250570D02*
X3045630Y1103130D01*
X2846640Y1250570D02*
X2898180D01*
X3456700Y859710D02*
X3456880Y859890D01*
Y1058130D01*
X3415000Y1100000D02*
X3456880Y1058130D01*
X3045630Y1100000D02*
X3415000D01*
X863520Y1331420D02*
X871470Y1339370D01*
Y1570520D01*
X858000Y1583990D02*
X871470Y1570520D01*
X697170Y1583990D02*
X858000D01*
X651550Y1629620D02*
X697170Y1583990D01*
X644200Y1629620D02*
X651550D01*
X3456700Y859710D02*
X3456910Y859920D01*
X2304270Y1249610D02*
X2304790Y1250130D01*
X2270500Y1249610D02*
X2304270D01*
X2228420Y1291690D02*
X2270500Y1249610D01*
X2228420Y1291690D02*
Y1361440D01*
X2218500Y1371360D02*
X2228420Y1361440D01*
X2211590Y1371360D02*
X2218500D01*
X2195360Y1387590D02*
X2211590Y1371360D01*
X2195360Y1387590D02*
Y1408930D01*
X2175520Y1428770D02*
X2195360Y1408930D01*
X2175220Y1428770D02*
X2175520D01*
X2110140Y1493850D02*
X2175220Y1428770D01*
X1972300Y1493850D02*
X2110140D01*
X1956090Y1510060D02*
X1972300Y1493850D01*
X1954840Y1510060D02*
X1956090D01*
X916910Y1290130D02*
Y1666880D01*
X1311230Y721120D02*
X1312940Y719420D01*
X1311230Y721120D02*
Y1289800D01*
X3714770Y200230D02*
X3715000Y200000D01*
X3714770Y200230D02*
Y417510D01*
X3683360Y448930D02*
X3714770Y417510D01*
X3683360Y448930D02*
Y681630D01*
X852850Y1730950D02*
X916910Y1666880D01*
X852850Y1730950D02*
X856130D01*
X1280000Y741210D02*
X1280180Y741030D01*
X1280000Y1233750D02*
Y1235000D01*
X1285630Y1239510D02*
X1286150Y1240030D01*
X1285630Y1239380D02*
Y1239510D01*
X1280000Y1235000D02*
X1286250Y1241250D01*
X1280000Y741210D02*
Y1233750D01*
X1285630Y1239380D01*
X1286150Y1240030D02*
X1286430Y1239750D01*
X3569140Y751610D02*
X3615000Y705750D01*
Y200000D02*
Y705750D01*
X134100Y1253410D02*
X150010Y1237500D01*
X134100Y1253410D02*
Y1445890D01*
X1606000Y766620D02*
X1606380Y766240D01*
Y439190D02*
Y766240D01*
X2011260Y767680D02*
X2011300Y767720D01*
Y871040D01*
X1956060Y1034680D02*
X1956100Y1034720D01*
X1956060Y926280D02*
Y1034680D01*
Y926280D02*
X2011300Y871040D01*
X1923880Y1049640D02*
X1924030Y1049790D01*
X1923880Y891220D02*
Y1049640D01*
X1901510Y868860D02*
X1923880Y891220D01*
X1541850Y396390D02*
Y635590D01*
X1546820Y640560D01*
X1885710Y638840D02*
Y843960D01*
X1901510Y859750D01*
Y868860D01*
X2098300Y579410D02*
X2099770Y577940D01*
X2098300Y579410D02*
Y609060D01*
X2038590Y668770D02*
X2098300Y609060D01*
X2038590Y668770D02*
Y878960D01*
X1988170Y929380D02*
X2038590Y878960D01*
X1988170Y929380D02*
Y1005010D01*
X1985000Y1008190D02*
X1988170Y1005010D01*
X1985000Y1008190D02*
Y1015980D01*
X1837290Y438650D02*
X1837500Y438860D01*
Y804380D01*
X1843750Y810630D01*
Y853750D01*
X1861960Y871960D01*
Y1061160D01*
X1914950Y200050D02*
X1915000Y200000D01*
X1914950Y200050D02*
Y360990D01*
X1837290Y438650D02*
X1914950Y360990D01*
X1776090Y1147030D02*
X1861960Y1061160D01*
X1776090Y1147030D02*
Y1629730D01*
X1815000Y200000D02*
X1817250Y202250D01*
Y822140D01*
X1227830Y826680D02*
X1233230Y821280D01*
X1814750Y200250D02*
X1815000Y200000D01*
X1227830Y826680D02*
Y1388760D01*
X1240430Y1401360D01*
Y1425300D01*
X1207270Y799150D02*
X1212170Y794250D01*
X1743360Y407750D02*
Y794510D01*
X1207270Y1406210D02*
X1212370Y1411310D01*
X1207270Y799150D02*
Y1406210D01*
X1714550Y200450D02*
X1715000Y200000D01*
X1714550Y200450D02*
Y378950D01*
X1743360Y407750D01*
X1212370Y1411150D02*
Y1411310D01*
X1614950Y200050D02*
X1615000Y200000D01*
X1614950Y200050D02*
Y353660D01*
X1570560Y398050D02*
X1614950Y353660D01*
X1570560Y398050D02*
Y580980D01*
X1615000Y200000D02*
X1615580Y200580D01*
X1615000Y200000D02*
X1615470Y200470D01*
X1184580Y551900D02*
Y1430000D01*
X1085290Y766580D02*
X1088780Y770070D01*
Y1410630D01*
X1512530Y766210D02*
X1512620Y766300D01*
X1512530Y202470D02*
Y766210D01*
Y202470D02*
X1515000Y200000D01*
X1168290Y452650D02*
X1178990Y441960D01*
X1158180Y452650D02*
X1168290D01*
X1158180D02*
Y1476380D01*
X1165030Y1483230D01*
Y1483710D01*
X1122020Y1491030D02*
X1126920Y1486140D01*
X1137370D01*
Y414160D02*
X1140900Y410630D01*
X1137370Y414160D02*
Y1486140D01*
X1140900Y410630D02*
X1141400Y411140D01*
X1140900Y410630D02*
X1164700Y386830D01*
X1072630Y441400D02*
X1072830Y441600D01*
Y638200D01*
X1418800D02*
Y1626060D01*
X1450290Y1657540D01*
Y1660840D01*
X1633010Y470200D02*
X1637430Y474620D01*
Y511370D01*
X1640290Y514230D01*
Y1011850D01*
X1633010Y470200D02*
X1635830Y473020D01*
X1603370Y1048780D02*
X1640290Y1011850D01*
X1603370Y1048780D02*
Y1079990D01*
X1609840Y1086470D01*
X1643720Y1120350D01*
Y1617520D01*
X1593670Y1667570D02*
X1643720Y1617520D01*
X1593670Y1667570D02*
Y1675720D01*
X1687800Y524040D02*
X1689850Y526100D01*
Y1634470D01*
X1674180Y1650130D02*
X1689850Y1634470D01*
X1674180Y1650130D02*
Y1674650D01*
X1387980Y610230D02*
X1391590Y613840D01*
Y1630090D01*
X1410900Y1649410D01*
Y1660810D01*
X1366970Y1660610D02*
X1368220Y1661860D01*
X1366970Y683760D02*
Y1660610D01*
X1346970Y663750D02*
X1366970Y683760D01*
X1324700Y663750D02*
X1346970D01*
X1304320Y643370D02*
X1324700Y663750D01*
X1304320Y581570D02*
Y643370D01*
X914200Y200800D02*
X915000Y200000D01*
X914200Y200800D02*
Y581800D01*
X1015000Y200000D02*
X1016750Y201750D01*
Y496810D01*
X1662510Y497280D02*
X1664780Y499550D01*
Y1627340D01*
X1015000Y200000D02*
X1015690Y200690D01*
X1635960Y1656150D02*
X1664780Y1627340D01*
X1635960Y1656150D02*
Y1674930D01*
X1078750Y1487000D02*
X1084020Y1492280D01*
X1078750Y1478130D02*
Y1487000D01*
Y1478130D02*
X1115000Y1441880D01*
Y200000D02*
Y1441880D01*
X1114930Y200070D02*
X1115000Y200000D01*
X1469480Y1639120D02*
X1491130Y1660770D01*
X1469480Y1638600D02*
Y1639120D01*
X1446810Y1615920D02*
X1469480Y1638600D01*
X1446810Y665160D02*
Y1615920D01*
X1214360Y200640D02*
X1215000Y200000D01*
X1214360Y200640D02*
Y664930D01*
X1395820Y552110D02*
X1395970Y552260D01*
X1396150D01*
X1395820Y552110D02*
X1395880Y552060D01*
Y551990D02*
Y552060D01*
X1315000Y200000D02*
X1316190Y201190D01*
Y501110D01*
X1367350Y552260D01*
X1395970D01*
X1315000Y200000D02*
X1315750Y200750D01*
X1716180Y552270D02*
X1716320Y552410D01*
Y1676100D01*
X1315000Y200000D02*
X1315090Y200090D01*
X2107560Y519750D02*
X2126520Y538720D01*
X2128110D01*
Y612810D01*
X2058370Y682560D02*
X2128110Y612810D01*
X2058370Y682560D02*
Y890280D01*
X2013680Y934970D02*
X2058370Y890280D01*
X2013680Y934970D02*
Y996540D01*
X2827480Y1198030D02*
X2844800Y1180710D01*
Y442770D02*
Y1180710D01*
X1362650Y2036240D02*
X1391320Y2064910D01*
X1391780D01*
X1107820Y1680640D02*
X1130130Y1658330D01*
X1054030Y1680640D02*
X1107820D01*
X1674910Y2199050D02*
X1680210Y2193750D01*
X1763750D01*
X1788200Y2169300D01*
Y2153130D02*
Y2169300D01*
X2044190Y2022400D02*
X2087600D01*
X2082810Y1934890D02*
X2111880Y1963950D01*
Y1998130D01*
X2087600Y2022400D02*
X2111880Y1998130D01*
X1300340Y1494620D02*
X1339400Y1533680D01*
X1300340Y1494330D02*
Y1494620D01*
Y1494330D02*
X1321330D01*
X2227900Y1600500D02*
X2259030Y1631630D01*
X2200870Y1600500D02*
X2227900D01*
X3270300Y1905750D02*
X3281840Y1917290D01*
Y1987780D01*
D12*
X3220260Y1458220D02*
D03*
X3141520D02*
D03*
X3203100Y1987780D02*
D03*
X3281840D02*
D03*
D15*
X1788200Y2153130D02*
D03*
X1719300D02*
D03*
D16*
X3664280Y1997990D02*
D03*
Y1919250D02*
D03*
X3731220Y1660940D02*
D03*
Y1739680D02*
D03*
X3844440Y1661490D02*
D03*
Y1740230D02*
D03*
X3730960Y1513330D02*
D03*
Y1592070D02*
D03*
D24*
X115000Y200000D02*
D03*
X215000D02*
D03*
X315000D02*
D03*
X415000D02*
D03*
X515000D02*
D03*
X615000D02*
D03*
X715000D02*
D03*
X815000D02*
D03*
X915000D02*
D03*
X1015000D02*
D03*
X1115000D02*
D03*
X1215000D02*
D03*
X1315000D02*
D03*
X1415000D02*
D03*
X1515000D02*
D03*
X1615000D02*
D03*
X1715000D02*
D03*
X1815000D02*
D03*
X1915000D02*
D03*
X2015000D02*
D03*
X2115000D02*
D03*
X2215000D02*
D03*
X2315000D02*
D03*
X2415000D02*
D03*
X2515000D02*
D03*
X2615000D02*
D03*
X2715000D02*
D03*
X2815000D02*
D03*
X2915000D02*
D03*
X3015000D02*
D03*
X3115000D02*
D03*
X3215000D02*
D03*
X3315000D02*
D03*
X3415000D02*
D03*
X3515000D02*
D03*
X3615000D02*
D03*
X3715000D02*
D03*
X3815000D02*
D03*
X3915000D02*
D03*
X4015000D02*
D03*
X4115000D02*
D03*
X4215000D02*
D03*
X4315000D02*
D03*
X4415000D02*
D03*
X4515000D02*
D03*
X4615000D02*
D03*
X4715000D02*
D03*
X4815000D02*
D03*
X4915000D02*
D03*
X5015000D02*
D03*
D28*
X1054030Y1611740D02*
D03*
Y1680640D02*
D03*
X2200870Y1600500D02*
D03*
Y1669400D02*
D03*
D34*
X1375000Y2600000D02*
Y2625000D01*
X1500000Y2750000D01*
X1600000D01*
X1700000Y2850000D01*
Y2900000D01*
D35*
X3634970Y1729640D02*
X3645010Y1739680D01*
X3731220D01*
X3844440Y1644220D02*
Y1661490D01*
D36*
X3264110Y1458220D02*
X3269240Y1453100D01*
X3220260Y1458220D02*
X3264110D01*
X3639090Y1589030D02*
X3642130Y1592070D01*
X3730960D01*
X3663390Y1831340D02*
Y1918350D01*
X3825000Y1512500D02*
X3844380Y1531880D01*
X3750000Y1512500D02*
X3825000D01*
X3649380Y2126250D02*
X3664280Y2111340D01*
Y1997990D02*
Y2111340D01*
X3844380Y1661430D02*
X3844440Y1661490D01*
X3844380Y1531880D02*
Y1661430D01*
X3730960Y1513330D02*
X3772080D01*
X3727560Y1516740D02*
X3730960Y1513330D01*
X3631920Y1516740D02*
X3727560D01*
X3844440Y1661490D02*
X3848170Y1657760D01*
X3843880Y1660940D02*
X3844440Y1661490D01*
X3731220Y1660940D02*
X3843880D01*
X3078250Y1480590D02*
X3100620Y1458220D01*
X3141520D01*
D37*
X3815000Y200000D02*
Y485000D01*
X3812500Y487500D02*
X3815000Y485000D01*
X4412500Y462500D02*
X4415000Y460000D01*
Y200000D02*
Y460000D01*
X4915000Y200000D02*
Y460000D01*
X4912500Y462500D02*
X4915000Y460000D01*
X5012500Y462500D02*
X5015000Y460000D01*
Y200000D02*
Y460000D01*
X3215000Y200000D02*
Y435000D01*
X3212500Y437500D02*
X3215000Y435000D01*
X2612500Y437500D02*
X2615000Y435000D01*
Y200000D02*
Y435000D01*
X2015000Y200000D02*
Y435000D01*
X2012500Y437500D02*
X2015000Y435000D01*
X1412500Y437500D02*
X1415000Y435000D01*
Y200000D02*
Y435000D01*
X812500Y450000D02*
X815000Y447500D01*
Y200000D02*
Y447500D01*
X715000Y200000D02*
Y447500D01*
X712500Y450000D02*
X715000Y447500D01*
X612500Y450000D02*
X615000Y447500D01*
Y200000D02*
Y447500D01*
X115000Y200000D02*
Y447500D01*
X112500Y450000D02*
X115000Y447500D01*
D38*
X4812500Y462500D02*
X4815000Y460000D01*
Y200000D02*
Y460000D01*
D40*
X4132500Y1918750D02*
D03*
X4232500D02*
D03*
X4132500Y1818750D02*
D03*
X4232500D02*
D03*
X4132500Y1718750D02*
D03*
X4232500D02*
D03*
X4132500Y1618750D02*
D03*
X4232500D02*
D03*
X4132500Y1518750D02*
D03*
X4232500D02*
D03*
X4132500Y1418750D02*
D03*
X4232500D02*
D03*
X4132500Y1318750D02*
D03*
X4232500D02*
D03*
X75000Y2525000D02*
D03*
X175000D02*
D03*
X75000Y2425000D02*
D03*
X175000D02*
D03*
X75000Y2325000D02*
D03*
X175000D02*
D03*
X75000Y2225000D02*
D03*
X175000D02*
D03*
X75000Y2125000D02*
D03*
X175000D02*
D03*
D41*
X4765630Y1192500D02*
D03*
X4665630D02*
D03*
X4667500Y2044380D02*
D03*
X4767500D02*
D03*
X2375000Y2975000D02*
D03*
X2475000D02*
D03*
D42*
X4996880Y1847500D02*
D03*
Y1397500D02*
D03*
D43*
X4456880Y1837500D02*
D03*
Y1737500D02*
D03*
Y1507500D02*
D03*
Y1407500D02*
D03*
X4746880Y1447500D02*
D03*
X4646880Y1497500D02*
D03*
X4746880Y1547500D02*
D03*
X4646880Y1597500D02*
D03*
X4746880Y1647500D02*
D03*
X4646880Y1697500D02*
D03*
X4746880Y1747500D02*
D03*
X4646880Y1797500D02*
D03*
D44*
X4876880Y1927500D02*
D03*
Y1317500D02*
D03*
D45*
X358400Y810250D02*
D03*
Y710250D02*
D03*
X594800Y701080D02*
D03*
Y801080D02*
D03*
X126970Y814320D02*
D03*
Y714320D02*
D03*
D46*
X3138750Y1188750D02*
D03*
X3338750D02*
D03*
D47*
X3743700Y3039370D02*
D03*
Y2960630D02*
D03*
X3664960Y3039370D02*
D03*
Y2960630D02*
D03*
X3586220Y3039370D02*
D03*
Y2960630D02*
D03*
X3507480Y3039370D02*
D03*
Y2960630D02*
D03*
X3428740Y3039370D02*
D03*
Y2960630D02*
D03*
X3350000Y3039370D02*
D03*
Y2960630D02*
D03*
X3271260Y3039370D02*
D03*
Y2960630D02*
D03*
X3192520Y3039370D02*
D03*
Y2960630D02*
D03*
X3113780Y3039370D02*
D03*
Y2960630D02*
D03*
X3035040Y3039370D02*
D03*
Y2960630D02*
D03*
X2956300Y3039370D02*
D03*
D48*
Y2960630D02*
D03*
D49*
X2100000Y3000000D02*
D03*
Y2900000D02*
D03*
X2000000D02*
D03*
Y3000000D02*
D03*
X1900000D02*
D03*
Y2900000D02*
D03*
X1800000D02*
D03*
Y3000000D02*
D03*
X1700000D02*
D03*
Y2900000D02*
D03*
X1600000D02*
D03*
Y3000000D02*
D03*
X1500000D02*
D03*
Y2900000D02*
D03*
X1400000Y3000000D02*
D03*
Y2900000D02*
D03*
X1300000Y3000000D02*
D03*
Y2900000D02*
D03*
X1200000Y3000000D02*
D03*
Y2900000D02*
D03*
X1100000Y3000000D02*
D03*
Y2900000D02*
D03*
X1000000Y3000000D02*
D03*
Y2900000D02*
D03*
X900000Y3000000D02*
D03*
Y2900000D02*
D03*
X800000Y3000000D02*
D03*
Y2900000D02*
D03*
X700000Y3000000D02*
D03*
Y2900000D02*
D03*
X600000Y3000000D02*
D03*
Y2900000D02*
D03*
X500000Y3000000D02*
D03*
Y2900000D02*
D03*
X400000Y3000000D02*
D03*
Y2900000D02*
D03*
X300000Y3000000D02*
D03*
Y2900000D02*
D03*
X200000Y3000000D02*
D03*
Y2900000D02*
D03*
D50*
X444200Y1329620D02*
D03*
X344200Y1429620D02*
D03*
Y1329620D02*
D03*
X244200Y1429620D02*
D03*
X344200Y1529620D02*
D03*
X244200D02*
D03*
X344200Y1629620D02*
D03*
X244200D02*
D03*
X344200Y1729620D02*
D03*
X244200D02*
D03*
X344200Y1829620D02*
D03*
X244200D02*
D03*
X344200Y1929620D02*
D03*
X444200Y1829620D02*
D03*
Y1929620D02*
D03*
X544200Y1829620D02*
D03*
Y1929620D02*
D03*
X644200Y1829620D02*
D03*
Y1929620D02*
D03*
X744200Y1829620D02*
D03*
X644200Y1729620D02*
D03*
X744200D02*
D03*
X644200Y1629620D02*
D03*
X744200D02*
D03*
X644200Y1529620D02*
D03*
X744200D02*
D03*
X644200Y1429620D02*
D03*
X744200D02*
D03*
X644200Y1329620D02*
D03*
X544200Y1429620D02*
D03*
Y1329620D02*
D03*
D51*
X444200Y1429620D02*
D03*
D52*
X4018750Y1506250D02*
D03*
X3922500Y1511250D02*
D03*
X4025000Y1808750D02*
D03*
X414380Y431880D02*
D03*
X1035630Y638750D02*
D03*
X1056250Y1520000D02*
D03*
X3928090Y1329650D02*
D03*
X3849380Y1289380D02*
D03*
X3960630Y1296250D02*
D03*
X3485130Y1442720D02*
D03*
X3522170Y1444460D02*
D03*
X3790280Y1438970D02*
D03*
X2441530Y998330D02*
D03*
X2473890Y2363990D02*
D03*
X3226630Y2241980D02*
D03*
X2460560Y1028320D02*
D03*
X2509240Y2345050D02*
D03*
X3125900Y2227580D02*
D03*
X986460Y2344590D02*
D03*
X1034340Y2364480D02*
D03*
X3004360Y2018030D02*
D03*
X3009610Y1887310D02*
D03*
X1828450Y932870D02*
D03*
X1833450Y1043770D02*
D03*
X2532160Y916550D02*
D03*
X2541950Y1557460D02*
D03*
X2750400Y1557970D02*
D03*
X2735450Y1936320D02*
D03*
X3029180Y1988440D02*
D03*
X3029720Y1935720D02*
D03*
X2289480Y2636910D02*
D03*
X2292970Y1752060D02*
D03*
X2315140Y2123700D02*
D03*
Y2248940D02*
D03*
X2213940Y2142250D02*
D03*
X2213590Y2275290D02*
D03*
X3969830Y827450D02*
D03*
X2537500Y2118750D02*
D03*
X4115000Y725000D02*
D03*
X3864990Y1126970D02*
D03*
X2359950Y1126390D02*
D03*
X1247460Y1701840D02*
D03*
X774220Y910590D02*
D03*
X775720Y1022070D02*
D03*
X1502500Y950630D02*
D03*
X839430Y922410D02*
D03*
X1615500Y1330750D02*
D03*
X1502560Y897370D02*
D03*
X1615470Y1296280D02*
D03*
X1552440Y951310D02*
D03*
X1615010Y1258730D02*
D03*
X285740Y942350D02*
D03*
X2602070Y914520D02*
D03*
Y1415160D02*
D03*
X2681300Y522650D02*
D03*
X2633890Y888360D02*
D03*
X2361260Y882270D02*
D03*
X2357680Y1068080D02*
D03*
X2442470Y484990D02*
D03*
X2387070Y484910D02*
D03*
X2175430Y1006610D02*
D03*
X4314350Y536530D02*
D03*
X4313300Y878370D02*
D03*
X2593190Y1049710D02*
D03*
X2575740Y1441810D02*
D03*
X4213380Y831180D02*
D03*
X2635720Y970060D02*
D03*
X2628460Y1386560D02*
D03*
X4566550Y674790D02*
D03*
X4566020Y464410D02*
D03*
X2333110Y1096360D02*
D03*
X2333040Y1498550D02*
D03*
X4514470Y484450D02*
D03*
X2388420Y943070D02*
D03*
X2387600Y1513420D02*
D03*
X4614450Y537930D02*
D03*
X2479790Y1070120D02*
D03*
X2478030Y1533960D02*
D03*
X4714990Y462830D02*
D03*
X2504790Y996560D02*
D03*
X2504970Y1557170D02*
D03*
X4378270Y573380D02*
D03*
X4378550Y848100D02*
D03*
X2554020Y1070120D02*
D03*
X2554000Y1471170D02*
D03*
X1475830Y417780D02*
D03*
X1475310Y606730D02*
D03*
X1869370Y606770D02*
D03*
X1890520Y1065340D02*
D03*
X1555000Y915630D02*
D03*
X1618770Y1220120D02*
D03*
X776520Y873540D02*
D03*
X1127830Y2406060D02*
D03*
X1104970Y2428930D02*
D03*
X1805820Y2671870D02*
D03*
X3464910Y1595710D02*
D03*
X3574130Y1554030D02*
D03*
X3226080Y1617030D02*
D03*
X3304730Y2305590D02*
D03*
X1946850Y2461490D02*
D03*
X1629340Y2088400D02*
D03*
X3306250Y2406250D02*
D03*
X3337930Y1627570D02*
D03*
X3370850Y2387620D02*
D03*
X1847350Y2571560D02*
D03*
X1720940Y2417800D02*
D03*
X3269350Y2263100D02*
D03*
X3392540Y2270770D02*
D03*
X3379500Y1600250D02*
D03*
X1985130Y2373470D02*
D03*
X1697580Y2073480D02*
D03*
X3432490Y1444820D02*
D03*
X3341010Y2296080D02*
D03*
X1974220Y2438300D02*
D03*
X1656210Y2059710D02*
D03*
X2169140Y2276510D02*
D03*
X2303600Y1603060D02*
D03*
X2795360Y1585800D02*
D03*
X3344310Y1685830D02*
D03*
X3254320Y2087420D02*
D03*
X2546070Y2198210D02*
D03*
X3380900Y1896680D02*
D03*
X1877640Y2444750D02*
D03*
X3136990Y2064490D02*
D03*
X3443250Y1872780D02*
D03*
X3094710Y2037760D02*
D03*
X3442540Y1819110D02*
D03*
X2828440Y2336450D02*
D03*
X2875040Y1743710D02*
D03*
X2795580Y2358360D02*
D03*
X2845670Y1724990D02*
D03*
X2765490Y2543340D02*
D03*
X2824310Y1700790D02*
D03*
X1808070Y2590620D02*
D03*
X1755470Y2440030D02*
D03*
X2716710Y1686630D02*
D03*
X2760180Y2576550D02*
D03*
X3363580Y2443210D02*
D03*
X2103790Y2642890D02*
D03*
X2107500Y2077870D02*
D03*
X1101590Y2307340D02*
D03*
X2261640Y1825150D02*
D03*
X2233430Y2622310D02*
D03*
X1876950Y2644630D02*
D03*
X1141560Y2307160D02*
D03*
X2071780Y2101480D02*
D03*
X2056980Y2607810D02*
D03*
X1061110Y2307700D02*
D03*
X2219450Y1810610D02*
D03*
X2164510Y2504790D02*
D03*
X1808310Y2535980D02*
D03*
X986190Y2296470D02*
D03*
X2048740Y2497910D02*
D03*
X2032010Y2102630D02*
D03*
X1770320Y1977950D02*
D03*
X980850Y1979100D02*
D03*
X2866350Y2324860D02*
D03*
X2869340Y1818840D02*
D03*
X2041050Y1641410D02*
D03*
X932270Y1718450D02*
D03*
X2016820Y2288060D02*
D03*
X1809300Y1983640D02*
D03*
X943100Y2053560D02*
D03*
X2134790Y2292850D02*
D03*
X2079940Y1641540D02*
D03*
X893510Y1748250D02*
D03*
X341820Y2005280D02*
D03*
X740690Y2005060D02*
D03*
X2972520Y2621430D02*
D03*
X2976740Y1824550D02*
D03*
X1967280Y1805080D02*
D03*
X336230Y2434260D02*
D03*
X1925030Y1771790D02*
D03*
X644340Y2043020D02*
D03*
X386920D02*
D03*
X387030Y2434920D02*
D03*
X2951120Y2594190D02*
D03*
X2949840Y1805860D02*
D03*
X834470Y1837990D02*
D03*
X1884510Y1828360D02*
D03*
X592880Y2081850D02*
D03*
X437880Y2082290D02*
D03*
X438160Y2434840D02*
D03*
X2925100Y1916050D02*
D03*
X2942640Y2678140D02*
D03*
X2925100Y1783270D02*
D03*
X2138970Y1885080D02*
D03*
X936290Y1875770D02*
D03*
X489420Y2434840D02*
D03*
X2898570Y2645430D02*
D03*
X2902070Y1763580D02*
D03*
X2901850Y1884630D02*
D03*
X775450Y1980660D02*
D03*
X1816840Y1916700D02*
D03*
X691770Y1980660D02*
D03*
X736010Y2393250D02*
D03*
X3173560Y2729960D02*
D03*
X3280860Y1595300D02*
D03*
X2690490Y1963020D02*
D03*
X897280Y1902200D02*
D03*
X2134020Y1937580D02*
D03*
X279780Y2117380D02*
D03*
X786950D02*
D03*
Y2393210D02*
D03*
X2655390Y2701140D02*
D03*
X3302810Y1440080D02*
D03*
X2651920Y1936740D02*
D03*
X1855190Y1924980D02*
D03*
X309550Y2154270D02*
D03*
X837830D02*
D03*
X837860Y2392700D02*
D03*
X3173440Y2797290D02*
D03*
X2599660Y1510320D02*
D03*
X2689380Y1512720D02*
D03*
X3319990Y1595240D02*
D03*
X2574280Y2028150D02*
D03*
X2080390Y1988430D02*
D03*
X890940Y2392720D02*
D03*
X890860Y2153940D02*
D03*
X280770Y2182640D02*
D03*
X3213110Y2757940D02*
D03*
X3340060Y1440270D02*
D03*
X2612770Y1995590D02*
D03*
X101440Y1175450D02*
D03*
X102480Y1924430D02*
D03*
X896690Y1853590D02*
D03*
X1923460Y1852630D02*
D03*
X134650Y1117080D02*
D03*
X91560Y2046490D02*
D03*
X89420Y1723040D02*
D03*
X83480Y1227530D02*
D03*
X543830Y1021330D02*
D03*
X499110Y910550D02*
D03*
X4070000Y531250D02*
D03*
X468400Y600820D02*
D03*
X216390Y613970D02*
D03*
X2658900Y2891530D02*
D03*
X1300000Y2800000D02*
D03*
X1425000Y2425000D02*
D03*
X625000Y2750000D02*
D03*
X150000D02*
D03*
X1633740Y2363780D02*
D03*
X1351100Y2362200D02*
D03*
X1388100Y2156550D02*
D03*
X1237720Y2095570D02*
D03*
X1314730Y2309440D02*
D03*
X1565440Y2319670D02*
D03*
X1359160Y2118340D02*
D03*
X1277460Y2060220D02*
D03*
X1404170Y2191010D02*
D03*
X1198520Y2134940D02*
D03*
X1375150Y2217220D02*
D03*
X1153520Y2057230D02*
D03*
X977110Y2245350D02*
D03*
X683270Y2560000D02*
D03*
X319280Y2574050D02*
D03*
X2414800Y2383440D02*
D03*
X1841570Y2381740D02*
D03*
X1534200Y2553170D02*
D03*
X1037090Y2037980D02*
D03*
X1400000Y2800000D02*
D03*
X1375000Y2600000D02*
D03*
X3729690Y2022140D02*
D03*
X1745430Y1328890D02*
D03*
X1479900Y1430240D02*
D03*
X1266930Y1580300D02*
D03*
X1741160Y1063670D02*
D03*
X2272430Y1681130D02*
D03*
X2143860Y2054090D02*
D03*
X1470420Y2146390D02*
D03*
X1672530Y2152610D02*
D03*
X1189730Y1650890D02*
D03*
X3216730Y1905890D02*
D03*
X3269240Y1453100D02*
D03*
X3054030Y1566960D02*
D03*
X3639090Y1589030D02*
D03*
X3635420Y1695700D02*
D03*
X3634970Y1729640D02*
D03*
X3663390Y1831340D02*
D03*
X2043150Y982520D02*
D03*
X2072680Y1004840D02*
D03*
X2214640Y520460D02*
D03*
X2099700Y1030730D02*
D03*
X2303690Y520340D02*
D03*
X2127030Y1046250D02*
D03*
X2387870Y446140D02*
D03*
X2152400Y1025540D02*
D03*
X2387130Y524500D02*
D03*
X2207250Y983050D02*
D03*
X2656740Y863720D02*
D03*
X2329720Y882360D02*
D03*
X2332540Y1044180D02*
D03*
X2801540Y1174390D02*
D03*
X2909950Y548740D02*
D03*
X241500Y969100D02*
D03*
X1794370Y919120D02*
D03*
X1789520Y551520D02*
D03*
X1794790Y1045740D02*
D03*
X1483570Y664740D02*
D03*
X3016640Y665790D02*
D03*
X1474150Y1128240D02*
D03*
X396250Y1088250D02*
D03*
X3110090Y783470D02*
D03*
X2234800Y776860D02*
D03*
X1830210Y1386220D02*
D03*
X644210Y1109940D02*
D03*
X3149410Y492190D02*
D03*
X3149370Y785240D02*
D03*
X2258620Y800140D02*
D03*
X1870560Y1388790D02*
D03*
X183890Y1164660D02*
D03*
X3314730Y490850D02*
D03*
X3300750Y835680D02*
D03*
X2282480Y824230D02*
D03*
X1865620Y1435040D02*
D03*
X888080Y1161010D02*
D03*
X3370010Y837670D02*
D03*
X3414050Y491210D02*
D03*
X2306410Y848350D02*
D03*
X1910110Y1428910D02*
D03*
X293910Y1187430D02*
D03*
X745790Y1264440D02*
D03*
X1338340Y692060D02*
D03*
Y1270650D02*
D03*
X3513040Y638860D02*
D03*
X2870830Y1161200D02*
D03*
X2303740Y1142880D02*
D03*
X1912330Y1467820D02*
D03*
X219860Y1213110D02*
D03*
X714760Y1289380D02*
D03*
X3456150Y808270D02*
D03*
X2869280Y1212500D02*
D03*
X2305820D02*
D03*
X1954150Y1470160D02*
D03*
X2732510Y1311670D02*
D03*
X2303830Y1285990D02*
D03*
X1982240Y1537290D02*
D03*
X4013870Y851910D02*
D03*
X2686770Y888240D02*
D03*
X2654950Y1360120D02*
D03*
X2305490Y1370740D02*
D03*
X1997810Y1608490D02*
D03*
X945300Y1542470D02*
D03*
X944710Y1632340D02*
D03*
X3916010Y823210D02*
D03*
X2691450Y1326210D02*
D03*
X2303380Y1324370D02*
D03*
X1984510Y1574700D02*
D03*
X863520Y1331420D02*
D03*
X3456700Y859710D02*
D03*
X2846640Y1250570D02*
D03*
X2304790Y1250130D02*
D03*
X1954840Y1510060D02*
D03*
X916910Y1290130D02*
D03*
X1311230Y1289800D02*
D03*
X3683360Y681630D02*
D03*
X1312940Y719420D02*
D03*
X852850Y1730950D02*
D03*
X1280180Y741030D02*
D03*
X3569140Y751610D02*
D03*
X1286150Y1240030D02*
D03*
X150010Y1237500D02*
D03*
X134100Y1445890D02*
D03*
X1606380Y439190D02*
D03*
X1606000Y766620D02*
D03*
X2011260Y767680D02*
D03*
X1956100Y1034720D02*
D03*
X1541850Y396390D02*
D03*
X1546820Y640560D02*
D03*
X1885710Y638840D02*
D03*
X1924030Y1049790D02*
D03*
X1985000Y1015980D02*
D03*
X2099770Y577940D02*
D03*
X1776090Y1629730D02*
D03*
X1817250Y822140D02*
D03*
X1233230Y821280D02*
D03*
X1240430Y1425300D02*
D03*
X1743360Y794510D02*
D03*
X1212170Y794250D02*
D03*
X1212370Y1411310D02*
D03*
X1570560Y580980D02*
D03*
X1184580Y551900D02*
D03*
Y1430000D02*
D03*
X1088780Y1410630D02*
D03*
X1512620Y766300D02*
D03*
X1085290Y766580D02*
D03*
X1165030Y1483710D02*
D03*
X1178990Y441960D02*
D03*
X1164700Y386830D02*
D03*
X1122020Y1491030D02*
D03*
X1072830Y638200D02*
D03*
X1418800D02*
D03*
X1450290Y1660840D02*
D03*
X1072630Y441400D02*
D03*
X1633010Y470200D02*
D03*
X1593670Y1675720D02*
D03*
X1687800Y524040D02*
D03*
X1674180Y1674650D02*
D03*
X1387980Y610230D02*
D03*
X1410900Y1660810D02*
D03*
X1368220Y1661860D02*
D03*
X914200Y581800D02*
D03*
X1304320Y581570D02*
D03*
X1016750Y496810D02*
D03*
X1662510Y497280D02*
D03*
X1635960Y1674930D02*
D03*
X1084020Y1492280D02*
D03*
X1214360Y664930D02*
D03*
X1446810Y665160D02*
D03*
X1491130Y1660770D02*
D03*
X1395820Y552110D02*
D03*
X1716180Y552270D02*
D03*
X1716320Y1676100D02*
D03*
X2107560Y519750D02*
D03*
X2013680Y996540D02*
D03*
X2844800Y442770D02*
D03*
X2827480Y1198030D02*
D03*
X3012500Y1843750D02*
D03*
X3437500Y1693750D02*
D03*
X2910000Y1161250D02*
D03*
X3649380Y2126250D02*
D03*
X3871250Y1925630D02*
D03*
X3631920Y1516740D02*
D03*
X711160Y600440D02*
D03*
X1560750Y1348730D02*
D03*
X2014060Y1295590D02*
D03*
X1339400Y1533680D02*
D03*
X1631920Y1067430D02*
D03*
X2223480Y1398630D02*
D03*
X2084780Y1732040D02*
D03*
X2259030Y1631630D02*
D03*
X1362650Y2036240D02*
D03*
X1080680Y2114000D02*
D03*
X1327040Y2421290D02*
D03*
X3584820Y2516960D02*
D03*
X1130130Y1658330D02*
D03*
X2082810Y1934890D02*
D03*
X162480Y1310720D02*
D03*
X1674910Y2199050D02*
D03*
X3078250Y1480590D02*
D03*
X3270300Y1905750D02*
D03*
X2866690Y1453770D02*
D03*
X3040340Y1629690D02*
D03*
X3506100Y1873050D02*
D03*
X585740Y2506150D02*
D03*
X3601930Y1158630D02*
D03*
X900000Y2525000D02*
D03*
X700000Y2750000D02*
D03*
X250000Y2575000D02*
D03*
X259530Y2796110D02*
D03*
X1505460Y2785150D02*
D03*
D53*
X4191750Y2651500D02*
D03*
X1081030Y2650280D02*
D03*
X4259380Y2651880D02*
D03*
X4122750Y2651250D02*
D03*
X4016880Y2607500D02*
D03*
X3953130D02*
D03*
X3890630Y2605630D02*
D03*
X4030630Y2285000D02*
D03*
X3961250Y2286250D02*
D03*
X3894380Y2286880D02*
D03*
X3828750D02*
D03*
X3760000D02*
D03*
X3762500Y2354380D02*
D03*
X3761880Y2416880D02*
D03*
Y2479380D02*
D03*
Y2536880D02*
D03*
X3703130Y2417500D02*
D03*
Y2478750D02*
D03*
X3825000Y1512500D02*
D03*
X4357500Y2283750D02*
D03*
X4490000Y2341880D02*
D03*
X3873350Y2804570D02*
D03*
X3725230Y2804080D02*
D03*
X3799600Y2804330D02*
D03*
X4293750Y2281250D02*
D03*
X4425630Y2340000D02*
D03*
X4490000Y2405630D02*
D03*
X4426880D02*
D03*
D54*
X4812500Y462500D02*
D03*
X3812500Y487500D02*
D03*
X4412500Y462500D02*
D03*
X4912500D02*
D03*
X5012500D02*
D03*
X3212500Y437500D02*
D03*
X2612500D02*
D03*
X2012500D02*
D03*
X1412500D02*
D03*
X812500Y450000D02*
D03*
X712500D02*
D03*
X612500D02*
D03*
X112500D02*
D03*
D55*
X3703130Y2354380D02*
D03*
X3703750Y2286880D02*
D03*
X3704380Y2536880D02*
D03*
D61*
X1993310Y2022400D02*
D03*
X2044190Y2068860D02*
D03*
X1300341Y1540526D02*
D03*
X1249219Y1494334D02*
D03*
D62*
X1440417Y2064908D02*
D03*
X1391783Y2113712D02*
D03*
%TF.MD5,edb9b1fad9e7af6a58d0a3257b9a1ba4*%
M02*
