%TF.GenerationSoftware,Altium Limited,Altium Designer,19.0.10 (269)*%
G04 Layer_Color=8388736*
%FSLAX26Y26*%
%MOIN*%
%TF.FileFunction,Soldermask,Top*%
%TF.Part,Single*%
G01*
G75*
%TA.AperFunction,SMDPad,CuDef*%
%ADD65R,0.047246X0.048426*%
%ADD67R,0.057086X0.068896*%
%ADD68R,0.068896X0.057086*%
%ADD69R,0.048426X0.047246*%
%TA.AperFunction,ConnectorPad*%
G04:AMPARAMS|DCode=71|XSize=305.906mil|YSize=55.906mil|CornerRadius=27.953mil|HoleSize=0mil|Usage=FLASHONLY|Rotation=90.000|XOffset=0mil|YOffset=0mil|HoleType=Round|Shape=RoundedRectangle|*
%AMROUNDEDRECTD71*
21,1,0.305906,0.000000,0,0,90.0*
21,1,0.250000,0.055906,0,0,90.0*
1,1,0.055906,0.000000,0.125000*
1,1,0.055906,0.000000,-0.125000*
1,1,0.055906,0.000000,-0.125000*
1,1,0.055906,0.000000,0.125000*
%
%ADD71ROUNDEDRECTD71*%
%TA.AperFunction,ComponentPad*%
G04:AMPARAMS|DCode=72|XSize=58.191mil|YSize=58.191mil|CornerRadius=0mil|HoleSize=0mil|Usage=FLASHONLY|Rotation=90.000|XOffset=0mil|YOffset=0mil|HoleType=Round|Shape=Octagon|*
%AMOCTAGOND72*
4,1,8,0.014548,0.029096,-0.014548,0.029096,-0.029096,0.014548,-0.029096,-0.014548,-0.014548,-0.029096,0.014548,-0.029096,0.029096,-0.014548,0.029096,0.014548,0.014548,0.029096,0.0*
%
%ADD72OCTAGOND72*%

%ADD73O,0.059906X0.113906*%
%ADD74C,0.133906*%
%ADD75C,0.064966*%
%ADD76C,0.092516*%
%ADD77O,0.113906X0.059906*%
%ADD78C,0.053906*%
%ADD79C,0.059906*%
%ADD80R,0.058191X0.058191*%
G04:AMPARAMS|DCode=81|XSize=58.191mil|YSize=58.191mil|CornerRadius=0mil|HoleSize=0mil|Usage=FLASHONLY|Rotation=0.000|XOffset=0mil|YOffset=0mil|HoleType=Round|Shape=Octagon|*
%AMOCTAGOND81*
4,1,8,0.029096,-0.014548,0.029096,0.014548,0.014548,0.029096,-0.014548,0.029096,-0.029096,0.014548,-0.029096,-0.014548,-0.014548,-0.029096,0.014548,-0.029096,0.029096,-0.014548,0.0*
%
%ADD81OCTAGOND81*%

G04:AMPARAMS|DCode=82|XSize=66.905mil|YSize=66.905mil|CornerRadius=0mil|HoleSize=0mil|Usage=FLASHONLY|Rotation=180.000|XOffset=0mil|YOffset=0mil|HoleType=Round|Shape=Octagon|*
%AMOCTAGOND82*
4,1,8,-0.033453,0.016726,-0.033453,-0.016726,-0.016726,-0.033453,0.016726,-0.033453,0.033453,-0.016726,0.033453,0.016726,0.016726,0.033453,-0.016726,0.033453,-0.033453,0.016726,0.0*
%
%ADD82OCTAGOND82*%

%ADD83C,0.068906*%
%TA.AperFunction,ViaPad*%
%ADD84C,0.031620*%
%ADD85C,0.035560*%
%ADD86C,0.027690*%
%TA.AperFunction,SMDPad,CuDef*%
%ADD91R,0.068906X0.051906*%
%ADD92R,0.215906X0.081906*%
%ADD93R,0.064966X0.084646*%
%ADD94R,0.045276X0.049216*%
%ADD95R,0.049216X0.045276*%
%ADD96R,0.084646X0.064966*%
%ADD97R,0.068896X0.017716*%
%ADD98R,0.017716X0.068896*%
%ADD99R,0.064966X0.057086*%
%ADD100R,0.051906X0.068906*%
%ADD101R,0.031496X0.025596*%
%ADD102R,0.124016X0.068896*%
%ADD103R,0.249996X0.234256*%
%ADD104R,0.120076X0.064966*%
%ADD105R,0.017716X0.045276*%
%ADD106R,0.076776X0.131886*%
G04:AMPARAMS|DCode=107|XSize=16.536mil|YSize=64.966mil|CornerRadius=0mil|HoleSize=0mil|Usage=FLASHONLY|Rotation=225.000|XOffset=0mil|YOffset=0mil|HoleType=Round|Shape=Rectangle|*
%AMROTATEDRECTD107*
4,1,4,-0.017123,0.028815,0.028815,-0.017123,0.017123,-0.028815,-0.028815,0.017123,-0.017123,0.028815,0.0*
%
%ADD107ROTATEDRECTD107*%

G04:AMPARAMS|DCode=108|XSize=64.966mil|YSize=16.536mil|CornerRadius=0mil|HoleSize=0mil|Usage=FLASHONLY|Rotation=225.000|XOffset=0mil|YOffset=0mil|HoleType=Round|Shape=Rectangle|*
%AMROTATEDRECTD108*
4,1,4,0.017123,0.028815,0.028815,0.017123,-0.017123,-0.028815,-0.028815,-0.017123,0.017123,0.028815,0.0*
%
%ADD108ROTATEDRECTD108*%

G36*
X608650Y936370D02*
Y864370D01*
X602650D01*
Y936370D01*
X608650D01*
D02*
G37*
G36*
X5061000Y1572000D02*
X4989000D01*
Y1578000D01*
X5061000D01*
Y1572000D01*
D02*
G37*
D65*
X1651970Y1011970D02*
D03*
X1720870D02*
D03*
D67*
X3866880Y1425000D02*
D03*
X3945620D02*
D03*
X3865850Y1734040D02*
D03*
X3787110D02*
D03*
X3865160Y1655500D02*
D03*
X3786420D02*
D03*
X1160630Y2700000D02*
D03*
X1239370D02*
D03*
X1265620Y2426120D02*
D03*
X1186880D02*
D03*
D68*
X3942320Y2007290D02*
D03*
Y1928550D02*
D03*
X3512280Y1178390D02*
D03*
Y1257130D02*
D03*
X2966670Y1178050D02*
D03*
Y1256790D02*
D03*
X2986090Y1559680D02*
D03*
Y1638420D02*
D03*
X2850000Y3039370D02*
D03*
Y2960630D02*
D03*
D69*
X4290000Y2359930D02*
D03*
Y2428830D02*
D03*
X600000Y2615550D02*
D03*
Y2684450D02*
D03*
X94090Y1310640D02*
D03*
Y1379540D02*
D03*
X1442500Y2583050D02*
D03*
Y2651950D02*
D03*
X225000Y2640550D02*
D03*
Y2709450D02*
D03*
D71*
X115000Y200000D02*
D03*
X215000D02*
D03*
X315000D02*
D03*
X415000D02*
D03*
X515000D02*
D03*
X615000D02*
D03*
X715000D02*
D03*
X815000D02*
D03*
X915000D02*
D03*
X1015000D02*
D03*
X1115000D02*
D03*
X1215000D02*
D03*
X1315000D02*
D03*
X1415000D02*
D03*
X1515000D02*
D03*
X1615000D02*
D03*
X1715000D02*
D03*
X1815000D02*
D03*
X1915000D02*
D03*
X2015000D02*
D03*
X2115000D02*
D03*
X2215000D02*
D03*
X2315000D02*
D03*
X2415000D02*
D03*
X2515000D02*
D03*
X2615000D02*
D03*
X2715000D02*
D03*
X2815000D02*
D03*
X2915000D02*
D03*
X3015000D02*
D03*
X3115000D02*
D03*
X3215000D02*
D03*
X3315000D02*
D03*
X3415000D02*
D03*
X3515000D02*
D03*
X3615000D02*
D03*
X3715000D02*
D03*
X3815000D02*
D03*
X3915000D02*
D03*
X4015000D02*
D03*
X4115000D02*
D03*
X4215000D02*
D03*
X4315000D02*
D03*
X4415000D02*
D03*
X4515000D02*
D03*
X4615000D02*
D03*
X4715000D02*
D03*
X4815000D02*
D03*
X4915000D02*
D03*
X5015000D02*
D03*
D72*
X4132500Y1918750D02*
D03*
X4232500D02*
D03*
X4132500Y1818750D02*
D03*
X4232500D02*
D03*
X4132500Y1718750D02*
D03*
X4232500D02*
D03*
X4132500Y1618750D02*
D03*
X4232500D02*
D03*
X4132500Y1518750D02*
D03*
X4232500D02*
D03*
X4132500Y1418750D02*
D03*
X4232500D02*
D03*
X4132500Y1318750D02*
D03*
X4232500D02*
D03*
X75000Y2525000D02*
D03*
X175000D02*
D03*
X75000Y2425000D02*
D03*
X175000D02*
D03*
X75000Y2325000D02*
D03*
X175000D02*
D03*
X75000Y2225000D02*
D03*
X175000D02*
D03*
X75000Y2125000D02*
D03*
X175000D02*
D03*
D73*
X4765630Y1192500D02*
D03*
X4665630D02*
D03*
X4667500Y2044380D02*
D03*
X4767500D02*
D03*
X2375000Y2975000D02*
D03*
X2475000D02*
D03*
D74*
X4996880Y1847500D02*
D03*
Y1397500D02*
D03*
D75*
X4456880Y1837500D02*
D03*
Y1737500D02*
D03*
Y1507500D02*
D03*
Y1407500D02*
D03*
X4746880Y1447500D02*
D03*
X4646880Y1497500D02*
D03*
X4746880Y1547500D02*
D03*
X4646880Y1597500D02*
D03*
X4746880Y1647500D02*
D03*
X4646880Y1697500D02*
D03*
X4746880Y1747500D02*
D03*
X4646880Y1797500D02*
D03*
D76*
X4876880Y1927500D02*
D03*
Y1317500D02*
D03*
D77*
X358400Y810250D02*
D03*
Y710250D02*
D03*
X594800Y701080D02*
D03*
Y801080D02*
D03*
X126970Y814320D02*
D03*
Y714320D02*
D03*
D78*
X3138750Y1188750D02*
D03*
X3338750D02*
D03*
D79*
X3743700Y3039370D02*
D03*
Y2960630D02*
D03*
X3664960Y3039370D02*
D03*
Y2960630D02*
D03*
X3586220Y3039370D02*
D03*
Y2960630D02*
D03*
X3507480Y3039370D02*
D03*
Y2960630D02*
D03*
X3428740Y3039370D02*
D03*
Y2960630D02*
D03*
X3350000Y3039370D02*
D03*
Y2960630D02*
D03*
X3271260Y3039370D02*
D03*
Y2960630D02*
D03*
X3192520Y3039370D02*
D03*
Y2960630D02*
D03*
X3113780Y3039370D02*
D03*
Y2960630D02*
D03*
X3035040Y3039370D02*
D03*
Y2960630D02*
D03*
X2956300Y3039370D02*
D03*
D80*
Y2960630D02*
D03*
D81*
X2100000Y3000000D02*
D03*
Y2900000D02*
D03*
X2000000D02*
D03*
Y3000000D02*
D03*
X1900000D02*
D03*
Y2900000D02*
D03*
X1800000D02*
D03*
Y3000000D02*
D03*
X1700000D02*
D03*
Y2900000D02*
D03*
X1600000D02*
D03*
Y3000000D02*
D03*
X1500000D02*
D03*
Y2900000D02*
D03*
X1400000Y3000000D02*
D03*
Y2900000D02*
D03*
X1300000Y3000000D02*
D03*
Y2900000D02*
D03*
X1200000Y3000000D02*
D03*
Y2900000D02*
D03*
X1100000Y3000000D02*
D03*
Y2900000D02*
D03*
X1000000Y3000000D02*
D03*
Y2900000D02*
D03*
X900000Y3000000D02*
D03*
Y2900000D02*
D03*
X800000Y3000000D02*
D03*
Y2900000D02*
D03*
X700000Y3000000D02*
D03*
Y2900000D02*
D03*
X600000Y3000000D02*
D03*
Y2900000D02*
D03*
X500000Y3000000D02*
D03*
Y2900000D02*
D03*
X400000Y3000000D02*
D03*
Y2900000D02*
D03*
X300000Y3000000D02*
D03*
Y2900000D02*
D03*
X200000Y3000000D02*
D03*
Y2900000D02*
D03*
D82*
X444200Y1329620D02*
D03*
X344200Y1429620D02*
D03*
Y1329620D02*
D03*
X244200Y1429620D02*
D03*
X344200Y1529620D02*
D03*
X244200D02*
D03*
X344200Y1629620D02*
D03*
X244200D02*
D03*
X344200Y1729620D02*
D03*
X244200D02*
D03*
X344200Y1829620D02*
D03*
X244200D02*
D03*
X344200Y1929620D02*
D03*
X444200Y1829620D02*
D03*
Y1929620D02*
D03*
X544200Y1829620D02*
D03*
Y1929620D02*
D03*
X644200Y1829620D02*
D03*
Y1929620D02*
D03*
X744200Y1829620D02*
D03*
X644200Y1729620D02*
D03*
X744200D02*
D03*
X644200Y1629620D02*
D03*
X744200D02*
D03*
X644200Y1529620D02*
D03*
X744200D02*
D03*
X644200Y1429620D02*
D03*
X744200D02*
D03*
X644200Y1329620D02*
D03*
X544200Y1429620D02*
D03*
Y1329620D02*
D03*
D83*
X444200Y1429620D02*
D03*
D84*
X4191750Y2651500D02*
D03*
X1081030Y2650280D02*
D03*
X4259380Y2651880D02*
D03*
X4122750Y2651250D02*
D03*
X4016880Y2607500D02*
D03*
X3953130D02*
D03*
X3890630Y2605630D02*
D03*
X4030630Y2285000D02*
D03*
X3961250Y2286250D02*
D03*
X3894380Y2286880D02*
D03*
X3828750D02*
D03*
X3760000D02*
D03*
X3762500Y2354380D02*
D03*
X3761880Y2416880D02*
D03*
Y2479380D02*
D03*
Y2536880D02*
D03*
X3703130Y2417500D02*
D03*
Y2478750D02*
D03*
X3825000Y1512500D02*
D03*
X4357500Y2283750D02*
D03*
X4490000Y2341880D02*
D03*
X3873350Y2804570D02*
D03*
X3725230Y2804080D02*
D03*
X3799600Y2804330D02*
D03*
X4293750Y2281250D02*
D03*
X4425630Y2340000D02*
D03*
X4490000Y2405630D02*
D03*
X4426880D02*
D03*
D85*
X4812500Y462500D02*
D03*
X3812500Y487500D02*
D03*
X4412500Y462500D02*
D03*
X4912500D02*
D03*
X5012500D02*
D03*
X3212500Y437500D02*
D03*
X2612500D02*
D03*
X2012500D02*
D03*
X1412500D02*
D03*
X812500Y450000D02*
D03*
X712500D02*
D03*
X612500D02*
D03*
X112500D02*
D03*
D86*
X3703130Y2354380D02*
D03*
X3703750Y2286880D02*
D03*
X3704380Y2536880D02*
D03*
D91*
X5025000Y1605000D02*
D03*
Y1545000D02*
D03*
D92*
X3056250Y1355630D02*
D03*
X3436250D02*
D03*
D93*
X4970940Y672500D02*
D03*
X4852820D02*
D03*
X4387190Y2542500D02*
D03*
X4269070D02*
D03*
D94*
X3792270Y2005910D02*
D03*
X3859190D02*
D03*
X3720030Y1925130D02*
D03*
X3786950D02*
D03*
X3719490Y1813200D02*
D03*
X3786410D02*
D03*
X3873260Y1581240D02*
D03*
X3940180D02*
D03*
X3873530Y1809320D02*
D03*
X3940450D02*
D03*
X1419710Y2726250D02*
D03*
X1352790D02*
D03*
X1353540Y2485000D02*
D03*
X1420460D02*
D03*
D95*
X3736430Y1369240D02*
D03*
Y1436160D02*
D03*
X3736470Y1227540D02*
D03*
Y1294460D02*
D03*
X468550Y794500D02*
D03*
Y727580D02*
D03*
X3614360Y1226440D02*
D03*
Y1293360D02*
D03*
X3613610Y1368250D02*
D03*
Y1435170D02*
D03*
X3583780Y2388670D02*
D03*
Y2455590D02*
D03*
X4070190Y682070D02*
D03*
Y615150D02*
D03*
X711640Y723180D02*
D03*
Y790100D02*
D03*
X2600000Y2958460D02*
D03*
Y2891540D02*
D03*
X218770Y797930D02*
D03*
Y731010D02*
D03*
D96*
X2882760Y1516900D02*
D03*
Y1635020D02*
D03*
X2750000Y2915940D02*
D03*
Y3034060D02*
D03*
D97*
X3129530Y1602360D02*
D03*
Y1622050D02*
D03*
Y1641730D02*
D03*
Y1661420D02*
D03*
Y1681100D02*
D03*
Y1700790D02*
D03*
Y1720470D02*
D03*
Y1740160D02*
D03*
Y1759840D02*
D03*
Y1779530D02*
D03*
Y1799210D02*
D03*
Y1818900D02*
D03*
Y1838580D02*
D03*
Y1858270D02*
D03*
Y1877950D02*
D03*
Y1897640D02*
D03*
X3570470D02*
D03*
Y1877950D02*
D03*
Y1858270D02*
D03*
Y1838580D02*
D03*
Y1818900D02*
D03*
Y1799210D02*
D03*
Y1779530D02*
D03*
Y1759840D02*
D03*
Y1740160D02*
D03*
Y1720470D02*
D03*
Y1700790D02*
D03*
Y1681100D02*
D03*
Y1661420D02*
D03*
Y1641730D02*
D03*
Y1622050D02*
D03*
Y1602360D02*
D03*
D98*
X3202360Y1970470D02*
D03*
X3222050D02*
D03*
X3241730D02*
D03*
X3261420D02*
D03*
X3281100D02*
D03*
X3300790D02*
D03*
X3320470D02*
D03*
X3340160D02*
D03*
X3359840D02*
D03*
X3379530D02*
D03*
X3399210D02*
D03*
X3418900D02*
D03*
X3438580D02*
D03*
X3458270D02*
D03*
X3477950D02*
D03*
X3497640D02*
D03*
Y1529530D02*
D03*
X3477950D02*
D03*
X3458270D02*
D03*
X3438580D02*
D03*
X3418900D02*
D03*
X3399210D02*
D03*
X3379530D02*
D03*
X3359840D02*
D03*
X3340160D02*
D03*
X3320470D02*
D03*
X3300790D02*
D03*
X3281100D02*
D03*
X3261420D02*
D03*
X3241730D02*
D03*
X3222050D02*
D03*
X3202360D02*
D03*
D99*
X2950780Y2828410D02*
D03*
Y2753610D02*
D03*
X3100000Y2827600D02*
D03*
Y2752800D02*
D03*
D100*
X575650Y900370D02*
D03*
X635650D02*
D03*
D101*
X48260Y1778770D02*
D03*
Y1810260D02*
D03*
Y1841760D02*
D03*
Y1873250D02*
D03*
X101400D02*
D03*
Y1841760D02*
D03*
Y1810260D02*
D03*
Y1778770D02*
D03*
D102*
X4202730Y2539760D02*
D03*
Y2360240D02*
D03*
D103*
X3920050Y2450000D02*
D03*
D104*
X3797500Y2718440D02*
D03*
Y2600320D02*
D03*
D105*
X1509840Y2718110D02*
D03*
X1535430D02*
D03*
X1561020D02*
D03*
X1586610D02*
D03*
X1612200D02*
D03*
X1637800D02*
D03*
X1663390D02*
D03*
X1688980D02*
D03*
X1714570D02*
D03*
X1740160D02*
D03*
Y2481890D02*
D03*
X1714570D02*
D03*
X1688980D02*
D03*
X1663390D02*
D03*
X1637800D02*
D03*
X1612200D02*
D03*
X1586610D02*
D03*
X1561020D02*
D03*
X1535430D02*
D03*
X1509840D02*
D03*
X684840Y2693110D02*
D03*
X710430D02*
D03*
X736020D02*
D03*
X761610D02*
D03*
X787200D02*
D03*
X812800D02*
D03*
X838390D02*
D03*
X863980D02*
D03*
X889570D02*
D03*
X915160D02*
D03*
Y2456890D02*
D03*
X889570D02*
D03*
X863980D02*
D03*
X838390D02*
D03*
X812800D02*
D03*
X787200D02*
D03*
X761610D02*
D03*
X736020D02*
D03*
X710430D02*
D03*
X684840D02*
D03*
X284840Y2718110D02*
D03*
X310430D02*
D03*
X336020D02*
D03*
X361610D02*
D03*
X387200D02*
D03*
X412800D02*
D03*
X438390D02*
D03*
X463980D02*
D03*
X489570D02*
D03*
X515160D02*
D03*
Y2481890D02*
D03*
X489570D02*
D03*
X463980D02*
D03*
X438390D02*
D03*
X412800D02*
D03*
X387200D02*
D03*
X361610D02*
D03*
X336020D02*
D03*
X310430D02*
D03*
X284840D02*
D03*
D106*
X1039760Y2550000D02*
D03*
X1260240D02*
D03*
D107*
X1142500Y1705678D02*
D03*
X1156423Y1719601D02*
D03*
X1170339Y1733516D02*
D03*
X1184262Y1747439D02*
D03*
X1198178Y1761355D02*
D03*
X1212101Y1775278D02*
D03*
X1226016Y1789194D02*
D03*
X1239939Y1803117D02*
D03*
X1253855Y1817033D02*
D03*
X1267778Y1830956D02*
D03*
X1281694Y1844872D02*
D03*
X1295617Y1858794D02*
D03*
X1309533Y1872710D02*
D03*
X1323456Y1886633D02*
D03*
X1337371Y1900549D02*
D03*
X1351294Y1914472D02*
D03*
X1365210Y1928388D02*
D03*
X1379133Y1942311D02*
D03*
X1393049Y1956227D02*
D03*
X1406972Y1970150D02*
D03*
X1420888Y1984065D02*
D03*
X1434811Y1997988D02*
D03*
X1448727Y2011904D02*
D03*
X1462650Y2025827D02*
D03*
X1476565Y2039743D02*
D03*
X1490488Y2053666D02*
D03*
X1504404Y2067582D02*
D03*
X1518327Y2081505D02*
D03*
X1532243Y2095421D02*
D03*
X1546166Y2109344D02*
D03*
X1560082Y2123260D02*
D03*
X1574005Y2137182D02*
D03*
X1587921Y2151098D02*
D03*
X1601844Y2165021D02*
D03*
X1615759Y2178937D02*
D03*
X1629682Y2192860D02*
D03*
X1741038Y1107140D02*
D03*
X1754960Y1121063D02*
D03*
X1768876Y1134979D02*
D03*
X1782799Y1148902D02*
D03*
X1796715Y1162818D02*
D03*
X1810638Y1176741D02*
D03*
X1824554Y1190656D02*
D03*
X1838477Y1204579D02*
D03*
X1852393Y1218495D02*
D03*
X1866316Y1232418D02*
D03*
X1880232Y1246334D02*
D03*
X1894155Y1260257D02*
D03*
X1908070Y1274173D02*
D03*
X1921993Y1288096D02*
D03*
X1935909Y1302012D02*
D03*
X1949832Y1315935D02*
D03*
X1963748Y1329850D02*
D03*
X1977671Y1343773D02*
D03*
X1991587Y1357689D02*
D03*
X2005510Y1371612D02*
D03*
X2019426Y1385528D02*
D03*
X2033349Y1399451D02*
D03*
X2047264Y1413367D02*
D03*
X2061187Y1427290D02*
D03*
X2075103Y1441206D02*
D03*
X2089026Y1455128D02*
D03*
X2102942Y1469044D02*
D03*
X2116865Y1482967D02*
D03*
X2130781Y1496883D02*
D03*
X2144704Y1510806D02*
D03*
X2158619Y1524722D02*
D03*
X2172542Y1538645D02*
D03*
X2186458Y1552561D02*
D03*
X2200381Y1566484D02*
D03*
X2214297Y1580399D02*
D03*
X2228220Y1594322D02*
D03*
D108*
Y1705678D02*
D03*
X2214297Y1719601D02*
D03*
X2200381Y1733516D02*
D03*
X2186458Y1747439D02*
D03*
X2172542Y1761355D02*
D03*
X2158619Y1775278D02*
D03*
X2144704Y1789194D02*
D03*
X2130781Y1803117D02*
D03*
X2116865Y1817033D02*
D03*
X2102942Y1830956D02*
D03*
X2089026Y1844872D02*
D03*
X2075103Y1858794D02*
D03*
X2061187Y1872710D02*
D03*
X2047264Y1886633D02*
D03*
X2033349Y1900549D02*
D03*
X2019426Y1914472D02*
D03*
X2005510Y1928388D02*
D03*
X1991587Y1942311D02*
D03*
X1977671Y1956227D02*
D03*
X1963748Y1970150D02*
D03*
X1949832Y1984065D02*
D03*
X1935909Y1997988D02*
D03*
X1921993Y2011904D02*
D03*
X1908070Y2025827D02*
D03*
X1894155Y2039743D02*
D03*
X1880232Y2053666D02*
D03*
X1866316Y2067582D02*
D03*
X1852393Y2081505D02*
D03*
X1838477Y2095421D02*
D03*
X1824554Y2109344D02*
D03*
X1810638Y2123260D02*
D03*
X1796715Y2137182D02*
D03*
X1782799Y2151098D02*
D03*
X1768876Y2165021D02*
D03*
X1754960Y2178937D02*
D03*
X1741038Y2192860D02*
D03*
X1629682Y1107140D02*
D03*
X1615759Y1121063D02*
D03*
X1601844Y1134979D02*
D03*
X1587921Y1148902D02*
D03*
X1574005Y1162818D02*
D03*
X1560082Y1176741D02*
D03*
X1546166Y1190656D02*
D03*
X1532243Y1204579D02*
D03*
X1518327Y1218495D02*
D03*
X1504404Y1232418D02*
D03*
X1490488Y1246334D02*
D03*
X1476565Y1260257D02*
D03*
X1462650Y1274173D02*
D03*
X1448727Y1288096D02*
D03*
X1434811Y1302012D02*
D03*
X1420888Y1315935D02*
D03*
X1406972Y1329850D02*
D03*
X1393049Y1343773D02*
D03*
X1379133Y1357689D02*
D03*
X1365210Y1371612D02*
D03*
X1351294Y1385528D02*
D03*
X1337371Y1399451D02*
D03*
X1323456Y1413367D02*
D03*
X1309533Y1427290D02*
D03*
X1295617Y1441206D02*
D03*
X1281694Y1455128D02*
D03*
X1267778Y1469044D02*
D03*
X1253855Y1482967D02*
D03*
X1239939Y1496883D02*
D03*
X1226016Y1510806D02*
D03*
X1212101Y1524722D02*
D03*
X1198178Y1538645D02*
D03*
X1184262Y1552561D02*
D03*
X1170339Y1566484D02*
D03*
X1156423Y1580399D02*
D03*
X1142500Y1594322D02*
D03*
%TF.MD5,32bc0a97493516f4e8b8b097fd4ea818*%
M02*
